"species","longitude","latitude"
"0",0,0
"Abies concolor",-120.3803,39.53214
"Abies concolor",-121.83176,41.39619
"Abies concolor",-119.39152,37.5037
"Abies concolor",-120.78796,40.93526
"Abies concolor",-123.82243,42.42873
"Abies concolor",-121.1122,39.41293
"Abies concolor",-122.47305,42.84572
"Abies concolor",-122.3087,41.02908
"Abies concolor",-120.68174,40.36307
"Abies concolor",-119.98208,38.5939
"Abies concolor",-123.86917,42.3651
"Abies concolor",-122.90696,41.57136
"Abies concolor",-121.57729,40.12465
"Abies concolor",-114.19259,40.96402
"Abies concolor",-122.12312,40.99988
"Abies concolor",-119.94254,38.61987
"Abies concolor",-122.69312,42.85587
"Abies concolor",-122.48711,40.74446
"Abies concolor",-117.18631,34.29799
"Abies concolor",-121.07829,40.13499
"Abies concolor",-120.05008,42.01241
"Abies concolor",-122.63789,41.27565
"Abies concolor",-120.25564,41.42059
"Abies concolor",-120.98679,40.16712
"Abies concolor",-119.77648,34.65524
"Abies concolor",-121.1931,40.56817
"Abies concolor",-114.16729,38.86772
"Abies concolor",-119.73123,38.67526
"Abies concolor",-116.61085,33.81092
"Abies concolor",-118.97789,37.31699
"Abies concolor",-123.23539,42.03314
"Abies concolor",-118.50712,35.082
"Abies concolor",-118.92201,34.73995
"Abies concolor",-121.34675,40.24932
"Abies concolor",-113.45256,38.40122
"Abies concolor",-122.13967,41.02393
"Abies concolor",-119.98922,39.03763
"Abies concolor",-123.36033,40.304
"Abies concolor",-121.61366,41.54954
"Abies concolor",-119.16695,37.34508
"Abies concolor",-118.27381,36.24783
"Abies concolor",-121.75576,41.06423
"Abies concolor",-120.48823,38.87756
"Abies concolor",-119.92596,37.86586
"Abies concolor",-120.55018,38.35974
"Abies concolor",-119.68395,37.75086
"Abies concolor",-120.53429,39.48289
"Abies concolor",-121.90863,41.0308
"Abies concolor",-120.96048,40.89746
"Abies concolor",-122.12729,41.15855
"Abies concolor",-120.94902,39.5342
"Abies concolor",-114.60326,39.25824
"Abies concolor",-113.42065,37.37851
"Abies concolor",-120.805,40.67556
"Abies concolor",-123.25844,40.97669
"Abies concolor",-120.48709,39.92408
"Abies concolor",-120.50819,38.97974
"Abies concolor",-115.26563,40.59299
"Abies concolor",-119.84106,38.92546
"Abies concolor",-121.19056,39.46007
"Abies concolor",-122.08609,42.37377
"Abies concolor",-121.63535,40.44834
"Abies concolor",-121.60695,40.28817
"Abies concolor",-115.6057,36.34307
"Abies concolor",-116.67554,33.71495
"Abies concolor",-113.90163,34.89686
"Abies concolor",-119.88874,38.51022
"Abies concolor",-123.02978,40.10727
"Abies concolor",-123.82319,42.54587
"Abies concolor",-119.34922,37.15949
"Abies concolor",-120.10891,41.86926
"Abies concolor",-120.18259,39.10204
"Abies concolor",-123.09485,40.08079
"Abies concolor",-121.12298,41.46378
"Abies concolor",-121.19678,40.41307
"Abies concolor",-120.72278,39.03151
"Abies concolor",-119.53012,37.69964
"Abies concolor",-119.85095,38.08238
"Abies concolor",-122.73067,39.90298
"Abies concolor",-117.33196,34.19663
"Abies concolor",-119.4258,37.64979
"Abies concolor",-118.32223,35.53053
"Abies concolor",-120.63351,40.33564
"Abies concolor",-113.55324,38.36767
"Abies concolor",-114.22711,38.26873
"Abies concolor",-123.13448,41.34417
"Abies concolor",-123.43198,41.16729
"Abies concolor",-119.88666,38.3636
"Abies concolor",-122.13715,41.61225
"Abies concolor",-119.7825,38.61547
"Abies concolor",-119.7213,38.36713
"Abies concolor",-121.68762,41.50607
"Abies concolor",-122.6882,39.4398
"Abies concolor",-120.41767,39.18923
"Abies concolor",-118.53208,35.69148
"Abies concolor",-123.52043,41.96215
"Abies concolor",-115.51786,38.28938
"Abies concolor",-119.6612,38.73949
"Abies concolor",-119.86804,38.91226
"Abies concolor",-119.1888,37.43329
