species,longitude,latitude
Pinus balfouriana,-118.11811,36.2387
Pinus balfouriana,-118.13361,36.26822
Pinus balfouriana,-118.12209,36.26144
Pinus balfouriana,-118.12617,36.26009
Pinus balfouriana,-118.1318,36.46677
Pinus balfouriana,-118.17618,36.42748
Pinus balfouriana,-118.26086,36.57108
Pinus balfouriana,-118.25178,36.57683
Pinus balfouriana,-118.36187,36.77113
Pinus balfouriana,-118.34515,36.77325
Pinus balfouriana,-118.56702,36.45329
Pinus balfouriana,-118.56252,36.46024