Predictor variable,Categorical,Sample average
bio1,false,66.09
bio10,false,156.05
bio11,false,-16.69
bio12,false,723.0
bio13,false,115.66
bio14,false,15.15
bio15,false,52.9
bio16,false,316.24
bio17,false,61.35
bio18,false,111.92
bio19,false,269.85
bio2,false,154.27
bio3,false,43.86
bio4,false,6822.03
bio5,false,258.72
bio6,false,-90.2
bio7,false,348.92
bio8,false,68.46
bio9,false,112.59
