X,Y,Test or train,Raw prediction,Cumulative prediction,Logistic prediction
-118.78512,36.63321,train,0.0033893769888969833,74.9470507794138,0.6848184048373819
-119.71965,37.85438,train,0.0031895412361449245,70.35343810824776,0.6715570249791339
-120.53046,39.34937,train,0.0035474230207318464,77.39642398120937,0.6945716358168157
-119.8762,39.30559,train,3.0538445958415834E-4,10.937953080974749,0.16371735352441408
-119.92014,38.22707,train,0.0031969234416504913,70.6731940495889,0.6720667386411395
-120.06351,38.67189,train,0.004851935669930699,92.5981114041782,0.7567119148258912
-118.5985,36.08903,train,0.001255100055564765,30.398143155401424,0.44585660674315214
-120.19875,38.95624,train,0.0036380531922188945,78.84227721404045,0.6998969745743975
-119.13121,37.1656,train,0.0024182832953099777,51.311322708308936,0.6078816536674254
-119.60141,37.97229,train,0.0018320866545845707,40.63066266745628,0.5401171247405486
-119.47955,37.74586,train,0.00438131476222009,87.96875184876484,0.7374404572799055
-119.84749,38.65437,train,0.003340301829984157,73.93893813850322,0.6816619042407921
-119.58229,37.60317,train,0.00491775423870789,94.07247445830527,0.7591839204491777
-118.5236,36.12091,train,0.0014566503792316995,34.00104435534622,0.4828812308953223
-120.24788,38.76162,train,0.003478739357861963,75.98469299792333,0.690408247739775
-120.32425,39.06416,train,0.007575289082089751,99.99999916673431,0.8292399386187184
-120.33705,38.61515,train,0.001349475477500778,32.38087680917707,0.46383193007794
-120.13745,39.02867,train,0.0031479574369080165,69.71722148492006,0.6686559563111192
-119.18258,37.33777,train,0.0019740922793813373,44.63825805465459,0.5585963354367844
-119.78099,38.49363,train,0.0018434472322260674,41.76260718699783,0.5416522275800206
-118.84921,36.74796,train,0.003018308027289135,65.99708992789564,0.6592727497312764
-119.86984,38.07622,train,0.003003208889900583,65.09258432412497,0.6581453050246027
-120.62896,39.49646,train,0.0019412615381408913,43.65655523857833,0.5544572854919378
-119.858,38.34626,train,0.003429713006089263,75.29008395281126,0.6873663162752596
-119.1888,37.25111,train,0.002581283437378872,56.35752450328229,0.6233156168029766
-120.32544,38.69469,train,0.0049112542870513864,93.08996703980027,0.7589420338579231
-119.50427,37.93013,train,0.0038454781830157526,82.25752422492161,0.7114130076374032
-120.04708,38.91159,train,0.002509641036392769,53.54606448545453,0.6166843112385425
-119.85215,39.26737,train,2.9339881473803246E-4,10.416502092131559,0.15830904012280714
-120.80768,39.74741,train,0.0010674414138408775,26.309539244207386,0.4062772124145339
-120.58551,39.65585,train,0.0013055109734626837,31.300865529230627,0.45560549727857663
-119.9881,39.18625,train,0.0014758412432349032,34.36406847915908,0.4861502366683304
-119.76466,37.83162,train,0.001717090161428335,38.347568016244715,0.523979016277311
-119.99989,38.5306,train,0.0031257830216812697,68.15136480621089,0.6670879218852823
-120.22,39.47111,train,0.0018336869610221997,40.65966099225595,0.5403339887487462
-120.44896,39.28433,train,0.0026585052785874533,57.93602106109707,0.6302111254345647
-119.52298,38.44856,train,8.68504146685689E-4,22.155455295389796,0.3576394696661747
-119.83211,39.22011,train,1.241758960181691E-4,4.548057560207625,0.07373398877293073
-119.97979,39.10102,train,0.0012616863279650281,30.791562830656083,0.4471500988489542
-119.39024,37.32702,train,5.087224853254737E-4,15.258936181425097,0.24591966004063348
-119.70829,38.60423,train,0.0028222088796540958,60.988359184772385,0.6440253295362278
-120.07854,39.30807,test,0.0015428848178580983,35.44042760809765,0.4972531607316522
-120.51933,39.56957,test,0.0015622829918544702,35.89530641761199,0.5003767043650196
-120.8987,39.69577,test,3.3738591566927103E-4,11.723966509872545,0.17782267591644027
-120.6391,39.39963,test,0.0012927588753004992,31.090880182152173,0.4531719439662936
-118.31679,35.91397,test,0.002211441387503938,47.249011733145764,0.5863758183374777
-123.03114,41.47756,test,2.905262706793612E-4,10.315505061330905,0.15700244698448346
-120.56702,39.69519,test,0.0011800160255453613,28.93415305664322,0.4306711584436095
-118.64876,36.60551,test,5.0610410434747216E-5,1.828747909207123,0.03142447619527858
-123.04792,41.07211,test,1.3377804524136472E-4,4.79018287876933,0.07898527211425205
-123.48781,40.49792,test,2.9283664633214608E-5,1.0735255118298335,0.018426503995361394
-120.23477,38.83325,test,0.004788067066011425,92.25529409724598,0.754264139802899
-119.16934,37.17051,test,0.0022290542614669014,47.806636277533364,0.5882985260481861
-120.31173,38.98181,test,0.0061235600391196,97.94563932936046,0.7969763036037831
-120.51565,39.10494,test,0.0014912978336579278,34.540890828382494,0.4887532423993992
-122.3047,41.38065,test,9.086109219529881E-5,3.3045682578783064,0.055040916268642735
-123.19936,41.36684,test,1.476990257697976E-4,5.390993251127574,0.08649359079940055
-120.60125,39.83473,test,6.097437898901332E-4,17.128490193933132,0.28103007887861586
-119.90994,38.25189,test,0.003053638944869669,66.908685401863,0.661882053882406
-122.20292,41.33109,test,1.2878529566615076E-4,4.6571354973411045,0.07626225892927134
-120.20308,39.15306,test,0.005107863046840078,94.79416859568857,0.7660499483554843
-119.90215,38.16603,test,0.004607374428687325,90.23161468211589,0.747064453745833
-121.77306,40.73594,test,9.48393687652425E-5,3.464909532524949,0.05731271745645947
-119.39031,37.63963,test,1.1865531567092798E-4,4.325355679499947,0.07068765934789921
-122.85249,40.92938,test,2.5904442413742423E-4,9.195518314370196,0.14241229706415087
-122.21579,41.4774,test,7.39495123066997E-5,2.6261725047775992,0.045260057779107236
-119.83818,38.03398,test,0.002644341420418515,57.144059674064444,0.6289653361431676
-118.25796,36.22633,test,8.823599055476479E-4,22.696571897841206,0.3612837504210146
-120.96877,40.63211,test,2.333680107842708E-5,0.8901738205810186,0.0147396452131191
-119.6223,37.58619,test,0.00332468302224845,73.72931953647951,0.6806440015351273
-120.01744,38.61453,test,0.004517080920630235,89.47542789562779,0.7433062845581774
-121.52201,40.07443,test,2.2780602452866498E-4,8.173141150885733,0.12742705501817245
-118.19692,36.25576,test,3.9550758490253577E-4,13.138831538935552,0.20226032711917533
-120.7749,39.71981,test,6.769019142622356E-4,18.316070423888743,0.30261625896028305
-119.24945,37.19538,test,0.0010667729840196701,26.254747439976114,0.4061261249428646
-123.14889,41.91028,test,1.2199091149486682E-4,4.48889244559279,0.0725306765028316
-122.12091,41.38083,test,4.794523191499898E-5,1.7284935014980551,0.029818987458539736
-121.51048,40.10965,test,1.9853870497308894E-4,7.069980976197158,0.11290427099553653
-120.61777,39.47679,test,0.0016107610734546857,36.85036722994468,0.5080156616371886
-121.48316,40.26217,test,1.837757713473972E-4,6.650123598024533,0.1053937549389852
-119.60894,38.04607,test,0.0018437782718740074,41.77050976406018,0.541696805799536
-118.56712,36.44927,test,2.9259691173061956E-5,1.0724821117009815,0.018411696635972766
-123.7252,41.74559,test,2.1080141341084993E-5,0.814960857450896,0.013333331397271372
-119.8858,39.25728,test,7.837931298325328E-4,20.27860720789093,0.3344221377953837
-118.61416,36.25625,test,0.002723151340667341,58.695647747258,0.6357924788564892
-120.32674,39.13898,test,0.003073172027511799,67.21604214283165,0.6633075534209839
-123.11907,41.00492,test,1.2128397463694954E-4,4.45423292037516,0.0721406833249091
-121.71607,40.62216,test,9.54440543813946E-5,3.489280905593084,0.057657068149635136
-118.57919,36.40419,test,1.8477649203027866E-5,0.7318545534780994,0.011706507598840728
-120.0042,39.3835,test,6.527116169890231E-4,17.77760157229973,0.29499192674669433
-119.40199,37.39947,test,8.82853461423024E-5,3.179353696977837,0.05356418349906137
-123.06226,41.51093,test,2.0843679188785238E-4,7.349863940480777,0.11786961373297167
-119.78,37.96975,test,9.225745024791149E-4,23.481758683468044,0.37163044239190024
-119.96398,38.32523,test,0.001306112282607293,31.3107708887455,0.45571971377708204
-118.93983,37.38635,test,7.929690265223139E-4,20.487726423778398,0.33701777485666456
-119.09929,37.16558,test,0.001403500560090597,33.35625691132031,0.4736065871651612
-118.91724,37.18802,test,2.7978420041798184E-4,9.89583719741937,0.15208019571735285
-120.38366,39.23468,test,0.004009793060789299,84.63985061451429,0.7199267398275326
-119.73102,38.30608,test,0.0029903554462461287,64.35754674847327,0.6571796492549524
-119.07374,37.19415,test,0.0010584266915114875,26.148470010308515,0.4042330888311993
-118.91116,36.98916,test,0.001006778696663569,25.52529898009751,0.39224491185536126
-122.28427,41.35047,test,1.0984403025028664E-4,4.025714049020912,0.06578374255904268
-122.15841,41.35494,test,4.163455442874278E-5,1.5209203382487537,0.025996165066954905
-123.21309,41.08324,test,2.469596266555068E-4,8.817371386550555,0.1366766009766492
-123.20206,41.31265,test,3.08374949401845E-5,1.1309673855892906,0.01938528520697351
-118.21307,36.25397,test,2.0744872880840585E-4,7.3268279649242025,0.11737645394099978
-118.96073,37.01041,test,0.001399165060328598,33.29427109168515,0.47283534530293786
-123.3142,41.56028,test,4.979640629867212E-4,14.983891739390682,0.2419774201532203
-118.99924,36.95935,test,7.866343287957149E-4,20.343358296470925,0.33522801324218543
-120.63716,39.83251,test,9.030589295244051E-4,23.006935867743305,0.3666515371408459
-120.11709,38.77435,test,0.004926132913866306,94.10427431536434,0.7594950058512152
-122.67263,39.4425,test,2.4650206315601765E-5,0.9261282601670153,0.015556294027918024
-120.63972,39.46482,test,0.0019412615381408913,43.65655523857833,0.5544572854919378
-119.61044,38.40469,test,1.2761042537603808E-4,4.629333085436765,0.0756191504332967
-120.85574,39.61299,test,1.429015715202701E-4,5.206047275930781,0.08391993436424532
-119.84045,38.03156,test,0.002644341420418515,57.144059674064444,0.6289653361431676
-119.23617,37.24948,test,0.0011576732852234695,28.692643336469995,0.4259904299098723
-119.97015,39.3938,test,5.984026721283261E-4,16.991288252045084,0.27725219975660276
-123.76465,41.5657,test,5.182602399984682E-5,1.876923347931811,0.0321549918718707
-120.63098,39.28305,test,1.3222161832362182E-4,4.738453459641489,0.07813813080901877
-120.32954,38.94572,test,0.004241922608881562,87.56989204069103,0.7311323453436915
-120.54057,39.29941,test,0.003131376417551917,69.39973831003587,0.6674848494367722
-119.37457,37.7483,test,4.909624762311489E-4,14.909863487561076,0.23938959113026265
-120.81474,39.97044,test,4.6812135213302304E-4,14.509961723244885,0.23082314589681685
-120.74542,40.18299,test,1.1459397776252991E-4,4.172377427961413,0.06843373528623885
-121.52604,40.3916,test,1.2470108253682239E-4,4.560485699757229,0.07402275361166706
-120.64488,39.53833,test,0.0016290764794091358,37.20581384523277,0.5108412723696277
-123.02236,41.09777,test,1.4593535697582548E-4,5.327289302834708,0.08554913050547518
-119.02747,37.21977,test,5.055944532766993E-4,15.167488251451047,0.24477768049137458
-120.08217,38.71671,test,0.0024482754106692145,51.74012046361965,0.6108157489673669
-120.90002,39.71095,test,8.106693113733806E-4,20.985775089752227,0.3419679875603351
-119.87409,38.336,test,0.003429713006089263,75.29008395281126,0.6873663162752596
-121.02869,39.71528,test,4.978338786453864E-4,14.982515291516643,0.2419294639040774
-119.99916,38.75772,test,0.0025889503961647005,56.43161677263822,0.6240117137944512
-120.74762,39.52949,test,0.0010667610724776917,26.253771039977984,0.4061234318390536
-120.62278,39.95008,test,2.9053433664867113E-4,10.315788656267726,0.15700612151618087
-120.42868,39.33677,test,0.0018662580133619255,42.32166248249548,0.5447038022682891
-120.61834,39.38469,test,0.0023017429674768155,49.17338092523764,0.5960480279656277
-120.04078,38.56884,test,0.004552558109145253,89.6300137639192,0.7447961476294023
-119.72119,38.55427,test,0.0012397408503238287,30.023371523823545,0.44281653508082686
-122.99654,41.1731,test,3.4701654463918614E-4,11.886296665032104,0.18197490656909596
-120.53189,39.43599,test,0.0029686100748385334,64.04059714780884,0.6555334775095475
-119.08672,37.14412,test,0.001403500560090597,33.35625691132031,0.4736065871651612
-123.29661,40.90814,test,5.5033344489034276E-5,2.003896781033244,0.03407713320809919
-119.60443,37.84899,test,0.002621604536808088,56.955705502273545,0.6269478541628983
-120.82089,39.71894,test,0.0010674414138408775,26.309539244207386,0.4062772124145339
-118.79241,37.22131,test,6.798921592732421E-5,2.434625920436378,0.04176447239784665
-118.71189,36.57886,test,8.846767852854724E-4,22.793575343302077,0.36188909453149043
-123.16734,41.45105,test,2.4552200724336425E-4,8.752947111607742,0.13598916647332177
-119.93164,38.14689,test,0.00475508959416708,91.63678476359188,0.7529808901777727
-123.45985,40.94934,test,2.9724785714241216E-5,1.092724483936975,0.01869888550733279
-118.93292,37.10283,test,0.0015938691399155324,36.52377556788208,0.5053805651829897
-121.45162,40.44144,test,7.320076230984236E-5,2.6004740551951024,0.04482233335205814
-118.98854,36.9834,test,7.866343287957149E-4,20.343358296470925,0.33522801324218543
-123.36684,41.49525,test,1.0185432613768884E-4,3.7216672840075637,0.061292119751645495
-122.00289,41.46279,test,3.256933398156945E-5,1.1871996652964696,0.02045170079462149
-119.2528,37.20814,test,6.398181634110649E-5,2.319266605953342,0.039399792869466696
-121.4989,40.04035,test,1.7022909877842778E-4,6.2480336245237815,0.09838923549116828
-120.20783,38.77065,test,0.0052887621414584845,95.67446760044226,0.7722294272103946
-119.786,38.2506,test,0.001778066441301611,39.46902835357793,0.5326746465003522
-119.81633,38.29039,test,0.0019226366139612652,43.28471787738811,0.5520745033214703
-119.52371,37.98158,test,0.0010599911465492607,26.168222212238778,0.4045888439277588
-119.10099,37.18314,test,0.0018372639433221897,41.10937103250182,0.5408179813850824
-119.96419,38.12936,test,0.00286147755173654,61.231593659714115,0.6471869133221142
-119.74171,38.45003,test,0.0021397101398374628,46.584656754890055,0.5783561807591668
-120.08861,38.75776,test,0.004926132913866306,94.10427431536434,0.7594950058512152
-123.44159,41.0641,test,9.084726906601638E-5,3.3040111276411843,0.05503300345909819
-120.58267,39.62714,test,8.483183875832463E-4,21.69913703604795,0.3522552529548148
-118.66872,36.32773,test,0.003542730320823976,77.04166514448956,0.6942907463644775
-119.3795,37.72248,test,0.002497507695092844,52.489449526557244,0.6155380461231411
-123.57069,40.64665,test,3.0481823390139465E-5,1.119418840021208,0.01916598565234109
-119.50654,37.83377,test,9.335805016147386E-4,24.099477005483323,0.3744039750852538
-123.29893,41.12661,test,1.1484613332966678E-4,4.180163195572451,0.06857399255317687
-121.79445,40.78043,test,9.558172726192068E-5,3.4948297016005316,0.05773543365424369
-123.06226,41.46118,test,3.899515107956112E-4,12.907435121219983,0.19998721506068523
-121.27729,40.50064,test,5.0030439931211225E-5,1.8057633569962934,0.031075557687728815
-120.38045,39.50944,test,0.0019996210183623564,45.19599483645577,0.5617620371500628
-118.98969,36.95523,test,0.0010698428351873844,26.50628305186618,0.40681938023355124
-123.72898,41.5548,test,6.773169281955782E-5,2.427212711811602,0.04161286368966162
-119.53366,37.48284,test,0.002868525568943996,61.27523178091625,0.6477484256327681
-120.08451,39.32119,test,0.0019044997413911215,43.132299802120656,0.549729538451241
-123.47397,41.0622,test,1.7562899297180024E-4,6.43430823492904,0.10119444166359667
-123.23653,40.9225,test,3.00355864572766E-4,10.754865168249182,0.16145677343446332
-121.10125,39.71573,test,2.3693402353141776E-4,8.4837024965336,0.13185968977187223
-120.23666,38.77032,test,0.003478739357861963,75.98469299792333,0.690408247739775
-122.98008,41.91983,test,2.3490595978233503E-4,8.42414124800373,0.13087874039485148
-119.91381,38.15066,test,0.004607374428687325,90.23161468211589,0.747064453745833
-123.04188,41.44241,test,3.114518612912918E-4,11.266263341289651,0.16642875144601824
-119.97921,38.77389,test,0.0025889503961647005,56.43161677263822,0.6240117137944512
-120.21738,38.8053,test,0.004788067066011425,92.25529409724598,0.754264139802899
-120.27871,38.95649,test,0.003983621198382934,83.86011011411219,0.7186044758750891
-122.96016,41.04539,test,2.3480324470783883E-4,8.42112465738492,0.13082899939800544
-120.34063,38.74722,test,0.001774417242909948,39.42908248405479,0.5321631932977183
-118.66446,36.54889,test,0.0022879913252724176,48.784146026838044,0.5946043908630962
-119.81985,38.33409,test,0.003467829308139742,75.6368332430512,0.6897364453043371
-121.62723,40.2653,test,1.0502744090962809E-4,3.842921674804521,0.0630811304109422
-123.07384,41.05651,test,1.3377804524136472E-4,4.79018287876933,0.07898527211425205
-119.58944,37.6361,test,0.0023328342133419463,49.74852358090254,0.5992743646173173
-122.04649,41.46387,test,2.3834471066471227E-5,0.9056569197330139,0.015049245728024527
-120.61268,39.99573,test,2.072084625241274E-4,7.321226330406286,0.11725644942428237
-119.7043,38.06878,test,0.002756382238035048,58.898106384546686,0.6385964791597091
-120.0998,38.43455,test,0.0041860562640376004,86.96748469063131,0.7285182334016219
-119.4815,37.92522,test,0.0027677075146845084,58.97759232105476,0.6395422594359577
-121.26561,40.41856,test,9.31527754618014E-5,3.3969327301760703,0.05635092085493275
-118.25157,35.96411,test,0.0016486188878096096,37.558812440781644,0.5138206059905466
-119.04736,37.10362,test,8.817696247172282E-4,22.67185793733414,0.3611293408253262
-119.12655,37.13841,test,0.0024182832953099777,51.311322708308936,0.6078816536674254
-120.89617,39.71918,test,8.106693113733806E-4,20.985775089752227,0.3419679875603351
-123.19704,41.39667,test,2.1532593178261714E-4,7.521842274238126,0.12129284819154049
-120.76008,39.61671,test,3.73079214086863E-5,1.343036067308799,0.023357763310998796
-121.73904,40.5941,test,9.54440543813946E-5,3.489280905593084,0.057657068149635136
-119.68063,37.64905,test,9.81895229564915E-4,25.21386454390289,0.386295230710575
-120.51931,39.47301,test,0.002316813475926399,49.63638839831964,0.5976183564033782
-118.78973,36.65351,test,0.0033893769888969833,74.9470507794138,0.6848184048373819
-120.47914,39.36313,test,0.0027178966139066113,58.663633747843036,0.6353450996444774
-119.66317,38.4848,test,7.170429865694224E-4,19.23529597272387,0.3149105298504645
-118.62111,36.25269,test,0.002723151340667341,58.695647747258,0.6357924788564892
-120.25947,39.4151,test,0.002379348869851708,50.34452830912779,0.6040060966528096
-118.64097,36.37355,test,0.003395255592323289,74.99705572669188,0.6851923216792746
-121.43014,40.02701,test,2.0366289228050997E-4,7.2335689699329135,0.11548176091371838
-120.18515,38.57871,test,0.00401249001642552,84.65207307664315,0.7200622904611859
-120.24992,38.54658,test,0.003993743443112594,84.07441892294013,0.7191173533492374
-121.43683,40.48298,test,8.360630794531267E-5,2.953416835690818,0.05086974501355812
-120.06615,38.45436,test,0.0034158128678824246,75.17189013343054,0.6864929490362985
-119.94976,38.14935,test,0.00475508959416708,91.63678476359188,0.7529808901777727
-120.63896,39.59774,test,0.0014291701100808542,33.59203643958639,0.4781271045161713
-120.31502,39.30598,test,0.0027167510409790143,58.656654437080775,0.6352474213957424
-122.97448,41.92758,test,2.3490595978233503E-4,8.42414124800373,0.13087874039485148
-119.87095,39.02535,test,6.616249236504193E-4,17.91917595141662,0.2978205541825415
-119.72075,38.36837,test,0.001106986541362836,27.223807858920395,0.41508095145904667
-120.08966,39.50188,test,7.354412822557285E-4,19.42001799750945,0.3204017873905361
-120.04538,38.47441,test,0.004256773152962458,87.61238479668349,0.7318187875394805
-119.1007,37.32506,test,0.001868126831086207,42.50822069504927,0.5449520086064793
-123.24725,41.05848,test,2.469596266555068E-4,8.817371386550555,0.1366766009766492
-120.02096,39.2409,test,0.0017052151236184138,38.22075544059638,0.5222477713330561
-118.6641,36.32848,test,0.0028027572537157094,59.861942826587324,0.6424381690001955
-120.28467,39.40481,test,0.002379348869851708,50.34452830912779,0.6040060966528096
-120.12841,38.57705,test,0.004464779568990102,88.35911432217925,0.7410778905440831
-119.6769,37.72906,test,6.343891127594632E-4,17.551389698706483,0.28910513057650256
-123.54295,40.58818,test,3.841412960873242E-5,1.3833500486242178,0.024033693584796227
-120.64698,39.92434,test,4.8114635584011335E-4,14.806076980635487,0.23573159920697467
-120.63389,39.64437,test,0.001813460098444692,40.29314048286532,0.5375778297895597
-119.42346,37.72882,test,0.0024094219445886145,50.55935640740262,0.6070062720845705
-120.72735,39.89532,test,9.815504654520073E-4,25.21036799370195,0.3862119787139916
-119.36681,37.71401,test,4.909624762311489E-4,14.909863487561076,0.23938959113026265
-120.13763,38.42903,test,0.004656303172595786,91.16129302775333,0.7490553406467992
-120.37605,39.06736,test,0.003030239774622773,66.30024795138108,0.6601584404680974
-120.04176,38.71993,test,0.0024482754106692145,51.74012046361965,0.6108157489673669
-119.58791,37.61569,test,0.00332468302224845,73.72931953647951,0.6806440015351273
-120.36081,39.27307,test,0.005236264155743908,95.49215310213143,0.7704699873252815
-123.02881,40.96545,test,3.7867973394169343E-4,12.660982009826663,0.1953356535678322
-119.66051,38.26829,test,3.4552418711047435E-4,11.863189255132395,0.18133422705352004
-118.30005,35.88846,test,0.002211441387503938,47.249011733145764,0.5863758183374777
-120.55088,39.21794,test,2.4650731618735E-4,8.796200908171242,0.13646043512445685
-122.99078,40.17787,test,2.458238153943706E-4,8.764209522212436,0.13613357453737973
-122.77228,42.0301,test,2.138512044560352E-4,7.476097050662095,0.1205622885586148
-123.2571,41.31701,test,1.1855622826426468E-4,4.320497646662171,0.07063279853910845
-119.05697,37.46394,test,2.9457713703007096E-4,10.457931240089401,0.15884383604397348
-119.07,37.23848,test,0.0010621892352073487,26.195974426260197,0.40508796927174995
-119.40839,37.33573,test,3.308214730026562E-4,11.591072947428351,0.1749681844528092
-122.27084,41.29817,test,2.0002404759814432E-4,7.117400050767503,0.113652949965249
