Predictor variable,Categorical,Sample average
bio1,false,60.97560975609756
bio10,false,143.26829268292684
bio11,false,-8.073170731707316
bio12,false,900.5853658536586
bio13,false,157.6341463414634
bio14,false,10.341463414634147
bio15,false,71.17073170731707
bio16,false,431.3170731707317
bio17,false,43.31707317073171
bio18,false,49.707317073170735
bio19,false,428.8048780487805
bio2,false,138.85365853658536
bio3,false,44.170731707317074
bio4,false,6108.634146341464
bio5,false,240.8780487804878
bio6,false,-70.0
bio7,false,310.8780487804878
bio8,false,-4.975609756097561
bio9,false,142.29268292682926
