Sat Apr 01 07:00:39 EDT 2017
MaxEnt version 3.3.3k
Checking header of /Users/averyhill/Desktop/RisForResearch/bioclimCA/bio1.asc
Checking header of /Users/averyhill/Desktop/RisForResearch/bioclimCA/bio10.asc
Checking header of /Users/averyhill/Desktop/RisForResearch/bioclimCA/bio11.asc
Checking header of /Users/averyhill/Desktop/RisForResearch/bioclimCA/bio12.asc
Checking header of /Users/averyhill/Desktop/RisForResearch/bioclimCA/bio13.asc
Checking header of /Users/averyhill/Desktop/RisForResearch/bioclimCA/bio14.asc
Checking header of /Users/averyhill/Desktop/RisForResearch/bioclimCA/bio15.asc
Checking header of /Users/averyhill/Desktop/RisForResearch/bioclimCA/bio16.asc
Checking header of /Users/averyhill/Desktop/RisForResearch/bioclimCA/bio17.asc
Checking header of /Users/averyhill/Desktop/RisForResearch/bioclimCA/bio18.asc
Checking header of /Users/averyhill/Desktop/RisForResearch/bioclimCA/bio19.asc
Checking header of /Users/averyhill/Desktop/RisForResearch/bioclimCA/bio2.asc
Checking header of /Users/averyhill/Desktop/RisForResearch/bioclimCA/bio3.asc
Checking header of /Users/averyhill/Desktop/RisForResearch/bioclimCA/bio4.asc
Checking header of /Users/averyhill/Desktop/RisForResearch/bioclimCA/bio5.asc
Checking header of /Users/averyhill/Desktop/RisForResearch/bioclimCA/bio6.asc
Checking header of /Users/averyhill/Desktop/RisForResearch/bioclimCA/bio7.asc
Checking header of /Users/averyhill/Desktop/RisForResearch/bioclimCA/bio8.asc
Checking header of /Users/averyhill/Desktop/RisForResearch/bioclimCA/bio9.asc
Reading samples from Pinus contorta.csv
Read samples: max memory 477626368, total allocated 128974848, free 102653304, used 26321544, increment 26321544
Reading samples from Pinus contorta.csv
Read samples: max memory 477626368, total allocated 128974848, free 102653304, used 26321544, increment 0
Extractor: max memory 477626368, total allocated 128974848, free 99918800, used 29056048, increment 2734504
Extracting random background and sample data
30872 points with values for all grids
Adding samples to background in feature space
Command line used:  environmentallayers=/Users/averyhill/Desktop/RisForResearch/bioclimCA/ samplesfile=/Users/averyhill/Desktop/RisForResearch/RESULTS/Pinus contorta/Sierra/GT/Pinus contorta.csv outputdirectory=/Users/averyhill/Desktop/RisForResearch/RESULTS/Pinus contorta/Sierra/GT/maxent redoifexists autorun adjustsampleradius=-7 jackknife writebackgroundpredictions testsamplesfile=/Users/averyhill/Desktop/RisForResearch/RESULTS/Pinus contorta/Sierra/TEST/Pinus contorta.csv
Command line to repeat: java density.MaxEnt nowarnings noprefixes jackknife "outputdirectory=/Users/averyhill/Desktop/RisForResearch/RESULTS/Pinus contorta/Sierra/GT/maxent" "samplesfile=/Users/averyhill/Desktop/RisForResearch/RESULTS/Pinus contorta/Sierra/GT/Pinus contorta.csv" environmentallayers=/Users/averyhill/Desktop/RisForResearch/bioclimCA/ noaskoverwrite "testsamplesfile=/Users/averyhill/Desktop/RisForResearch/RESULTS/Pinus contorta/Sierra/TEST/Pinus contorta.csv" writebackgroundpredictions autorun adjustsampleradius=-7
Species: Pinus_contorta
Layers: bio1 bio10 bio11 bio12 bio13 bio14 bio15 bio16 bio17 bio18 bio19 bio2 bio3 bio4 bio5 bio6 bio7 bio8 bio9
Layertypes: Continuous Continuous Continuous Continuous Continuous Continuous Continuous Continuous Continuous Continuous Continuous Continuous Continuous Continuous Continuous Continuous Continuous Continuous Continuous
jackknife: true
outputdirectory: /Users/averyhill/Desktop/RisForResearch/RESULTS/Pinus contorta/Sierra/GT/maxent
samplesfile: /Users/averyhill/Desktop/RisForResearch/RESULTS/Pinus contorta/Sierra/GT/Pinus contorta.csv
environmentallayers: /Users/averyhill/Desktop/RisForResearch/bioclimCA/
askoverwrite: false
testsamplesfile: /Users/averyhill/Desktop/RisForResearch/RESULTS/Pinus contorta/Sierra/TEST/Pinus contorta.csv
writebackgroundpredictions: true
autorun: true
adjustsampleradius: -7

getSamples: max memory 477626368, total allocated 128974848, free 117047248, used 11927600, increment -17128448
Making features
makeFeatures: max memory 477626368, total allocated 128974848, free 95583112, used 33391736, increment 21464136
Pinus_contorta: 
Regularization values: linear/quadratic/product: 0.204, categorical: 0.250, threshold: 1.540, hinge: 0.500
Time since start: 1.182
46 samples
Density: max memory 477626368, total allocated 128974848, free 86994680, used 41980168, increment 8588432
linearPredictor: max memory 477626368, total allocated 128974848, free 86914400, used 42060448, increment 80280
FeaturedSpace: max memory 477626368, total allocated 128974848, free 86914368, used 42060480, increment 32
Sequential: max memory 477626368, total allocated 128974848, free 86415640, used 42559208, increment 498728
Initial loss: 9.213634938925614
Initial test loss: 9.213634938925614
Time since start: 5.975
500: time = 4.685000 loss = 6.321423 testLoss 7.432297
Resulting gain: 2.892211508099085
Projecting...
Writing file /Users/averyhill/Desktop/RisForResearch/RESULTS/Pinus contorta/Sierra/GT/maxent/Pinus_contorta.asc
Time since start: 7.28
Writing /Users/averyhill/Desktop/RisForResearch/RESULTS/Pinus contorta/Sierra/GT/maxent/plots/Pinus_contorta.png
Time since start: 8.462
Jackknife: leave bio1 out
Making features
makeFeatures: max memory 477626368, total allocated 211288064, free 88892480, used 122395584, increment 79836376
Pinus_contorta bio1: 
Regularization values: linear/quadratic/product: 0.204, categorical: 0.250, threshold: 1.540, hinge: 0.500
46 samples
Density: max memory 477626368, total allocated 211288064, free 72523136, used 138764928, increment 16369344
linearPredictor: max memory 477626368, total allocated 211288064, free 72523136, used 138764928, increment 0
FeaturedSpace: max memory 477626368, total allocated 211288064, free 72523136, used 138764928, increment 0
Sequential: max memory 477626368, total allocated 211288064, free 72523136, used 138764928, increment 0
Initial loss: 9.213634938925614
Initial test loss: 9.213634938925614
Time since start: 13.492
500: time = 4.310000 loss = 6.327332 testLoss 7.394307
Jackknife: leave bio10 out
Making features
makeFeatures: max memory 477626368, total allocated 232259584, free 140643248, used 91616336, increment -47148592
Pinus_contorta bio10: 
Regularization values: linear/quadratic/product: 0.204, categorical: 0.250, threshold: 1.540, hinge: 0.500
46 samples
Density: max memory 477626368, total allocated 232259584, free 124750968, used 107508616, increment 15892280
linearPredictor: max memory 477626368, total allocated 232259584, free 124750968, used 107508616, increment 0
FeaturedSpace: max memory 477626368, total allocated 232259584, free 124750968, used 107508616, increment 0
Sequential: max memory 477626368, total allocated 232259584, free 124750968, used 107508616, increment 0
Initial loss: 9.213634938925614
Initial test loss: 9.213634938925614
Time since start: 17.981
500: time = 4.083000 loss = 6.319332 testLoss 7.436210
Jackknife: leave bio11 out
Making features
makeFeatures: max memory 477626368, total allocated 254279680, free 125259344, used 129020336, increment 21511720
Pinus_contorta bio11: 
Regularization values: linear/quadratic/product: 0.204, categorical: 0.250, threshold: 1.540, hinge: 0.500
46 samples
Density: max memory 477626368, total allocated 254279680, free 111888864, used 142390816, increment 13370480
linearPredictor: max memory 477626368, total allocated 254279680, free 111888864, used 142390816, increment 0
FeaturedSpace: max memory 477626368, total allocated 254279680, free 111832584, used 142447096, increment 56280
Sequential: max memory 477626368, total allocated 254279680, free 111832584, used 142447096, increment 0
Initial loss: 9.213634938925614
Initial test loss: 9.213634938925614
Time since start: 22.602
500: time = 4.185000 loss = 6.318783 testLoss 7.434362
Jackknife: leave bio12 out
Making features
makeFeatures: max memory 477626368, total allocated 230162432, free 110667568, used 119494864, increment -22952232
Pinus_contorta bio12: 
Regularization values: linear/quadratic/product: 0.204, categorical: 0.250, threshold: 1.540, hinge: 0.500
46 samples
Density: max memory 477626368, total allocated 230162432, free 96755352, used 133407080, increment 13912216
linearPredictor: max memory 477626368, total allocated 230162432, free 96755352, used 133407080, increment 0
FeaturedSpace: max memory 477626368, total allocated 230162432, free 96755352, used 133407080, increment 0
Sequential: max memory 477626368, total allocated 230162432, free 96755352, used 133407080, increment 0
Initial loss: 9.213634938925614
Initial test loss: 9.213634938925614
Time since start: 26.812
500: time = 3.825000 loss = 6.319966 testLoss 7.440573
Jackknife: leave bio13 out
Making features
makeFeatures: max memory 477626368, total allocated 203948032, free 52809304, used 151138728, increment 17731648
Pinus_contorta bio13: 
Regularization values: linear/quadratic/product: 0.204, categorical: 0.250, threshold: 1.540, hinge: 0.500
46 samples
Density: max memory 477626368, total allocated 203948032, free 38139152, used 165808880, increment 14670152
linearPredictor: max memory 477626368, total allocated 203948032, free 36874888, used 167073144, increment 1264264
FeaturedSpace: max memory 477626368, total allocated 203948032, free 36874888, used 167073144, increment 0
Sequential: max memory 477626368, total allocated 203948032, free 36874888, used 167073144, increment 0
Initial loss: 9.213634938925614
Initial test loss: 9.213634938925614
Time since start: 31.415
500: time = 4.190000 loss = 6.318364 testLoss 7.435920
Jackknife: leave bio14 out
Making features
makeFeatures: max memory 477626368, total allocated 271581184, free 99995192, used 171585992, increment 4512848
Pinus_contorta bio14: 
Regularization values: linear/quadratic/product: 0.204, categorical: 0.250, threshold: 1.540, hinge: 0.500
46 samples
Density: max memory 477626368, total allocated 271581184, free 86436392, used 185144792, increment 13558800
linearPredictor: max memory 477626368, total allocated 271581184, free 86436392, used 185144792, increment 0
FeaturedSpace: max memory 477626368, total allocated 271581184, free 86436392, used 185144792, increment 0
Sequential: max memory 477626368, total allocated 271581184, free 86436392, used 185144792, increment 0
Initial loss: 9.213634938925614
Initial test loss: 9.213634938925614
Time since start: 35.963
500: time = 4.168000 loss = 6.321043 testLoss 7.448324
Jackknife: leave bio15 out
Making features
makeFeatures: max memory 477626368, total allocated 310378496, free 114202552, used 196175944, increment 11031152
Pinus_contorta bio15: 
Regularization values: linear/quadratic/product: 0.204, categorical: 0.250, threshold: 1.540, hinge: 0.500
46 samples
Density: max memory 477626368, total allocated 310378496, free 99208784, used 211169712, increment 14993768
linearPredictor: max memory 477626368, total allocated 310378496, free 99208784, used 211169712, increment 0
FeaturedSpace: max memory 477626368, total allocated 310378496, free 99208784, used 211169712, increment 0
Sequential: max memory 477626368, total allocated 310378496, free 99208784, used 211169712, increment 0
Initial loss: 9.213634938925614
Initial test loss: 9.213634938925614
Time since start: 40.548
500: time = 4.209000 loss = 6.352452 testLoss 7.392389
Jackknife: leave bio16 out
Making features
makeFeatures: max memory 477626368, total allocated 295174144, free 182141160, used 113032984, increment -98136728
Pinus_contorta bio16: 
Regularization values: linear/quadratic/product: 0.204, categorical: 0.250, threshold: 1.540, hinge: 0.500
46 samples
Density: max memory 477626368, total allocated 295174144, free 165635160, used 129538984, increment 16506000
linearPredictor: max memory 477626368, total allocated 295174144, free 165635160, used 129538984, increment 0
FeaturedSpace: max memory 477626368, total allocated 295174144, free 165635160, used 129538984, increment 0
Sequential: max memory 477626368, total allocated 295174144, free 165635160, used 129538984, increment 0
Initial loss: 9.213634938925614
Initial test loss: 9.213634938925614
Time since start: 44.905
500: time = 3.979000 loss = 6.329042 testLoss 7.406669
Jackknife: leave bio17 out
Making features
makeFeatures: max memory 477626368, total allocated 325582848, free 187713184, used 137869664, increment 8330680
Pinus_contorta bio17: 
Regularization values: linear/quadratic/product: 0.204, categorical: 0.250, threshold: 1.540, hinge: 0.500
46 samples
Density: max memory 477626368, total allocated 325582848, free 171900480, used 153682368, increment 15812704
linearPredictor: max memory 477626368, total allocated 325582848, free 171900480, used 153682368, increment 0
FeaturedSpace: max memory 477626368, total allocated 325582848, free 171900480, used 153682368, increment 0
Sequential: max memory 477626368, total allocated 325582848, free 171900480, used 153682368, increment 0
Initial loss: 9.213634938925614
Initial test loss: 9.213634938925614
Time since start: 49.379
500: time = 4.091000 loss = 6.323462 testLoss 7.411230
Jackknife: leave bio18 out
Making features
makeFeatures: max memory 477626368, total allocated 284688384, free 55690288, used 228998096, increment 75315728
Pinus_contorta bio18: 
Regularization values: linear/quadratic/product: 0.204, categorical: 0.250, threshold: 1.540, hinge: 0.500
46 samples
Density: max memory 477626368, total allocated 284688384, free 42136952, used 242551432, increment 13553336
linearPredictor: max memory 477626368, total allocated 284688384, free 42136952, used 242551432, increment 0
FeaturedSpace: max memory 477626368, total allocated 284688384, free 42136952, used 242551432, increment 0
Sequential: max memory 477626368, total allocated 284688384, free 42136952, used 242551432, increment 0
Initial loss: 9.213634938925614
Initial test loss: 9.213634938925614
Time since start: 54.045
500: time = 4.266000 loss = 6.313216 testLoss 7.418739
Jackknife: leave bio19 out
Making features
makeFeatures: max memory 477626368, total allocated 304611328, free 186115576, used 118495752, increment -124055680
Pinus_contorta bio19: 
Regularization values: linear/quadratic/product: 0.204, categorical: 0.250, threshold: 1.540, hinge: 0.500
46 samples
Density: max memory 477626368, total allocated 304611328, free 169520192, used 135091136, increment 16595384
linearPredictor: max memory 477626368, total allocated 304611328, free 169520192, used 135091136, increment 0
FeaturedSpace: max memory 477626368, total allocated 304611328, free 169520192, used 135091136, increment 0
Sequential: max memory 477626368, total allocated 304611328, free 169520192, used 135091136, increment 0
Initial loss: 9.213634938925614
Initial test loss: 9.213634938925614
Time since start: 58.411
500: time = 4.000000 loss = 6.320042 testLoss 7.434426
Jackknife: leave bio2 out
Making features
makeFeatures: max memory 477626368, total allocated 285212672, free 156451712, used 128760960, increment -6330176
Pinus_contorta bio2: 
Regularization values: linear/quadratic/product: 0.204, categorical: 0.250, threshold: 1.540, hinge: 0.500
46 samples
Density: max memory 477626368, total allocated 285212672, free 142321776, used 142890896, increment 14129936
linearPredictor: max memory 477626368, total allocated 285212672, free 142321776, used 142890896, increment 0
FeaturedSpace: max memory 477626368, total allocated 285212672, free 142321776, used 142890896, increment 0
Sequential: max memory 477626368, total allocated 285212672, free 142321776, used 142890896, increment 0
Initial loss: 9.213634938925614
Initial test loss: 9.213634938925614
Time since start: 62.9
500: time = 4.120000 loss = 6.323330 testLoss 7.420076
Jackknife: leave bio3 out
Making features
makeFeatures: max memory 477626368, total allocated 271581184, free 107305520, used 164275664, increment 21384768
Pinus_contorta bio3: 
Regularization values: linear/quadratic/product: 0.204, categorical: 0.250, threshold: 1.540, hinge: 0.500
46 samples
Density: max memory 477626368, total allocated 271581184, free 92680832, used 178900352, increment 14624688
linearPredictor: max memory 477626368, total allocated 271581184, free 92600552, used 178980632, increment 80280
FeaturedSpace: max memory 477626368, total allocated 271581184, free 92600552, used 178980632, increment 0
Sequential: max memory 477626368, total allocated 271581184, free 92600552, used 178980632, increment 0
Initial loss: 9.213634938925614
Initial test loss: 9.213634938925614
Time since start: 67.417
500: time = 4.115000 loss = 6.321985 testLoss 7.456908
Jackknife: leave bio4 out
Making features
makeFeatures: max memory 477626368, total allocated 272629760, free 173890344, used 98739416, increment -80241216
Pinus_contorta bio4: 
Regularization values: linear/quadratic/product: 0.204, categorical: 0.250, threshold: 1.540, hinge: 0.500
46 samples
Density: max memory 477626368, total allocated 272629760, free 158251048, used 114378712, increment 15639296
linearPredictor: max memory 477626368, total allocated 272629760, free 158251048, used 114378712, increment 0
FeaturedSpace: max memory 477626368, total allocated 272629760, free 158251048, used 114378712, increment 0
Sequential: max memory 477626368, total allocated 272629760, free 158251048, used 114378712, increment 0
Initial loss: 9.213634938925614
Initial test loss: 9.213634938925614
Time since start: 71.073
500: time = 3.288000 loss = 6.342402 testLoss 7.400252
Jackknife: leave bio5 out
Making features
makeFeatures: max memory 477626368, total allocated 254803968, free 111555136, used 143248832, increment 28870120
Pinus_contorta bio5: 
Regularization values: linear/quadratic/product: 0.204, categorical: 0.250, threshold: 1.540, hinge: 0.500
46 samples
Density: max memory 477626368, total allocated 254803968, free 95884656, used 158919312, increment 15670480
linearPredictor: max memory 477626368, total allocated 254803968, free 95884656, used 158919312, increment 0
FeaturedSpace: max memory 477626368, total allocated 254803968, free 95884656, used 158919312, increment 0
Sequential: max memory 477626368, total allocated 254803968, free 95884656, used 158919312, increment 0
Initial loss: 9.213634938925614
Initial test loss: 9.213634938925614
Time since start: 75.47
500: time = 4.030000 loss = 6.327086 testLoss 7.443891
Jackknife: leave bio6 out
Making features
makeFeatures: max memory 477626368, total allocated 271581184, free 83877584, used 187703600, increment 28784288
Pinus_contorta bio6: 
Regularization values: linear/quadratic/product: 0.204, categorical: 0.250, threshold: 1.540, hinge: 0.500
46 samples
Density: max memory 477626368, total allocated 271581184, free 68542000, used 203039184, increment 15335584
linearPredictor: max memory 477626368, total allocated 271581184, free 68542000, used 203039184, increment 0
FeaturedSpace: max memory 477626368, total allocated 271581184, free 68531008, used 203050176, increment 10992
Sequential: max memory 477626368, total allocated 271581184, free 68531008, used 203050176, increment 0
Initial loss: 9.213634938925614
Initial test loss: 9.213634938925614
Time since start: 79.95
500: time = 4.105000 loss = 6.323295 testLoss 7.419825
Jackknife: leave bio7 out
Making features
makeFeatures: max memory 477626368, total allocated 325582848, free 96830160, used 228752688, increment 25702512
Pinus_contorta bio7: 
Regularization values: linear/quadratic/product: 0.204, categorical: 0.250, threshold: 1.540, hinge: 0.500
46 samples
Density: max memory 477626368, total allocated 325582848, free 82101992, used 243480856, increment 14728168
linearPredictor: max memory 477626368, total allocated 325582848, free 82101992, used 243480856, increment 0
FeaturedSpace: max memory 477626368, total allocated 325582848, free 82101992, used 243480856, increment 0
Sequential: max memory 477626368, total allocated 325582848, free 82101992, used 243480856, increment 0
Initial loss: 9.213634938925614
Initial test loss: 9.213634938925614
Time since start: 84.496
500: time = 4.179000 loss = 6.326308 testLoss 7.449767
Jackknife: leave bio8 out
Making features
makeFeatures: max memory 477626368, total allocated 322961408, free 212272688, used 110688720, increment -132792136
Pinus_contorta bio8: 
Regularization values: linear/quadratic/product: 0.204, categorical: 0.250, threshold: 1.540, hinge: 0.500
46 samples
Density: max memory 477626368, total allocated 322961408, free 197968184, used 124993224, increment 14304504
linearPredictor: max memory 477626368, total allocated 322961408, free 197968184, used 124993224, increment 0
FeaturedSpace: max memory 477626368, total allocated 322961408, free 197968184, used 124993224, increment 0
Sequential: max memory 477626368, total allocated 322961408, free 197968184, used 124993224, increment 0
Initial loss: 9.213634938925614
Initial test loss: 9.213634938925614
Time since start: 88.995
500: time = 4.131000 loss = 6.331082 testLoss 7.473991
Jackknife: leave bio9 out
Making features
makeFeatures: max memory 477626368, total allocated 302514176, free 145085256, used 157428920, increment 32435696
Pinus_contorta bio9: 
Regularization values: linear/quadratic/product: 0.204, categorical: 0.250, threshold: 1.540, hinge: 0.500
46 samples
Density: max memory 477626368, total allocated 302514176, free 130486416, used 172027760, increment 14598840
linearPredictor: max memory 477626368, total allocated 302514176, free 130486416, used 172027760, increment 0
FeaturedSpace: max memory 477626368, total allocated 302514176, free 130486416, used 172027760, increment 0
Sequential: max memory 477626368, total allocated 302514176, free 130486416, used 172027760, increment 0
Initial loss: 9.213634938925614
Initial test loss: 9.213634938925614
Time since start: 93.472
500: time = 4.114000 loss = 6.325614 testLoss 7.436737
Jackknife: only bio1
Making features
makeFeatures: max memory 477626368, total allocated 283639808, free 111392072, used 172247736, increment 219976
Pinus_contorta bio1: 
Regularization values: linear/quadratic/product: 0.204, categorical: 0.250, threshold: 1.540, hinge: 0.500
46 samples
Density: max memory 477626368, total allocated 283639808, free 109871896, used 173767912, increment 1520176
linearPredictor: max memory 477626368, total allocated 283639808, free 109871896, used 173767912, increment 0
FeaturedSpace: max memory 477626368, total allocated 283639808, free 109871896, used 173767912, increment 0
Sequential: max memory 477626368, total allocated 283639808, free 109871896, used 173767912, increment 0
Initial loss: 9.213634938925614
Initial test loss: 9.213634938925614
220: time = 0.493000 loss = 7.008048 testLoss 8.111031
Res.gain: 2.2055873978775553
Jackknife: only bio10
Making features
makeFeatures: max memory 477626368, total allocated 283639808, free 92197168, used 191442640, increment 17674728
Pinus_contorta bio10: 
Regularization values: linear/quadratic/product: 0.204, categorical: 0.250, threshold: 1.540, hinge: 0.500
46 samples
Density: max memory 477626368, total allocated 283639808, free 92173864, used 191465944, increment 23304
linearPredictor: max memory 477626368, total allocated 283639808, free 92173864, used 191465944, increment 0
FeaturedSpace: max memory 477626368, total allocated 283639808, free 92173864, used 191465944, increment 0
Sequential: max memory 477626368, total allocated 283639808, free 92173864, used 191465944, increment 0
Initial loss: 9.213634938925614
Initial test loss: 9.213634938925614
Time since start: 94.59
260: time = 0.566000 loss = 6.821239 testLoss 7.789909
Res.gain: 2.3923963596256916
Jackknife: only bio11
Making features
makeFeatures: max memory 477626368, total allocated 283639808, free 67641232, used 215998576, increment 24532632
Pinus_contorta bio11: 
Regularization values: linear/quadratic/product: 0.204, categorical: 0.250, threshold: 1.540, hinge: 0.500
46 samples
Density: max memory 477626368, total allocated 283639808, free 67617784, used 216022024, increment 23448
linearPredictor: max memory 477626368, total allocated 283639808, free 67617784, used 216022024, increment 0
FeaturedSpace: max memory 477626368, total allocated 283639808, free 67617784, used 216022024, increment 0
Sequential: max memory 477626368, total allocated 283639808, free 67617784, used 216022024, increment 0
Initial loss: 9.213634938925614
Initial test loss: 9.213634938925614
160: time = 0.394000 loss = 7.843461 testLoss 8.593370
Res.gain: 1.3701735069878298
Jackknife: only bio12
Making features
makeFeatures: max memory 477626368, total allocated 284164096, free 121842848, used 162321248, increment -53700776
Pinus_contorta bio12: 
Regularization values: linear/quadratic/product: 0.204, categorical: 0.250, threshold: 1.540, hinge: 0.500
46 samples
Density: max memory 477626368, total allocated 284164096, free 120393160, used 163770936, increment 1449688
linearPredictor: max memory 477626368, total allocated 284164096, free 120393160, used 163770936, increment 0
FeaturedSpace: max memory 477626368, total allocated 284164096, free 120393160, used 163770936, increment 0
Sequential: max memory 477626368, total allocated 284164096, free 120393160, used 163770936, increment 0
Initial loss: 9.213634938925614
Initial test loss: 9.213634938925614
Time since start: 95.792
260: time = 0.764000 loss = 8.004543 testLoss 8.319245
Res.gain: 1.2090915406914604
Jackknife: only bio13
Making features
makeFeatures: max memory 477626368, total allocated 283115520, free 93465640, used 189649880, increment 25878944
Pinus_contorta bio13: 
Regularization values: linear/quadratic/product: 0.204, categorical: 0.250, threshold: 1.540, hinge: 0.500
46 samples
Density: max memory 477626368, total allocated 283115520, free 92076424, used 191039096, increment 1389216
linearPredictor: max memory 477626368, total allocated 283115520, free 92076424, used 191039096, increment 0
FeaturedSpace: max memory 477626368, total allocated 283115520, free 92076424, used 191039096, increment 0
Sequential: max memory 477626368, total allocated 283115520, free 92076424, used 191039096, increment 0
Initial loss: 9.213634938925614
Initial test loss: 9.213634938925614
280: time = 0.658000 loss = 8.080195 testLoss 8.529145
Res.gain: 1.133439865638767
Jackknife: only bio14
Making features
makeFeatures: max memory 477626368, total allocated 283115520, free 64879744, used 218235776, increment 27196680
Pinus_contorta bio14: 
Regularization values: linear/quadratic/product: 0.204, categorical: 0.250, threshold: 1.540, hinge: 0.500
46 samples
Density: max memory 477626368, total allocated 283115520, free 63492576, used 219622944, increment 1387168
linearPredictor: max memory 477626368, total allocated 283115520, free 63492576, used 219622944, increment 0
FeaturedSpace: max memory 477626368, total allocated 283115520, free 63492576, used 219622944, increment 0
Sequential: max memory 477626368, total allocated 283115520, free 63492576, used 219622944, increment 0
Initial loss: 9.213634938925614
Initial test loss: 9.213634938925614
Time since start: 97.053
260: time = 0.565000 loss = 8.000695 testLoss 8.552046
Res.gain: 1.2129396856660914
Jackknife: only bio15
Making features
makeFeatures: max memory 477626368, total allocated 283115520, free 119699104, used 163416416, increment -56206528
Pinus_contorta bio15: 
Regularization values: linear/quadratic/product: 0.204, categorical: 0.250, threshold: 1.540, hinge: 0.500
46 samples
Density: max memory 477626368, total allocated 283115520, free 118469712, used 164645808, increment 1229392
linearPredictor: max memory 477626368, total allocated 283115520, free 118469712, used 164645808, increment 0
FeaturedSpace: max memory 477626368, total allocated 283115520, free 118469712, used 164645808, increment 0
Sequential: max memory 477626368, total allocated 283115520, free 118469712, used 164645808, increment 0
Initial loss: 9.213634938925614
Initial test loss: 9.213634938925614
Time since start: 98.066
460: time = 0.997000 loss = 7.871408 testLoss 7.960284
Res.gain: 1.3422274191032475
Jackknife: only bio16
Making features
makeFeatures: max memory 477626368, total allocated 283115520, free 98704384, used 184411136, increment 19765328
Pinus_contorta bio16: 
Regularization values: linear/quadratic/product: 0.204, categorical: 0.250, threshold: 1.540, hinge: 0.500
46 samples
Density: max memory 477626368, total allocated 283115520, free 97434672, used 185680848, increment 1269712
linearPredictor: max memory 477626368, total allocated 283115520, free 97434672, used 185680848, increment 0
FeaturedSpace: max memory 477626368, total allocated 283115520, free 97434672, used 185680848, increment 0
Sequential: max memory 477626368, total allocated 283115520, free 97434672, used 185680848, increment 0
Initial loss: 9.213634938925614
Initial test loss: 9.213634938925614
260: time = 0.709000 loss = 8.136968 testLoss 8.504167
Res.gain: 1.0766665963431041
Jackknife: only bio17
Making features
makeFeatures: max memory 477626368, total allocated 282591232, free 106419584, used 176171648, increment -9509200
Pinus_contorta bio17: 
Regularization values: linear/quadratic/product: 0.204, categorical: 0.250, threshold: 1.540, hinge: 0.500
46 samples
Density: max memory 477626368, total allocated 282591232, free 105267320, used 177323912, increment 1152264
linearPredictor: max memory 477626368, total allocated 282591232, free 105267320, used 177323912, increment 0
FeaturedSpace: max memory 477626368, total allocated 282591232, free 105267320, used 177323912, increment 0
Sequential: max memory 477626368, total allocated 282591232, free 105267320, used 177323912, increment 0
Initial loss: 9.213634938925614
Initial test loss: 9.213634938925614
Time since start: 99.446
300: time = 0.628000 loss = 8.236525 testLoss 8.334968
Res.gain: 0.9771095826425551
Jackknife: only bio18
Making features
makeFeatures: max memory 477626368, total allocated 282591232, free 92034232, used 190557000, increment 13233088
Pinus_contorta bio18: 
Regularization values: linear/quadratic/product: 0.204, categorical: 0.250, threshold: 1.540, hinge: 0.500
46 samples
Density: max memory 477626368, total allocated 282591232, free 90673880, used 191917352, increment 1360352
linearPredictor: max memory 477626368, total allocated 282591232, free 90673880, used 191917352, increment 0
FeaturedSpace: max memory 477626368, total allocated 282591232, free 90673880, used 191917352, increment 0
Sequential: max memory 477626368, total allocated 282591232, free 90673880, used 191917352, increment 0
Initial loss: 9.213634938925614
Initial test loss: 9.213634938925614
180: time = 0.427000 loss = 8.120026 testLoss 8.453698
Res.gain: 1.0936089981321153
Jackknife: only bio19
Making features
makeFeatures: max memory 477626368, total allocated 282591232, free 82240904, used 200350328, increment 8432976
Pinus_contorta bio19: 
Regularization values: linear/quadratic/product: 0.204, categorical: 0.250, threshold: 1.540, hinge: 0.500
46 samples
Density: max memory 477626368, total allocated 282591232, free 81088640, used 201502592, increment 1152264
linearPredictor: max memory 477626368, total allocated 282591232, free 81088640, used 201502592, increment 0
FeaturedSpace: max memory 477626368, total allocated 282591232, free 81088640, used 201502592, increment 0
Sequential: max memory 477626368, total allocated 282591232, free 81088640, used 201502592, increment 0
Initial loss: 9.213634938925614
Initial test loss: 9.213634938925614
Time since start: 100.626
260: time = 0.717000 loss = 8.123502 testLoss 8.543092
Res.gain: 1.0901326393243025
Jackknife: only bio2
Making features
makeFeatures: max memory 477626368, total allocated 283115520, free 94091056, used 189024464, increment -12478128
Pinus_contorta bio2: 
Regularization values: linear/quadratic/product: 0.204, categorical: 0.250, threshold: 1.540, hinge: 0.500
46 samples
Density: max memory 477626368, total allocated 283115520, free 92987792, used 190127728, increment 1103264
linearPredictor: max memory 477626368, total allocated 283115520, free 92987792, used 190127728, increment 0
FeaturedSpace: max memory 477626368, total allocated 283115520, free 92987792, used 190127728, increment 0
Sequential: max memory 477626368, total allocated 283115520, free 92987792, used 190127728, increment 0
Initial loss: 9.213634938925614
Initial test loss: 9.213634938925614
320: time = 0.665000 loss = 7.757529 testLoss 8.530134
Res.gain: 1.4561063563087755
Jackknife: only bio3
Making features
makeFeatures: max memory 477626368, total allocated 283115520, free 77433424, used 205682096, increment 15554368
Pinus_contorta bio3: 
Regularization values: linear/quadratic/product: 0.204, categorical: 0.250, threshold: 1.540, hinge: 0.500
46 samples
Density: max memory 477626368, total allocated 283115520, free 76012080, used 207103440, increment 1421344
linearPredictor: max memory 477626368, total allocated 283115520, free 76012080, used 207103440, increment 0
FeaturedSpace: max memory 477626368, total allocated 283115520, free 76012080, used 207103440, increment 0
Sequential: max memory 477626368, total allocated 283115520, free 76012080, used 207103440, increment 0
Initial loss: 9.213634938925614
Initial test loss: 9.213634938925614
Time since start: 101.711
160: time = 0.385000 loss = 8.799580 testLoss 9.009598
Res.gain: 0.41405473219005806
Jackknife: only bio4
Making features
makeFeatures: max memory 477626368, total allocated 283115520, free 70352080, used 212763440, increment 5660000
Pinus_contorta bio4: 
Regularization values: linear/quadratic/product: 0.204, categorical: 0.250, threshold: 1.540, hinge: 0.500
46 samples
Density: max memory 477626368, total allocated 283115520, free 69248816, used 213866704, increment 1103264
linearPredictor: max memory 477626368, total allocated 283115520, free 69248816, used 213866704, increment 0
FeaturedSpace: max memory 477626368, total allocated 283115520, free 69248816, used 213866704, increment 0
Sequential: max memory 477626368, total allocated 283115520, free 69248816, used 213866704, increment 0
Initial loss: 9.213634938925614
Initial test loss: 9.213634938925614
Time since start: 102.951
300: time = 1.219000 loss = 8.048607 testLoss 8.254310
Res.gain: 1.1650282653894308
Jackknife: only bio5
Making features
makeFeatures: max memory 477626368, total allocated 283115520, free 50276160, used 232839360, increment 18972656
Pinus_contorta bio5: 
Regularization values: linear/quadratic/product: 0.204, categorical: 0.250, threshold: 1.540, hinge: 0.500
46 samples
Density: max memory 477626368, total allocated 283115520, free 49061792, used 234053728, increment 1214368
linearPredictor: max memory 477626368, total allocated 283115520, free 49061792, used 234053728, increment 0
FeaturedSpace: max memory 477626368, total allocated 283115520, free 49061792, used 234053728, increment 0
Sequential: max memory 477626368, total allocated 283115520, free 49061792, used 234053728, increment 0
Initial loss: 9.213634938925614
Initial test loss: 9.213634938925614
240: time = 0.534000 loss = 6.888607 testLoss 8.007305
Res.gain: 2.3250274559044053
Jackknife: only bio6
Making features
makeFeatures: max memory 477626368, total allocated 270532608, free 78335112, used 192197496, increment -41856232
Pinus_contorta bio6: 
Regularization values: linear/quadratic/product: 0.204, categorical: 0.250, threshold: 1.540, hinge: 0.500
46 samples
Density: max memory 477626368, total allocated 270532608, free 77083280, used 193449328, increment 1251832
linearPredictor: max memory 477626368, total allocated 270532608, free 77083280, used 193449328, increment 0
FeaturedSpace: max memory 477626368, total allocated 270532608, free 77083280, used 193449328, increment 0
Sequential: max memory 477626368, total allocated 270532608, free 77083280, used 193449328, increment 0
Initial loss: 9.213634938925614
Initial test loss: 9.213634938925614
140: time = 0.342000 loss = 8.499485 testLoss 8.853377
Res.gain: 0.7141495371287387
Jackknife: only bio7
Making features
makeFeatures: max memory 477626368, total allocated 270532608, free 65628240, used 204904368, increment 11455040
Pinus_contorta bio7: 
Regularization values: linear/quadratic/product: 0.204, categorical: 0.250, threshold: 1.540, hinge: 0.500
46 samples
Density: max memory 477626368, total allocated 270532608, free 65628240, used 204904368, increment 0
linearPredictor: max memory 477626368, total allocated 270532608, free 65628240, used 204904368, increment 0
FeaturedSpace: max memory 477626368, total allocated 270532608, free 65628240, used 204904368, increment 0
Sequential: max memory 477626368, total allocated 270532608, free 65628240, used 204904368, increment 0
Initial loss: 9.213634938925614
Initial test loss: 9.213634938925614
Time since start: 104.56
300: time = 0.676000 loss = 7.899009 testLoss 8.464653
Res.gain: 1.314625687777074
Jackknife: only bio8
Making features
makeFeatures: max memory 477626368, total allocated 270532608, free 38687360, used 231845248, increment 26940880
Pinus_contorta bio8: 
Regularization values: linear/quadratic/product: 0.204, categorical: 0.250, threshold: 1.540, hinge: 0.500
46 samples
Density: max memory 477626368, total allocated 270532608, free 37291256, used 233241352, increment 1396104
linearPredictor: max memory 477626368, total allocated 270532608, free 37291256, used 233241352, increment 0
FeaturedSpace: max memory 477626368, total allocated 270532608, free 37291256, used 233241352, increment 0
Sequential: max memory 477626368, total allocated 270532608, free 37291256, used 233241352, increment 0
Initial loss: 9.213634938925614
Initial test loss: 9.213634938925614
180: time = 0.436000 loss = 7.560109 testLoss 8.284209
Res.gain: 1.6535259960293285
Jackknife: only bio9
Making features
makeFeatures: max memory 477626368, total allocated 274726912, free 81050736, used 193676176, increment -39565176
Pinus_contorta bio9: 
Regularization values: linear/quadratic/product: 0.204, categorical: 0.250, threshold: 1.540, hinge: 0.500
46 samples
Density: max memory 477626368, total allocated 274726912, free 80930120, used 193796792, increment 120616
linearPredictor: max memory 477626368, total allocated 274726912, free 80849840, used 193877072, increment 80280
FeaturedSpace: max memory 477626368, total allocated 274726912, free 80849840, used 193877072, increment 0
Sequential: max memory 477626368, total allocated 274726912, free 80849840, used 193877072, increment 0
Initial loss: 9.213634938925614
Initial test loss: 9.213634938925614
Time since start: 105.754
320: time = 0.724000 loss = 7.375916 testLoss 8.054299
Res.gain: 1.8377187987225128
Ending
