X,Y,Test or train,Raw prediction,Cumulative prediction,Logistic prediction
-117.61664,51.13798,train,7.928316512987899E-4,20.494298823750427,0.4233240065075616
-117.05901,49.21061,train,0.0014643791625884557,54.127130535352606,0.5755258491634415
-121.52472,54.17447,train,0.0025351879460698335,96.7925476796273,0.7012525308993725
-119.0455,50.98553,train,0.001824125457123447,73.91113586934776,0.6281065268880119
-113.50857,46.54823,train,0.0013049633640010653,44.45479382226808,0.5471536134254084
-121.59356,51.19115,train,4.0611668867128557E-4,10.228224569433547,0.27326634814291667
-110.06361,43.2914,train,9.676864889142759E-4,27.273080298659927,0.472566214274645
-111.01771,44.91732,train,0.0010650529110782713,30.83902440486476,0.49650659167357136
-115.27905,50.69121,train,0.002258504216744665,91.30336170594934,0.6764936685087749
-109.22328,43.9371,train,0.0014682007233203925,54.27401227586006,0.5761624269996589
-120.67872,52.45326,train,0.0013564133485542112,47.05853331529131,0.5567162577883163
-122.10903,50.3736,train,0.0018763448815473547,76.87531001944723,0.6346753810886271
-109.74307,44.27733,train,0.0014454635699585215,53.00075751224255,0.5723466102536363
-123.05343,40.98897,train,4.155406449854704E-4,10.609636404726553,0.27784564308758547
-115.5155,45.85617,train,9.376326072537011E-4,25.33453809839269,0.46470991970420106
-119.15696,51.50334,train,0.001888105264861966,77.81662764903834,0.6361228699270378
-121.24683,50.14644,train,0.0019170519126181396,79.60788574807353,0.6396372840391104
-120.29812,42.10972,train,1.8659939993889905E-4,4.5020335186210305,0.1473184539491012
-123.14652,51.38862,train,0.0010347747384141398,29.788040446627114,0.4892979894121665
-115.01593,46.58985,train,9.264423675014464E-4,24.9083562581904,0.46172458398189864
-114.49751,49.4887,train,0.0014244688875492775,51.38495421408625,0.5687616974087614
-118.52544,36.96943,train,0.001206050100424748,39.33060401883654,0.5275601125291707
-116.01051,51.72203,train,0.0016159799588346584,64.79605525907725,0.5993945940014409
-115.53481,49.31086,train,0.0014096748099687458,49.83833424808113,0.5661992464199503
-124.95962,52.16668,train,0.0010964539279598533,32.414561789681095,0.5037706610784968
-124.33209,51.02357,train,0.0021930079363536394,89.52259011601603,0.6700200512659003
-115.25435,46.24302,train,9.561214579108523E-4,26.502029531513156,0.46957048561576326
-110.74244,43.89812,train,0.001438053498957696,52.398719557283684,0.5710881416440504
-118.21755,51.17156,train,0.0011193383120681835,34.1313942707644,0.5089338934652892
-119.79043,51.85647,train,0.0017713181941055103,71.11429253019531,0.6212190462009909
-109.75411,43.07914,train,0.001342138019799657,45.69861389144978,0.5541037246226681
-109.60965,43.9381,train,0.0010059716556088934,28.562738640636738,0.4822463556123224
-119.4739,53.36648,train,0.0016998353492127909,68.30117721989207,0.6114789197558125
-121.46718,52.88408,train,9.510647623057278E-4,26.218815109237653,0.4682499135462982
-118.88202,37.20421,train,0.0011207710106716023,34.30121160471921,0.5092535709073046
-114.13407,49.06446,train,0.0014970856736680178,55.76007772780171,0.5809128844677754
-117.33079,51.219,train,0.0012074248385613828,39.50044881976569,0.527844043035558
-116.57758,51.47565,train,0.0016991768973492656,68.1086287309795,0.6113868713793745
-126.53449,52.68031,train,0.0016996113103618412,68.27882027165909,0.61144760510596
-125.16518,51.46773,train,0.0024167894371185474,95.5424695066833,0.6911372957532279
-125.37413,51.34298,train,0.002780331497512204,99.70672783239985,0.7202237646835677
-116.04645,51.57691,train,0.002128907975212148,88.00863154708237,0.6634285763703381
-119.96759,49.31302,train,0.0018369327595479327,75.01097444679367,0.6297393675446915
-109.61003,44.85925,train,0.0011218476195850224,34.57288838191735,0.509493520442858
-109.34283,42.92949,train,4.3121604135819036E-4,11.259101280373185,0.2853361366573588
-125.63566,52.13126,train,0.0022051333591932994,89.77300943405322,0.671237991880814
-115.68085,51.21751,train,0.0017742509733317674,71.57816446235057,0.6216082429621046
-115.90313,49.7899,train,0.0019455188401496495,81.073619456217,0.6430278703405496
-125.24523,52.5754,train,0.001249485063834063,41.83321742103712,0.5363689495933595
-121.08795,52.32046,train,0.0026250532914605133,97.827486201906,0.7084985137467699
-114.7878,43.81949,train,0.0017807507319826037,72.00116649377324,0.6224679545182887
-122.04289,43.78989,train,0.0016293114743985732,65.8939152458801,0.6013657951157408
-109.50228,44.63602,train,0.0019015126616970638,78.82724796675808,0.6377591464483894
-121.28972,48.12688,train,0.002632468290809274,98.35190692728527,0.7090807301342107
-114.87859,50.18237,train,0.0017077533819281124,69.02140908019157,0.6125824169986808
-123.89689,50.66867,train,0.001933537144711173,80.54537038309198,0.6416085833174434
-120.79537,52.13983,train,0.0023496945528783796,93.62793649816415,0.6850951063789625
-118.75987,41.64003,train,6.852966767870607E-4,17.501476031426666,0.38819596033763004
-110.45727,42.92732,train,0.0014230047017448845,50.92148746413462,0.5685094394571156
-119.34555,51.6917,train,0.0016688270828025048,66.75993733956798,0.6070962546232558
-118.63721,50.35878,train,0.001184485466241394,37.72934514437949,0.5230611602226495
-120.45184,48.77935,train,0.0019255602033376885,80.1056042467142,0.6406574032348799
-124.22555,50.65958,train,0.0016674010836384072,66.59352153389642,0.6068923265543656
-123.14979,41.87423,train,2.5754042278839874E-5,1.251840857819979,0.02329008357912002
-117.60392,52.81548,train,0.0013791035354868218,48.273802416424736,0.5608063768352513
-121.96357,50.84966,train,0.0016187941449054733,65.12008811996849,0.5998123217958571
-117.98008,51.33668,train,0.0010152041321713876,29.068492668214144,0.484527783187172
-125.66552,51.7445,train,0.0027061745199137392,99.15737728076579,0.714744054447938
-115.65612,50.92121,train,0.0021231693051105647,87.58317113228334,0.6628255960432199
-119.74775,54.07184,train,9.661712532905385E-4,27.079565186424126,0.47217564543718393
-115.24506,50.20148,train,0.0016086896749722792,63.505038604841964,0.5983083833476495
-122.47276,51.12646,train,0.0010506934343251736,30.24188235147502,0.4931134403706932
-110.59207,44.22885,train,0.001824710951406656,74.09383519453405,0.6281814873527224
-110.41597,43.25565,train,0.0015322260238078043,58.54986245227605,0.5865504674106875
-121.83193,49.63951,train,5.475156133544768E-4,13.542482067502293,0.33640356946650224
-117.04186,49.53206,train,0.001098250073338764,32.56594875503687,0.5041798351957155
-122.10151,43.30434,train,9.621523928835122E-4,26.790386920721804,0.47113693228122394
-115.65118,51.31586,train,0.0016875912130331699,67.60090938578688,0.6097600836244943
-121.4964,48.71192,train,0.002086189053021763,86.10725599643604,0.6588875381423993
-117.32982,52.73856,train,0.0012542830500687785,42.08421118390917,0.5373219004401568
-120.6514,52.15525,train,0.0020953214755822023,86.52559009207924,0.6598685864065784
-119.94094,51.65236,train,0.0012054677596043712,39.25868784204807,0.5274397362161553
-108.86335,42.74233,train,8.447713638192559E-4,21.956364208951722,0.4388852097839424
-110.74726,44.90785,train,0.001215229595169754,39.946766558590994,0.5294495458824551
-120.81539,47.95207,train,0.001965596548994615,81.66109293992098,0.6453811326886988
-120.03522,54.05038,train,0.001831256356878483,74.27683237519982,0.6290174388985355
-122.69295,50.86793,train,0.001735166861571351,70.09649256889617,0.6163549507683506
-125.74451,51.77727,train,0.0021215937975177716,87.37145788110044,0.6626596742607755
-121.24469,50.79931,train,4.887817365426569E-4,12.09974905688183,0.3115597117854072
-122.94208,50.63885,train,0.0021037732082103367,86.72143300155022,0.6607714972627617
-119.74619,38.23101,train,0.0011915980618862727,38.26590961227742,0.5245544758822102
-121.2077,53.6945,train,0.0026778329085320545,98.88664205344861,0.7125926744680714
-125.66816,51.64653,train,0.0023182195361961516,92.19442836294922,0.6821784262824847
-125.46278,52.13138,train,0.0015544045944819724,60.33767325272599,0.5900311702159948
-113.263,44.26151,train,0.0011871310001279757,38.06190131330473,0.5236176942045887
-125.72985,51.28327,train,4.0639200060535024E-4,10.253210435687622,0.273400951279113
-118.29581,51.44707,train,9.54569419359444E-4,26.422228572132003,0.4691658640051437
-123.70802,51.36875,train,0.0014405431137951307,52.81797472479456,0.5715117837768504
-117.83694,53.13097,train,0.0012404962531755,41.583418758569266,0.5345730322867848
-122.8134,50.95737,train,0.001485699699327047,55.01376714405676,0.5790531032057574
-119.96184,51.5843,train,0.0010958158663351202,32.35164745444328,0.503625143692987
-111.37676,45.17297,train,0.0015838043248293113,62.063225858375716,0.5945558234209183
-114.83351,44.06231,train,9.597077443004774E-4,26.6733081482318,0.4705030871536782
-120.97722,49.45029,train,0.0017117757020594265,69.30214413155483,0.6131405904424709
-118.99305,53.28197,train,9.373167806956108E-4,25.271657426928904,0.46462611757189454
-118.45254,36.88847,train,0.001235941748759765,41.37082948876352,0.5336577448839782
-120.07279,51.86252,train,0.001107770839217552,33.14531025012893,0.5063375112661622
-125.47211,52.74108,train,0.001367134600414206,47.64207640771903,0.5586583162313344
-110.5516,43.66836,train,0.0011554050790165255,35.8312367856338,0.5168567741199215
-119.48587,52.21026,train,0.0015664994092177036,61.27508342671659,0.5919047476486292
-120.28573,54.16084,train,0.001869386818772047,76.12517793435183,0.6338135351967868
-120.72372,49.23894,train,0.001703020592060814,68.6190106663986,0.6119235862749058
-124.94783,50.78508,train,7.345419074380129E-5,2.3554807189638316,0.06367970749426205
-120.59095,48.39856,train,0.002183369363646188,89.30332248431532,0.6690454461530447
-110.60267,44.71067,train,0.0011820808465346354,37.428176393270704,0.5225541774101026
-112.05429,46.16543,train,5.897887657101759E-4,15.075291759942465,0.35320308137857453
-110.32711,43.22642,train,0.0012892950303636165,43.73729712338002,0.5441589557133725
-110.85701,45.32982,train,5.086053793829334E-4,12.73391663537484,0.3201502960204839
-119.04765,51.126,train,0.0018035709008671452,73.32013108090798,0.6254556475479959
-117.99977,50.40087,train,0.0019527179192592185,81.26886363405848,0.6438752410932272
-111.28865,44.65984,train,0.0013522561180215077,46.51593145983264,0.5559586064156089
-112.98814,46.47295,train,6.29926737392627E-4,16.309696086202294,0.36838531359716165
-118.64621,49.9826,train,0.0016231059375087203,65.5071145434332,0.6004506617632266
-115.10137,45.85434,train,0.0010788577328979469,31.80745697914058,0.4997261216074232
-121.04378,52.67501,train,0.0014760860619915663,54.56860427912715,0.5774699143271151
-115.87275,49.3165,train,0.001256015563179149,42.334296884483784,0.5376650411550327
-115.40563,46.88907,train,5.385792839642897E-4,13.34402697821919,0.33273988196203463
-120.33813,52.6713,train,0.0022373396137369116,91.07745534406733,0.6744297254911811
-122.24764,49.85164,train,0.0012585468577128343,42.58612575931462,0.5381654740588205
-122.31759,50.62922,train,0.0016923846666359642,67.89048224808286,0.6104347987083847
-121.10899,48.25587,train,0.0023529937629112835,93.86295702285206,0.685397735881108
-119.88185,38.52486,train,0.0010284779782793292,29.527515468728144,0.4877728577030109
-119.46235,38.25689,train,0.0012278292580219505,40.59729943853831,0.5320184853173079
-122.3714,49.889,train,8.89602158916862E-4,23.038807210435753,0.4516566761369868
-117.43693,49.4816,train,0.0010529847250404785,30.31365033300537,0.4936579367844269
-124.97566,50.96172,train,0.0015922412101562042,62.30678616191303,0.595835885432281
-114.78978,45.38853,train,3.088717477838794E-4,7.351265802540574,0.22238395285668391
-121.35868,51.14834,train,4.398959248278602E-4,11.370621085323805,0.28941735994688533
-113.01646,47.98866,train,0.0011923477541576385,38.300147653591765,0.524711331942404
-124.43581,51.55431,train,0.001112407269072095,33.71054849641499,0.5073814730693508
-121.06045,47.52538,train,0.0011151891723063352,33.8676626913902,0.5080057436071838
-110.83366,45.21462,train,5.693423209218917E-4,14.269929376536046,0.34518511305098226
-114.09128,43.93259,train,0.0012133051448910716,39.85913841705423,0.5290546856310606
-125.14559,51.16935,train,0.00199475073952383,83.64867504580813,0.6487435159999451
-122.42171,50.58751,train,8.060464394332418E-4,20.801333715626978,0.42736446285657687
-119.47761,51.35078,train,0.0013502036747544551,46.10999648481119,0.5555835947772523
-116.71317,44.99709,train,3.158272018991616E-4,7.582244908133369,0.22625872807001998
-121.09781,49.83718,train,0.0015542262436058008,60.02638134798403,0.590003413609277
-115.47718,51.39786,train,0.001192608262527959,38.375391335587906,0.5247658131672024
-116.48951,52.16954,train,3.287919949398584E-4,7.9222985787788405,0.2333790898107577
-121.78613,46.80515,train,7.184955451698162E-4,18.347343656918525,0.3994891475291786
-113.90746,45.02209,train,6.23469717909864E-5,2.0588461893193837,0.05457603932333638
-117.04149,52.2996,train,0.001532929966781781,58.636516870882616,0.5866618521053585
-120.01384,53.87447,train,0.0018989004037966975,78.57572081181941,0.6374414944268426
-115.63906,48.8639,train,5.915616420573883E-4,15.134454361598829,0.3538890646504549
-121.49593,46.91414,train,0.0016243601811933416,65.76901938558335,0.6006359642879967
-109.66106,44.13764,train,0.0014996939130243927,56.36088719331381,0.5813366023491638
-113.76626,48.56619,train,0.0012031497853863778,39.13625114558477,0.5269599765489171
-114.49032,50.38147,train,0.0010229646322520223,29.27309016433928,0.4864299766387183
-112.29916,46.12406,train,0.0010001604053685182,28.244427655214047,0.48079995863443736
-114.6324,46.39499,train,8.421675689175864E-4,21.7886124337026,0.4381251318205486
-114.79067,48.7282,train,0.0016110999278881753,63.82744908000168,0.598668148471025
-116.55722,50.80227,train,0.002219347820279253,90.18642805571481,0.6726543680764429
-118.27568,50.07869,train,0.0012307946949519015,41.0966625432323,0.53261903433048
-122.04202,51.20286,train,0.0010733462927631494,31.26893632276676,0.4984457061160296
-116.38569,49.8664,train,0.0020866486109656977,86.31539365928356,0.6589370412501641
-118.80708,52.11073,train,0.0015982694914341053,62.54254525308137,0.5967455692139908
-124.17738,51.77399,train,0.0016133888852483428,64.14986453927347,0.5990092123853604
-120.08607,52.03043,train,0.001311152945217247,44.65877533179236,0.5483258020440386
-118.22954,50.19106,train,8.077864067351261E-4,20.840809165594774,0.4278922481217448
-113.77409,46.49637,train,0.001008697313236588,28.723575015013495,0.4829219881915428
-122.38049,50.32737,train,0.0020717665792753595,85.69022652618187,0.657326628562838
-122.14241,50.25312,train,0.0020233081832356035,84.25341157084877,0.6519758269622302
-124.59864,51.06589,train,0.0027146006944235718,99.42869473836153,0.7153774783715442
-113.77394,46.29177,train,0.0016886170588333255,67.76909003812398,0.6099046757244566
-125.51173,52.61594,train,0.0015188996398133039,57.80730966539168,0.5844304540993814
-125.2288,51.10848,train,0.002538954574483669,97.04654310613768,0.7015634654957724
-116.75005,50.80872,train,0.0020050138384218106,83.84921207811422,0.6499120465640362
-121.89618,50.94758,train,0.0010045229035093677,28.480979708441204,0.48188652162702433
-119.99481,52.37149,train,0.0017843784026481673,72.28724187475815,0.6229460836176132
-124.6715,51.63416,train,0.001875823781574571,76.68878999355468,0.6346109766895233
-120.29276,53.28374,train,0.0024107154028470165,95.05933905679125,0.6905998640853813
-115.70705,43.68755,train,1.8948666610213089E-4,4.551706567005217,0.1492576948418233
-109.85881,45.07122,train,0.0021135170340771977,86.94721619786107,0.6618065134314414
-111.50819,46.6377,train,1.1972323382980355E-4,3.2958453283099636,0.09978902680158125
-121.34237,54.48769,train,0.0012296235019714362,40.93731404488682,0.5323820330363803
-120.10618,48.55662,train,8.961297047179366E-4,23.531354186046634,0.4534679252611925
-120.35575,53.30365,train,0.002139194116807485,88.3604566814925,0.6645039939663977
-124.21284,52.11103,train,1.2125163545855326E-4,3.3320817891154944,0.10093436366387305
-121.28859,53.49574,train,0.0016209036827500999,65.28223613194409,0.6001248832790045
-118.05879,50.16587,train,0.0011761207413779904,37.114885791786044,0.5212929078121838
-114.01393,48.85905,train,0.0014234681985153493,51.09977543661649,0.5685893251386301
-115.4973,51.50717,train,0.0016031584902733125,62.79803501155368,0.5974803304485921
-117.62822,50.74949,train,8.346317920591577E-4,21.66466653056943,0.4359137016325564
-113.9695,45.63837,train,0.0014095981527433561,49.824099670051,0.5661858894755638
-120.43033,52.28432,train,0.001228977941793079,40.842636198296596,0.53225129542037
-119.63759,52.61498,train,0.001988449317267116,83.04979322284056,0.6480221788882841
-120.35221,53.04003,train,0.0023910346453729432,94.57795770206668,0.6888455864735769
-118.10206,53.02379,train,1.780616079691268E-4,4.290882211208808,0.141531945158762
-121.55094,53.10683,train,3.138820301476847E-4,7.512894570841903,0.22517899812387854
-121.30535,48.08673,train,0.0024717572977323095,95.79008654109971,0.6959172759422612
-120.44443,52.1566,train,0.0012376571360743311,41.45089812046311,0.5340028967496901
-123.90744,51.07979,train,0.0020390312911888636,84.66135049723658,0.6537302021059939
-114.83339,50.64519,train,0.0019374629849274816,80.6878424599933,0.6420748586820174
-113.80046,46.17967,train,0.0013145219263104985,44.77362399375155,0.5489612759635351
-125.55755,52.82282,train,0.0014227290005721619,50.815718160628336,0.5684619071279087
-126.02583,52.60381,train,0.002020491251130798,84.05130086977938,0.6516596358655777
-116.70712,49.27189,train,5.547622892552234E-4,13.792324057203786,0.33934512849009973
-114.48459,49.32695,train,0.0013776201460144926,48.014837589687694,0.5605412892792255
-121.84405,44.82054,train,0.001835209368450509,74.82695209718531,0.629520482730769
-120.71183,53.15156,train,0.0022144080268078677,89.96455044951271,0.6721635363307482
-119.38359,37.72652,train,9.312080041795799E-4,25.141933591314793,0.46300002326041656
-110.85482,44.56424,train,0.0018800115081197472,77.06316179868357,0.6351279099797921
-110.51093,45.56955,train,7.678432407760793E-4,19.314011065544996,0.41552577882097996
-113.97196,45.49097,train,7.866377760043044E-4,20.32280957808519,0.42141052219247216
-114.10717,49.09805,train,0.0015476575064075544,59.56087534644091,0.5889785012932273
-117.71413,52.23714,train,7.158940822584305E-4,18.276509446782445,0.39861929017804476
-119.25994,51.27428,train,0.001107438792309259,33.012778586938026,0.5062625761022539
-116.9566,52.6245,train,0.0013323189221651154,45.30476182969939,0.5522887797124172
-116.75835,51.78358,train,0.0023250648962109557,92.4559594897368,0.6828173501857031
-119.7299,54.16592,train,0.0016641910715905965,66.54437700354164,0.6064324963854164
-115.97836,47.73303,train,4.888457171290125E-4,12.103006030114663,0.31158778700137635
-117.24707,51.42679,train,0.0019861714420770283,82.2557376868101,0.6477606961148116
-118.45555,52.26803,train,0.002173292095464595,89.08504472062292,0.6680203071859496
-122.3092,42.80712,train,0.0010547011793971563,30.398595227359714,0.49406506479280826
-110.34699,45.22605,train,0.0015549637743828614,60.35903666512704,0.5901181705865948
-121.07833,54.36773,train,0.0010812390599581074,32.02414424365355,0.5002773301901888
-120.43016,54.3895,train,0.0017904856274784425,72.6363105286184,0.6237482895936425
-119.64876,51.35486,train,0.0014023930079756096,49.54307195534933,0.5649267646165776
-123.43883,50.13849,train,0.0013512032511888625,46.381615835494,0.5557663112181627
-124.7805,52.539,train,0.0014715754223461215,54.4000892128022,0.5767229832939121
-115.34554,44.86911,train,0.001483788952153771,54.86518021731268,0.5787393837575872
-109.76305,45.29554,train,0.00248247684545611,96.03827332486057,0.6968322551982562
-121.74956,50.54184,train,0.001333160869049773,45.34105694520463,0.5524449826326259
-114.58752,50.23418,train,0.0017371557851732539,70.16555441361623,0.6166258018821716
-110.83557,44.51316,train,0.002055490805866681,85.27734805696105,0.6555478950765591
-120.13724,53.56025,train,0.0015162635613113816,57.56821288596678,0.5840085181429994
-115.47558,44.94689,train,0.0010219361820567549,29.245894398414503,0.48617869828267823
-117.24532,52.32515,train,7.049794800823302E-4,17.927857306091617,0.394942114531925
-119.82198,52.05668,train,0.0013918492219053347,49.00928967134112,0.5630709700481124
-120.80816,39.72739,train,5.413267331573129E-4,13.405041434053926,0.333870571838857
-124.59189,50.92696,train,0.0021493763119584206,88.651740087444,0.6655617967318066
-118.27002,50.09478,train,0.0011846128980883984,37.82478993876959,0.5230879975316659
-125.82503,52.91571,train,0.0016182539353107393,65.05801642781755,0.5997322025776051
-114.8416,50.67325,train,0.0017159577302761912,69.54186509373743,0.6137192235310739
-115.50056,40.47544,train,7.534616412260887E-4,19.125188450364707,0.41094128720908796
-118.31065,50.24593,train,0.0010989679701084922,32.6035827808513,0.504343188268848
-123.69637,50.21206,train,0.0026256995477263933,98.08854386136841,0.7085493496582376
-119.94546,53.76368,train,0.0018346443581364472,74.6450376721831,0.6294486654420702
-120.91911,53.76412,train,0.002521453697097468,96.53913499769834,0.7001132614345057
-115.75561,49.50916,train,9.415487420348959E-4,25.66904738024306,0.4657468604842239
-124.49412,52.28206,train,0.0016816286507762776,67.32443684166354,0.6089175388258519
-109.42366,43.76745,train,0.0016240812679927414,65.60731439589917,0.6005947723891616
-126.13333,54.48911,train,7.95216702294183E-4,20.560328742041733,0.4240574535297023
-116.52981,45.2233,train,0.0012133838618989174,39.863877894149844,0.5290708498482524
-120.75372,48.79925,train,0.0019376864960725347,80.87614442884941,0.6421013687884688
-120.71544,54.43677,train,0.001766256526486511,70.86623918888283,0.6205454469890189
-121.41849,46.79448,train,0.0015126749888623799,57.11444045036055,0.5834327450966977
-117.1334,48.89816,train,0.0014248227367358657,51.53528599055288,0.5688226162379901
-126.31104,52.2786,train,0.0018046514583757104,73.3653767586497,0.6255959456278206
-120.5248,54.25151,train,0.0019942360322154264,83.44891244374102,0.6486847072720213
-117.13427,51.21091,train,0.0015380644152393867,59.09775168962979,0.5874724627033977
-115.36803,49.73643,train,0.0018654187531864455,75.75192836901766,0.6333202158565461
-114.84934,49.66203,train,0.0014235576058381503,51.12541876786066,0.5686047314758955
-114.52703,45.52563,train,9.676397498109184E-4,27.26715725568088,0.4725541753907282
-125.6919,51.23745,train,4.0867251523568203E-4,10.33868071830899,0.2745140066393652
-121.69358,46.76056,train,0.002346745777981202,93.39234752890484,0.6848241283755127
-118.91713,37.35004,train,8.913804750957054E-4,23.084048410517912,0.4521513081428229
-119.51945,51.18275,train,0.0014530993865120457,53.25252955413279,0.5736357151816799
-118.9145,53.36463,train,0.0017086529561672927,69.13136328377753,0.6127073898255452
-115.8095,49.00146,train,0.0012273140342964474,40.56211774017802,0.5319139867677976
-118.14812,50.30274,train,0.0011644574290406212,36.52797892275667,0.5188053533352858
-110.31898,45.17717,train,0.0013304099593501285,45.09471842398402,0.5519342135587443
-115.94806,44.83536,train,0.00110827178777998,33.34539706004112,0.5064505205198478
-122.76445,49.77492,train,0.0013552399055946716,46.96166202805539,0.5565026609346101
-119.46779,53.96398,train,0.0014809026570235142,54.75405067242104,0.5782646045480299
-121.48416,51.00929,train,2.480002805939537E-4,5.88249086140297,0.1867414951153204
-116.80104,50.10962,train,0.0012564610760890619,42.378783572593825,0.5377531969748381
-121.92499,45.16672,train,0.0012556486506868103,42.28133360983561,0.5375924131310135
-121.36724,46.72011,train,0.0014385531843695717,52.58438013539395,0.5711732371552147
-121.60931,46.84681,train,0.0018410997613918297,75.20083934383034,0.6302675437752806
-120.95658,52.45086,train,6.59845661422239E-4,16.937874020626822,0.3792465035900449
-114.23025,44.11162,train,0.00149721030059345,55.78209801663515,0.580933150071365
-120.84976,52.88281,train,0.002557796422932994,97.30221213802025,0.7031091907187474
-120.70601,53.43962,train,0.002668576009399424,98.61880149794223,0.7118829457537298
-124.54833,50.84001,train,0.0014380944664841259,52.530474300017175,0.5710951196097411
-123.25374,50.54516,train,0.0014573065401964303,53.834312723437534,0.5743426662593581
-117.38314,51.47854,train,0.0018868770687143876,77.62827098047514,0.6359722379962399
-125.80497,53.17442,train,0.0013529862489466363,46.77587602630387,0.5560918595261327
-120.49115,54.20882,train,0.0019236334523242517,79.91335535424929,0.6404268976030165
-119.123,48.7776,train,0.0012736314943007743,43.24890655184893,0.5411253625411507
-124.57405,52.31339,train,0.0015634200618531847,60.80559902200832,0.5914293605138068
-120.94086,52.88574,train,0.0022294848815337417,90.85387133027479,0.6736570263299051
-118.42491,51.2011,train,9.456078087820176E-4,25.835923750645446,0.4668174162046131
-114.61532,46.12917,train,8.209137324809585E-4,21.30827278837556,0.4318430248137455
-118.94504,37.49962,train,0.0011334736004275936,34.85490457931563,0.5120697947435409
-125.65927,51.33051,train,9.030001289596198E-4,24.058618048002845,0.45536143544420565
-124.15642,51.48678,train,0.0015625561023145612,60.64910079731615,0.591295784117872
-114.84043,45.56969,train,0.0013729808473120174,47.87674853544025,0.5597101589638492
-118.11948,53.29774,train,0.00141542393231204,50.29808713026806,0.5671986490916887
-120.88848,52.95704,train,0.0023433864795896825,93.15733808528688,0.6845148564466154
-122.46424,41.32625,test,9.621394918632494E-4,26.78945866943315,0.47113359130545196
-119.76402,38.49749,test,0.0011275892423055992,34.678180366352684,0.5107692341050191
-118.91325,37.31234,test,0.0010907173697182661,32.237119872485216,0.5024592993522734
-123.21767,41.58239,test,5.782379579409347E-4,14.653488908450475,0.34869778987557476
-119.72249,38.27195,test,0.0010163181259408344,29.09784842544967,0.4848017023963813
-119.56373,38.35358,test,0.0010306099127022229,29.61571962892905,0.4882902502480869
-119.25526,37.94115,test,0.0014298016435191714,52.02794700901885,0.5696779657232854
-119.23901,38.0159,test,0.0011437367059090372,35.23295373358514,0.5143216748497742
-119.52981,38.00665,test,0.001025356083312822,29.384760175078796,0.48701332407688636
-119.89953,38.88833,test,0.0010985194085035282,32.5800680086272,0.5042411334039971
-118.84864,37.43699,test,0.0011237093770798314,34.60742834561473,0.5099079069454281
-118.79241,37.09037,test,9.923303033840829E-4,27.950051740074876,0.4788382490352511
-119.31311,37.96333,test,0.001623027726681735,65.49912821648131,0.6004391011646615
-119.56325,38.37861,test,0.0013729782432985974,47.8766528012275,0.5597096915720859
-118.76912,37.14675,test,0.0010320236966391626,29.674211871243916,0.4886327810763329
-119.22317,38.02199,test,0.0011437367059090372,35.23295373358514,0.5143216748497742
-118.22896,36.59525,test,3.9659597726647794E-4,9.82239475144625,0.2685806841447544
-119.96134,38.64517,test,0.0012202630879775734,40.16441356051404,0.5304791980385302
-118.91294,37.52907,test,0.0011247125513234272,34.625721920457295,0.5101309014493379
-119.33536,37.63816,test,0.0013451517428827644,45.80773545603675,0.5546578283319481
-119.26942,38.003,test,0.0013240624041299758,44.93801842041331,0.5507511849236463
-119.77968,38.41522,test,9.347133278019346E-4,25.21637141436615,0.4639343105562444
-119.31223,38.41518,test,0.0013158892420968057,44.797184563673596,0.5492186760084489
-118.81574,37.08859,test,9.923303033840829E-4,27.950051740074876,0.4788382490352511
-119.64151,38.13565,test,0.0013410420474433778,45.658945658437496,0.5539018768848823
-119.44746,37.98717,test,0.0010499608806847686,30.22628017708185,0.4929391110789085
-119.44747,37.76904,test,0.0010283943005841517,29.524053485680533,0.4877525288832365
-119.57945,38.14369,test,0.00153950481513359,59.16691213516158,0.5876992977448289
-119.30436,38.39649,test,0.0013158892420968057,44.797184563673596,0.5492186760084489
-119.39368,38.05235,test,0.0015064643663655326,56.6866012869515,0.5824324986968115
-119.18383,37.62374,test,0.0010279105303163476,29.504038540688036,0.4876349691685559
-119.52204,38.41347,test,0.0010976752628703088,32.53559457627733,0.50404896290543
-119.68262,38.15345,test,0.0010660259056164897,30.87833631262661,0.4967348681073159
-118.75804,37.10613,test,0.001089943042083841,32.2197261428668,0.5022817590416436
-119.97834,39.34464,test,7.304842828758869E-4,18.640707553468715,0.40346554598954437
-118.84967,37.08366,test,9.172538002923499E-4,24.407647416977724,0.4592482436792137
-118.8034,37.38245,test,0.0011347239519466058,34.931832553993445,0.5123452571442021
-120.23943,41.36796,test,6.630859446262469E-4,16.99751356510068,0.38040041722824797
-120.24802,41.37153,test,6.630859446262469E-4,16.99751356510068,0.38040041722824797
-119.31289,38.03881,test,0.0016814051834423795,67.31408043754482,0.6088858908516422
-118.3773,36.76895,test,0.001076142955685432,31.46040203323816,0.4990962437287158
-119.9222,38.82662,test,0.0011390961725444113,35.10492512431684,0.5133060516483462
-119.67214,38.37438,test,0.001298412839458895,44.25640670395569,0.5459064240904944
-119.41333,38.21964,test,9.632912819364433E-4,26.872332007969984,0.471431704000305
-119.4941,38.35923,test,5.027230985579096E-4,12.523920107400713,0.317623660060965
-119.38806,37.78906,test,0.0011427534896027323,35.20582758096103,0.5141068430221024
-118.87198,37.29346,test,0.0010181608143196332,29.14640660790306,0.485254161370195
-119.50866,38.26707,test,0.0010827577435397304,32.058322707747614,0.5006282277794986
-119.37076,38.03255,test,0.0012428124908997308,41.647839457953665,0.5350371338054737
-119.94734,39.24758,test,2.2164370910462963E-4,5.304664318028477,0.17027459067621875
-118.78661,37.336,test,3.575117255465003E-4,8.7311113222071,0.24869481117098377
-122.53204,41.37395,test,8.2539129935651E-4,21.48011975956206,0.4331781348615242
-122.55278,41.34578,test,8.673589494304594E-4,22.597088714053296,0.4453934943434539
-118.92648,37.27446,test,8.342310564480971E-4,21.658075367088394,0.4357956152031676
-118.75579,37.30478,test,0.0011318745772256073,34.7565245521623,0.5117170633916905
-119.68555,38.1433,test,0.0010660259056164897,30.87833631262661,0.4967348681073159
-122.16674,41.42976,test,0.0015504266348477709,59.77386747324354,0.5894111892367563
-119.32165,38.04669,test,0.0014726184371035497,54.439055682048625,0.5768959340182946
-119.66676,38.06318,test,0.0010428832818452501,30.0755390909847,0.49124862461164187
-118.696,37.04927,test,0.0010764378865698416,31.480592079925827,0.4991647498651849
-120.05219,38.69807,test,0.0011673829074254733,36.60567330313483,0.519431726037648
-118.85446,37.23429,test,8.095533760849634E-4,20.880897223622416,0.4284272292045891
-119.40852,37.78029,test,0.0011427534896027323,35.20582758096103,0.5141068430221024
-119.51981,37.93528,test,6.144893748117217E-4,15.6622272722408,0.3626312302294876
-119.38191,38.05535,test,0.0015064643663655326,56.6866012869515,0.5824324986968115
-119.72853,38.07566,test,8.65333680201367E-4,22.56415307007384,0.444816110503191
-118.91973,37.12123,test,8.453541175233768E-4,21.993913258292874,0.4390550408181386
-119.37546,37.62311,test,0.0013038846705166261,44.42212485193714,0.546948706620042
-119.26228,38.07661,test,0.0014910233007052547,55.25711322106276,0.5799247088297154
-119.38231,38.17188,test,0.0013714191872605213,47.81406893874228,0.5594296799007014
-120.19632,38.96008,test,0.0010575630718519132,30.536816526839566,0.49474242683462366
-118.99428,37.41568,test,7.192347598325442E-4,18.36747144214513,0.399735861575934
-118.73687,37.06036,test,0.0010521743053096182,30.273543808673526,0.4934654844859273
-119.92291,38.76905,test,8.540959339335808E-4,22.3696734777056,0.4415903730269532
-119.35404,37.96771,test,0.0014532045465357499,53.27426412264079,0.573653414409863
-119.80323,38.4984,test,0.0011329585405818103,34.82321548215256,0.5119562324345653
-119.73065,38.34149,test,0.001109736870840455,33.51695009591078,0.5067807326513954
-118.91687,37.33301,test,9.029797089031616E-4,24.058151135738626,0.45535582705383254
-119.9733,39.29584,test,0.001039944224617543,30.01294205932864,0.4905433131337
-119.03981,37.44445,test,0.0012078056832792803,39.52367975890952,0.5279226401547743
-119.73185,38.33649,test,0.001109736870840455,33.51695009591078,0.5067807326513954
-119.5698,37.86071,test,9.757291264342309E-4,27.517274884116638,0.4746296552096887
-118.82569,37.29543,test,0.0011494028514063732,35.49426859655174,0.5155560297483495
-119.32203,38.42659,test,0.0016567698466966442,66.43101389178423,0.6053652857219565
-122.56002,41.42276,test,7.084467590739295E-4,17.987219479399524,0.39611511967232305
-121.96935,41.48186,test,6.933191000474202E-4,17.70445397785953,0.3909636739792647
-120.03088,38.67584,test,0.001167647507981668,36.61268889219582,0.5194882991226811
-119.42732,38.07706,test,0.0014182046128571322,50.43045674786891,0.5676803802053619
-119.04229,37.3862,test,5.94782259545818E-4,15.241929488025487,0.35513151041639707
-119.57642,38.40711,test,0.0013729782432985974,47.8766528012275,0.5597096915720859
-120.00294,38.65989,test,0.0011685408556412764,36.63637501046612,0.5196792035093799
-119.43143,38.10395,test,0.0014454054678503909,52.9985991625026,0.5723367713713416
-119.49477,38.0034,test,0.0012343850937617795,41.298123671710755,0.5333440886264925
-119.653,38.14196,test,0.0013410420474433778,45.658945658437496,0.5539018768848823
-119.47989,38.09233,test,0.0013528914069050632,46.76805747784965,0.5560745548256053
-119.3229,37.9779,test,0.001623027726681735,65.49912821648131,0.6004391011646615
-119.4171,37.5854,test,0.0011304478972802316,34.73030991319998,0.5114019187647036
-122.18669,41.39358,test,4.014581442495065E-4,9.950615203614435,0.2709811476083967
-119.24309,38.28214,test,1.2546730519128716E-4,3.4320299625312987,0.1040784034235812
-119.36762,37.6948,test,0.001091222028289499,32.24845602316278,0.502574940920639
-118.78673,37.43726,test,0.0011104880411250857,33.571508815005174,0.50694986612171
-119.47682,38.13939,test,0.0014292130780437682,52.00238797606914,0.5695770302432266
-119.36197,37.68913,test,0.001091222028289499,32.24845602316278,0.502574940920639
-119.47267,38.239,test,0.001514441921295974,57.36684886978191,0.5837164418559114
-118.79122,37.0127,test,0.0011306728942084019,34.7344128875049,0.5114516461868199
-118.76456,37.34212,test,3.575117255465003E-4,8.7311113222071,0.24869481117098377
-119.43547,38.23548,test,0.0013379447256196748,45.54683946970677,0.5533304467698166
-119.68053,38.17729,test,0.0012795579814717545,43.33073426893913,0.542277895449764
-118.87511,37.41412,test,0.0010639354520533243,30.793935997690287,0.49624416647738495
-119.5811,38.27607,test,0.0010340243481233974,29.756984484757098,0.48911671499680753
-119.55669,38.1133,test,0.0012662611461988493,43.14714327422071,0.5396839169665201
-119.41446,37.58903,test,0.0013038846705166261,44.42212485193714,0.546948706620042
-119.3316,38.05904,test,0.0014726184371035497,54.439055682048625,0.5768959340182946
-119.266,38.05352,test,0.0014910233007052547,55.25711322106276,0.5799247088297154
-118.93497,37.26275,test,8.342310564480971E-4,21.658075367088394,0.4357956152031676
-118.82101,37.38619,test,0.0011347239519466058,34.931832553993445,0.5123452571442021
-119.32851,37.67742,test,0.0013957295343994271,49.331189149674096,0.5637557757038717
-119.40748,38.08948,test,0.0015980766386389567,62.53248630877389,0.5967165306221812
-119.28942,37.76635,test,0.0012447899220401776,41.70277661046761,0.5354326173330024
-119.87138,38.72378,test,0.001088794675297631,32.19393036793369,0.5020182244216512
-120.00089,38.72837,test,0.0012353339315210139,41.34245858137894,0.5335353236961091
-119.93479,38.78607,test,8.540959339335808E-4,22.3696734777056,0.4415903730269532
-118.90354,37.25142,test,0.0011603422168676445,36.16100272104563,0.5179214783421467
-119.50124,37.78685,test,5.696023483527628E-4,14.287578708141943,0.34528832924424546
-119.97325,38.63739,test,0.0012202630879775734,40.16441356051404,0.5304791980385302
-119.32933,37.85844,test,0.0011167244711623087,33.938512471235796,0.5083495939066903
-118.76213,37.36464,test,3.575117255465003E-4,8.7311113222071,0.24869481117098377
-118.84929,37.25745,test,0.0010874212907008233,32.16308001560612,0.5017026845716841
-119.62308,38.41244,test,0.0014785020047490126,54.661619585969845,0.5778688948344138
-119.35834,37.76495,test,0.0013648182095408977,47.54910000005406,0.5582401653031641
-119.37472,37.61091,test,0.0012484017823963674,41.80312160817116,0.5361532504707112
-122.19833,41.32847,test,4.2407152097088485E-4,10.924103560741287,0.28194148838382765
-118.84009,37.10078,test,9.172538002923499E-4,24.407647416977724,0.4592482436792137
-118.37897,36.62068,test,0.0011128113473866845,33.73982220525853,0.507472248232273
-119.28628,38.0017,test,0.0013240624041299758,44.93801842041331,0.5507511849236463
-119.3158,37.91174,test,0.001220069612166139,40.15683548490843,0.5304397038742301
-118.81747,37.09406,test,9.923303033840829E-4,27.950051740074876,0.4788382490352511
-119.20702,38.01492,test,9.28961710396925E-4,25.094232084370248,0.4623995959276219
-119.2409,37.85633,test,0.0014881416036716681,55.12524054596414,0.5794533521371501
-119.95993,39.31095,test,0.001039944224617543,30.01294205932864,0.4905433131337
-119.2427,37.92687,test,0.0012899692180608547,43.75802646560911,0.5442886271023248
-119.95865,39.3493,test,7.304842828758869E-4,18.640707553468715,0.40346554598954437
-119.37866,38.15189,test,0.0010749213692729624,31.37677604489803,0.4988122956493126
-119.94141,39.33843,test,0.0012127414064333035,39.82475124246573,0.5289388917958556
-119.70785,38.27724,test,0.0010990776628367529,32.609333160489555,0.5043681387071849
-119.62034,38.15047,test,0.0013216317223955511,44.89613471839241,0.5502965096448658
-119.11442,37.41409,test,2.0681980750405542E-4,4.860261241485688,0.16071662248283397
-118.92024,37.33438,test,8.913804750957054E-4,23.084048410517912,0.4521513081428229
-118.88419,37.40298,test,0.0010639354520533243,30.793935997690287,0.49624416647738495
-119.14778,38.30294,test,6.870732014231718E-4,17.546429713450937,0.3888110226739984
-119.58187,38.40413,test,0.0013729782432985974,47.8766528012275,0.5597096915720859
-119.38392,38.3185,test,8.988962201305193E-4,23.779580651028056,0.45423196665672455
-118.42127,36.60347,test,9.921996395116021E-4,27.94473233881214,0.47880538748683704
-118.71324,37.05203,test,0.0010521743053096182,30.273543808673526,0.4934654844859273
-119.32543,37.67022,test,0.0013957295343994271,49.331189149674096,0.5637557757038717
-119.10965,37.40664,test,2.0681980750405542E-4,4.860261241485688,0.16071662248283397
-118.84844,37.35752,test,0.0010544633371957816,30.386824753772586,0.4940086897754268
-119.5591,38.26587,test,0.0010340243481233974,29.756984484757098,0.48911671499680753
-119.4147,38.22892,test,9.632912819364433E-4,26.872332007969984,0.471431704000305
-119.69741,38.29834,test,0.0012900034284984707,43.7609454108893,0.5442952050761453
-119.97899,39.31141,test,0.001039944224617543,30.01294205932864,0.4905433131337
-122.52362,41.35299,test,8.2539129935651E-4,21.48011975956206,0.4331781348615242
-119.32884,37.66862,test,0.0013957295343994271,49.331189149674096,0.5637557757038717
-119.45485,38.19607,test,0.0011711580384344473,36.70576669746197,0.5202376115853304
-119.51253,38.17656,test,0.0013038137870935566,44.41997809896364,0.5469352352306264
-119.69437,38.08367,test,0.0011803803592373753,37.30600819370991,0.5221950006529374
-119.03764,37.17971,test,0.0010419908527176808,30.056531834568386,0.49103466707904714
-119.23191,37.97891,test,0.0014894704524988215,55.18589749125833,0.5796708421487122
-119.98785,39.27157,test,7.303149934139253E-4,18.637495558187638,0.4034097630180887
-118.80589,37.33107,test,0.0011494028514063732,35.49426859655174,0.5155560297483495
-119.502,38.08579,test,0.001389371386790546,48.776234049174526,0.5626325506035459
-119.02786,37.41761,test,0.0012078056832792803,39.52367975890952,0.5279226401547743
-122.55069,41.41673,test,7.084467590739295E-4,17.987219479399524,0.39611511967232305
-119.9733,38.75567,test,0.001105518654041868,32.92581433502895,0.5058287995953862
-119.30868,37.9613,test,0.001623027726681735,65.49912821648131,0.6004391011646615
-118.78414,37.42123,test,0.0011104880411250857,33.571508815005174,0.50694986612171
-119.41607,37.80632,test,0.001295542693228655,44.1645919065397,0.5453577945635103
-119.939,38.77642,test,8.540959339335808E-4,22.3696734777056,0.4415903730269532
-119.40025,38.05828,test,0.0015064643663655326,56.6866012869515,0.5824324986968115
-119.72141,38.10076,test,9.826219120375756E-4,27.666037685076436,0.47638528206708947
-119.30264,37.73287,test,0.0012231383482735145,40.277031979048765,0.5310653421183333
-119.36017,37.61944,test,0.0012484017823963674,41.80312160817116,0.5361532504707112
-119.6305,38.09982,test,0.0011848685558151467,37.84886829550036,0.5231418302671254
-119.67966,38.21832,test,0.0013603410504403706,47.390641841130865,0.5574297062833787
-119.64332,38.14998,test,0.0013410420474433778,45.658945658437496,0.5539018768848823
-120.10515,38.81118,test,9.85088394409561E-4,27.712777563683588,0.4770106602747704
-119.27816,37.94877,test,0.0014298016435191714,52.02794700901885,0.5696779657232854
-122.46542,41.3157,test,9.621394918632494E-4,26.78945866943315,0.47113359130545196
-119.30568,37.84983,test,0.0011167244711623087,33.938512471235796,0.5083495939066903
-119.34065,37.91301,test,0.0011208682125604889,34.31273291533311,0.509275244448003
-119.05675,37.37894,test,5.94782259545818E-4,15.241929488025487,0.35513151041639707
-118.76637,37.33769,test,3.575117255465003E-4,8.7311113222071,0.24869481117098377
-119.2621,38.01592,test,0.0013240624041299758,44.93801842041331,0.5507511849236463
-120.01872,38.67027,test,0.001167647507981668,36.61268889219582,0.5194882991226811
-119.31021,38.01247,test,0.0016814051834423795,67.31408043754482,0.6088858908516422
-119.73074,38.15195,test,0.0010091434064104974,28.74989820689086,0.4830323973300558
-119.69502,38.25168,test,0.0010990776628367529,32.609333160489555,0.5043681387071849
-119.42861,38.05472,test,0.0014182046128571322,50.43045674786891,0.5676803802053619
-119.01212,37.44988,test,0.0012078056832792803,39.52367975890952,0.5279226401547743
-119.35506,38.25769,test,9.824263070407914E-4,27.662330967400898,0.47633562227833676
