Predictor variable,Categorical,Sample average
bio1,false,55.723684210526315
bio10,false,134.90131578947367
bio11,false,-9.368421052631579
bio12,false,797.6184210526316
bio13,false,135.92105263157896
bio14,false,9.921052631578947
bio15,false,68.11842105263158
bio16,false,379.95394736842104
bio17,false,46.776315789473685
bio18,false,55.348684210526315
bio19,false,367.0
bio2,false,132.2828947368421
bio3,false,43.76315789473684
bio4,false,5841.664473684211
bio5,false,231.125
bio6,false,-66.71710526315789
bio7,false,297.8421052631579
bio8,false,-5.453947368421052
bio9,false,128.46052631578948
