"species","longitude","latitude"
"0",0,0
"Pinus albicaulis",-120.10569,38.85021
"Pinus albicaulis",-118.9914,37.28498
"Pinus albicaulis",-119.3051,37.80168
"Pinus albicaulis",-119.39855,37.76344
"Pinus albicaulis",-118.38924,37.01523
"Pinus albicaulis",-119.06918,37.43168
"Pinus albicaulis",-119.35709,37.5212
"Pinus albicaulis",-115.50378,41.80935
"Pinus albicaulis",-119.33985,37.53466
"Pinus albicaulis",-115.48899,40.3743
"Pinus albicaulis",-119.27565,37.81632
"Pinus albicaulis",-119.00234,37.44384
"Pinus albicaulis",-115.42056,40.49218
"Pinus albicaulis",-120.1782,38.88563
"Pinus albicaulis",-119.76309,38.29633
"Pinus albicaulis",-120.01536,38.6606
"Pinus albicaulis",-115.48556,40.38643
"Pinus albicaulis",-115.3802,40.59329
"Pinus albicaulis",-118.74676,37.0256
"Pinus albicaulis",-115.46764,41.80024
"Pinus albicaulis",-115.52498,41.78705
"Pinus albicaulis",-119.31276,37.80481
"Pinus albicaulis",-115.41304,40.54417
"Pinus albicaulis",-118.94,37.29646
"Pinus albicaulis",-119.46097,38.13042
"Pinus albicaulis",-119.37273,37.85559
"Pinus albicaulis",-119.00581,37.66123
"Pinus albicaulis",-119.54937,38.19879
"Pinus albicaulis",-119.36209,37.57589
"Pinus albicaulis",-119.58023,38.01475
"Pinus albicaulis",-119.44104,37.78529
"Pinus albicaulis",-118.85968,37.53723
"Pinus albicaulis",-118.69179,37.38499
"Pinus albicaulis",-119.43029,38.0969
"Pinus albicaulis",-118.9084,37.37594
"Pinus albicaulis",-119.06575,37.50263
"Pinus albicaulis",-119.89295,38.79876
"Pinus albicaulis",-118.35072,36.92229
"Pinus albicaulis",-119.58251,38.39725
"Pinus albicaulis",-119.48651,37.95062
"Pinus albicaulis",-118.93785,37.4529
"Pinus albicaulis",-119.04932,37.4013
"Pinus albicaulis",-118.83204,37.4923
"Pinus albicaulis",-118.85182,37.16984
"Pinus albicaulis",-118.69331,36.87141
"Pinus albicaulis",-119.28705,37.65654
"Pinus albicaulis",-119.2532,37.60763
"Pinus albicaulis",-119.12644,37.4866
"Pinus albicaulis",-118.61971,37.11253
"Pinus albicaulis",-119.69651,38.1195
"Pinus albicaulis",-119.67973,38.11313
"Pinus albicaulis",-119.41494,38.15685
"Pinus albicaulis",-119.90942,38.83067
"Pinus albicaulis",-118.96749,37.44007
"Pinus albicaulis",-118.99178,37.51493
"Pinus albicaulis",-115.4745,40.49575
"Pinus albicaulis",-115.11325,40.9556
"Pinus albicaulis",-115.46148,40.45651
"Pinus albicaulis",-119.51764,37.8522
"Pinus albicaulis",-118.8786,37.44366
"Pinus albicaulis",-118.36684,36.58675
"Pinus albicaulis",-118.95386,37.48574
"Pinus albicaulis",-119.76968,38.43781
"Pinus albicaulis",-118.82357,37.32291
"Pinus albicaulis",-118.74036,41.64872
"Pinus albicaulis",-119.41614,37.8229
"Pinus albicaulis",-119.79985,38.53253
"Pinus albicaulis",-118.90227,37.24064
"Pinus albicaulis",-119.89658,38.72513
"Pinus albicaulis",-119.59851,38.03734
"Pinus albicaulis",-118.47064,36.83596
"Pinus albicaulis",-115.40747,40.58066
"Pinus albicaulis",-119.11081,37.70549
"Pinus albicaulis",-120.19979,41.27302
"Pinus albicaulis",-119.4703,38.0731
"Pinus albicaulis",-119.44988,37.61528
"Pinus albicaulis",-118.64215,37.27904
"Pinus albicaulis",-118.38391,36.74642
"Pinus albicaulis",-118.43543,36.69374
"Pinus albicaulis",-120.1637,38.83624
"Pinus albicaulis",-118.67553,36.88661
"Pinus albicaulis",-120.09523,38.60701
"Pinus albicaulis",-118.71822,36.73407
"Pinus albicaulis",-118.62811,37.27072
"Pinus albicaulis",-120.03013,38.68644
"Pinus albicaulis",-118.88685,37.32444
"Pinus albicaulis",-118.98137,37.15275
"Pinus albicaulis",-119.62078,38.29906
"Pinus albicaulis",-119.26773,37.77159
"Pinus albicaulis",-119.54839,38.16354
"Pinus albicaulis",-119.22586,37.84559
"Pinus albicaulis",-119.37549,37.85963
"Pinus albicaulis",-118.74575,37.52116
"Pinus albicaulis",-118.91068,37.25334
"Pinus albicaulis",-115.50439,40.48869
"Pinus albicaulis",-118.48883,36.78389
"Pinus albicaulis",-118.57985,37.21141
"Pinus albicaulis",-119.59945,38.45222
"Pinus albicaulis",-119.74627,38.45565
"Pinus albicaulis",-119.65218,38.09271
