Predictor variable,Categorical,Sample average
bio1,false,25.863636363636363
bio10,false,105.27272727272727
bio11,false,-37.72727272727273
bio12,false,797.9090909090909
bio13,false,132.72727272727272
bio14,false,15.727272727272727
bio15,false,63.68181818181818
bio16,false,363.3181818181818
bio17,false,58.90909090909091
bio18,false,67.18181818181819
bio19,false,351.3636363636364
bio2,false,125.63636363636364
bio3,false,42.81818181818182
bio4,false,5806.545454545455
bio5,false,193.54545454545453
bio6,false,-96.22727272727273
bio7,false,289.77272727272725
bio8,false,-29.818181818181817
bio9,false,99.81818181818181
