X,Y,Test or train,Raw prediction,Cumulative prediction,Logistic prediction
-119.59528,37.58467,train,0.004165450236779972,89.51836966054766,0.5793868743420048
-119.70636,38.43639,train,0.003795839294258346,75.26192284334618,0.556591012637819
-122.24249,42.67232,train,0.003337825257750525,41.31352877924661,0.5246679729966194
-119.66694,37.93149,train,0.003467715302821186,49.81163529356369,0.5341787526367553
-122.39324,43.06222,train,0.003246680339436569,36.35797550346373,0.5177589345706335
-122.03395,43.34582,train,0.0035183020947512104,54.01001241218163,0.537780626153931
-122.16687,42.78764,train,0.0034047044721707935,46.37179763272044,0.5296129860759653
-119.86868,38.85818,train,0.00350539308031032,52.957643111720564,0.5368667843065993
-118.25187,36.09126,train,0.0027989203545522473,17.706459490968395,0.480676216209042
-120.56703,39.27662,train,0.004400629310565502,96.76164683942415,0.5927100891377886
-119.65874,37.73412,train,0.003488623282927443,50.50891310481011,0.535674223810981
-121.22014,39.92255,train,0.0037421757705030146,69.60636902389908,0.5530742509818286
-119.76564,38.55157,train,0.0036462006126343907,63.702212969705265,0.5466435563774388
-122.19231,43.03963,train,0.0032892687977322216,37.995228887147114,0.5210120879749274
-119.84968,38.15808,train,0.004188976426630711,91.18921463164895,0.5807587737911981
-122.89025,39.76319,train,0.0035243219816675163,54.36261077087295,0.5382055480098529
-120.37976,38.74467,train,0.003190941755657611,32.59478581458443,0.5134339375296726
-122.57367,41.19084,train,0.0035321659498266855,55.42065667414834,0.5387580542777811
-122.61549,42.01013,train,0.0024328620309148805,10.525313864797733,0.44583858105752633
-122.0776,41.78064,train,0.0010951757689829917,3.301602521142691,0.26587509796677716
-122.29688,41.44307,train,0.0030557306906667334,27.490612345407083,0.5026128097737216
-122.95675,42.02985,train,0.0035484345689085913,56.130123413034134,0.5398997643238516
-120.27212,38.55065,train,0.003992206787395655,85.03540314446498,0.5690010803076496
-122.06067,41.42187,train,0.0029194153869954364,19.98425142668816,0.491204901752919
-122.52356,42.9399,train,0.003037175818771577,26.5751500178883,0.5010901653297256
-122.29703,43.09565,train,0.003219359889775706,34.44041637349641,0.5156486724262725
-122.66255,39.32853,train,8.800405862532778E-4,2.772755352941264,0.22542016725716346
-122.6812,41.94765,train,0.003031928417565809,26.27147745189185,0.5006578621472347
-122.96746,41.91121,train,0.003320929569798993,39.980886782601836,0.5234022203254144
-122.64393,41.94708,train,0.0027726972153900237,16.869850604730402,0.47832687967176213
-122.28064,43.06782,train,0.0033612921602155527,43.326418914400975,0.526414899993018
-120.29499,39.14982,train,0.004438385657397866,98.08798604107277,0.5947708055310689
-119.01825,37.30011,train,0.0037686635387640223,71.78341753401992,0.5548170333789159
-122.48531,41.24727,train,0.0034985342015326354,51.90568247158393,0.5363797659629237
-121.58908,40.53937,train,0.0029938604010649726,22.653083237547953,0.4974990834235245
-119.18042,37.1816,train,0.0038777022246538877,78.34631903961505,0.5618504349424064
-121.95097,43.29945,train,0.0033504507142040948,42.31810974681745,0.5256094377956566
-121.56091,40.49305,train,0.0029943847786845037,22.952835319471138,0.4975428662609341
-118.54616,36.31718,train,0.003081778716664664,29.028912865008557,0.5047347402923804
-123.12754,41.64456,train,0.003355364040348027,42.654119163814705,0.5259748112020929
-120.77059,39.91309,train,0.00425486677723665,93.30851271380695,0.5845538839359367
-120.01889,38.98949,train,0.0038884253654289072,79.50731841157099,0.5625301336069068
-119.66648,38.27947,train,0.003751570627072517,71.10617677551184,0.5536939519628077
-123.13805,41.81628,train,0.0029604406680159546,21.163399820829074,0.4946928801105123
-118.6716,36.41597,train,0.0029974751101762166,23.54862110174836,0.497800738169649
-122.23068,42.468,train,0.00333862630742332,41.646715355292976,0.5247278172980002
-118.55147,35.92108,train,0.002860248029698108,19.692123923847948,0.48608882521923974
-118.49127,36.38936,train,0.0018669176816449662,5.327860550791697,0.3817142030641662
-118.54027,36.33444,train,0.00265824566064752,13.333415165648582,0.46781928849880317
-118.39502,36.23059,train,0.0030296336425141247,25.98598235534867,0.5004685732973129
-119.57383,37.61945,train,0.004231787498911017,92.03574656742644,0.5832324217663524
-120.64769,39.89489,train,0.00384310137318906,76.7957675391547,0.559642744343799
-119.91223,38.77619,train,0.0034038047609974602,46.0330566647092,0.5295471447714722
-120.26157,38.72545,train,0.003771953428859779,72.24400427685809,0.5550325456764478
-121.16892,40.0537,train,0.004037657123535056,85.83932349730145,0.5717750970721455
-120.586,39.50118,train,0.0038779403508885347,78.73053700245659,0.5618655517787431
-120.19641,39.01309,train,0.004260378298915404,93.73450113270962,0.5848682213557782
-119.01659,37.24496,train,0.003980073656434858,84.63782484247298,0.5682544582621384
-120.22702,38.46064,train,0.0029693780571022938,21.46025090658588,0.4954464044221098
-123.67257,41.85951,train,0.0030551022817366957,27.18613408684889,0.5025613935338625
-123.28323,41.40357,train,0.0035274994337030447,55.067483571291284,0.5384295178925899
-122.06192,42.93008,train,0.0034289278833023206,47.39958260771774,0.5313787655667059
-120.02795,38.40346,train,0.003929388092658323,81.07166311347554,0.5651073032213901
-119.55145,38.37556,train,0.0034621955858968804,49.465023153740624,0.5337823388943295
-122.81341,41.20189,train,0.00377468720239163,72.99113290146177,0.5552114695295041
-120.43977,39.0534,train,0.0039664885983678394,83.84088412335475,0.5674154151419014
-118.77097,36.32496,train,0.002784004851872908,17.42665201180607,0.4793425348301961
-123.13837,41.89197,train,0.0031125552885699448,29.876004133509465,0.5072186525497582
-120.5444,39.54972,train,0.003875344080734191,77.95562470505386,0.5617006778596344
-120.99106,39.76548,train,0.003965637426464655,83.44476207578191,0.5673627363116899
-119.66864,38.63684,train,0.0029434894463692303,20.571835287879463,0.49325749765866217
-119.73507,38.25547,train,0.004424431137178509,97.64432169699133,0.5940116108975437
-123.20775,40.91458,train,0.0031777804780320196,31.854723092001976,0.5124013515162473
-123.04701,41.25855,train,0.0033579570640312707,42.98901386319527,0.5261674113918449
-119.48635,37.63161,train,0.004169355594983909,90.34384431651591,0.5796152314572426
-118.33892,36.26527,train,0.0029322668110272508,20.277428109335094,0.49230270094197626
-123.05644,42.00263,train,0.002997013631043258,23.254307864551002,0.4977622469764566
-120.50454,39.44327,train,0.0040457802106303046,86.64814397043341,0.5722671247584272
-123.03368,41.30357,train,0.0033179785618715294,39.648716020094405,0.5231804515881198
-120.39828,38.70043,train,0.0034896385224790884,50.85624830544243,0.5357465957651811
-120.18535,38.37239,train,0.003436775331044977,48.42952382954896,0.5319479701779496
-119.91708,39.18456,train,0.0026975728715644453,14.406735366541946,0.4714772559685977
-121.80943,40.6516,train,0.003242288242053485,35.70855084141387,0.5174209253730969
-120.31412,38.83424,train,0.003967422058504896,84.23834505231719,0.5674731720247974
-119.81436,38.12387,train,0.004185082694531466,90.77099022268652,0.5805323341698351
-119.76982,39.08127,train,0.0023023134327758788,8.39810126468829,0.4322559158038195
-119.90111,39.33801,train,0.0030206175861994195,24.35942268162059,0.49972347523057187
-123.73497,41.71217,train,0.0029548375354270695,20.867269403774323,0.49421932292453824
-118.6828,36.58261,train,0.0036501341593066098,64.06974312480476,0.5469107534747523
-121.96213,41.08335,train,0.0036422442469158313,63.337927046057935,0.5463744911521892
-118.47603,36.31338,train,0.0031082910899575935,29.65088898673381,0.5068759859950077
-121.58428,40.39847,train,0.0031747616251468873,31.67500041861071,0.5121638850597462
-120.59667,39.30979,train,0.0037438827364446934,69.9813863790449,0.5531869733072684
-119.85424,38.54026,train,0.0036838985350274994,66.26612914880816,0.5491914029919411
-121.99883,41.4461,train,0.0026097178507157905,12.538787219750095,0.4632351495689342
-122.55913,43.11057,train,0.002324453506625101,8.861041869316024,0.43460612576292657
-118.60477,36.23931,train,0.0029982311158349116,23.794919026825955,0.49786378257368014
-120.0437,38.35254,train,0.003738078967662395,69.23249563520946,0.5528034796151768
-119.89771,38.4587,train,0.0038962833947727366,79.89603259621335,0.5630268864787535
-123.31985,41.56189,train,0.003504014269821485,52.607273032397586,0.5367689633200929
-121.64398,40.52017,train,0.0034395297845066617,48.77382215542709,0.5321474332342233
-120.37,39.40529,train,0.003789894772448414,74.88268737516664,0.5562041751902573
-122.16207,41.0139,train,0.003506750897698723,53.65808691507594,0.5369630755513849
-121.46914,39.96964,train,0.0038852919700511942,79.12734285704447,0.5623317378968387
-122.96069,41.84893,train,0.0028384476567061096,19.11990713306211,0.4841777581416608
-122.32384,42.70135,train,0.0032285874242231312,34.799529506651226,0.5163634799874964
-122.78048,39.32558,train,0.0023956978029300437,10.039968243928705,0.4420385294636946
-121.84711,43.30465,train,0.0036271355052863675,61.519634092557055,0.5453440278171559
-120.03873,38.27694,train,0.0033141990956687315,39.316363232212176,0.5228961224654088
-119.77736,39.1462,train,0.00222555597308702,7.940706565496373,0.42395446679043125
-118.59833,36.41849,train,0.003202887922541642,33.45120123970643,0.5143674112475289
-120.33229,39.2122,train,0.004496772844024763,98.98342119661747,0.5979168009286376
-122.26827,42.67539,train,0.0033137557065063155,38.985550695450144,0.5228627440873771
-121.52938,41.61043,train,4.1002939129607005E-4,2.1077309410138776,0.11940320147023335
-120.77917,40.11318,train,0.003367096033231344,44.334401020345034,0.5268449740742375
-118.39832,36.34076,train,0.003206121325027281,34.09270034816575,0.5146194537815225
-122.8183,40.02527,train,0.0034970996837720703,51.55553315626963,0.5362777777221572
-118.32656,36.05798,train,0.0026712822707373996,13.600757742388788,0.46903746877082814
-122.55334,43.07516,train,0.0027285786758182383,15.22216899394043,0.4743259584524716
-120.63676,39.91848,train,0.0035878079172572187,58.62945507358323,0.5426396798213396
-119.59151,38.2845,train,0.0037037845958601844,67.74398741646151,0.550523915892847
-122.16545,41.74017,train,0.0021100457856178477,7.281805086223244,0.4109939982311639
-123.11492,41.65874,train,0.0031790758027845853,32.17148736692677,0.5125031723930029
-121.88402,43.20616,train,0.003708777541280745,68.11434189414449,0.5508572438093032
-121.18702,39.90034,train,0.004331012816205165,95.88430033294921,0.5888549975664666
-120.91106,40.15942,train,0.005598059779212523,99.99999988001927,0.6492747144730446
-121.87833,43.3417,train,0.003620728365840278,61.156263197620504,0.5449056259211127
-120.11584,38.86879,train,0.0036193607664486323,60.43347845637725,0.5448119398323822
-119.90739,39.11424,train,0.0027372964630874223,16.04223096439543,0.4751213950154996
-120.01306,38.42955,train,0.0036290494403501696,61.88268564108358,0.5454748230527027
-121.89352,40.68289,train,0.0027547799242865476,16.592621982493867,0.4767094045108957
-122.05885,42.91416,train,0.0033693250758605043,44.67087926477132,0.5270099413206266
-119.89605,39.30645,train,0.003142642552234218,30.590221062623925,0.5096229652830734
-122.72417,42.88057,train,0.0026496041212897723,13.067850605030653,0.46700871157925156
-123.069,40.93909,train,0.0036367865151516405,62.97243644531789,0.5460027961562415
-122.82922,40.18017,train,0.0015229852650392106,4.613611281225543,0.33494687010371255
-122.39074,42.46362,train,0.002678790075284436,13.868560727802594,0.46973649336037293
-120.20721,39.07214,train,0.0036507226557278365,64.43242189148341,0.5469507016479259
-121.599,40.61572,train,0.0027324477994361903,15.495355790241844,0.47467928603635773
-119.14101,37.28338,train,0.004103370531203094,88.68591317046943,0.5757232955421014
-120.15693,39.54051,train,0.0036695569888856427,65.8755697804421,0.548225499448729
-119.74365,39.06546,train,7.452910981791397E-4,2.5401999174640135,0.19772919673373116
-123.44147,42.03572,train,0.0032576921853213737,37.00942041395061,0.5186043115002864
-121.03585,39.77869,train,0.0041691406655583844,89.93651831571394,0.5796026703859808
-120.46214,39.16076,train,0.004401845168896949,97.20009933229271,0.5927767764241284
-120.07433,39.5623,train,0.002782668175962747,17.14810959836686,0.4792226803801357
-122.1522,42.7834,train,0.0034311607181228884,47.74315969903121,0.5315408622599344
-120.28392,39.34164,train,0.004373238112871936,96.32157543735173,0.5912019292255634
-120.0811,39.18611,train,0.003907971749692119,80.67879138238943,0.5637636935665284
-123.1876,41.7433,train,0.00345089730251549,49.11885696791787,0.53296881381272
-120.00486,39.05218,train,0.0034908713511557473,51.205916859023226,0.5358344483636475
-120.27829,38.85571,train,0.0042340562445940975,92.45860619204859,0.583362696974081
-120.17459,39.3351,train,0.004089629215261125,88.27555609591985,0.5749037205531672
-119.83373,37.96281,train,0.0034262690044521375,47.05692167262571,0.5311855930476649
-120.5296,39.40842,train,0.004069655576721716,87.83955791814299,0.5737067683508504
-123.24896,41.52754,train,0.003336000786598852,40.98075468655835,0.5245316153166648
-119.8033,37.86219,train,0.0033972696075831857,45.35055136265295,0.5290683453025681
-119.70564,38.55663,train,0.00366666777353238,65.53061450440413,0.5480304095763647
-121.31354,40.40311,train,0.003593554332311855,58.981595646148094,0.5430368352914875
-120.11126,39.50074,train,0.0033922786183339117,45.01083070657034,0.5287020224818768
-119.79403,38.96473,train,0.0022687781667423304,8.16761677555025,0.4286586384835173
-120.04244,38.32264,train,0.003846476286136317,77.13941955763195,0.5598590577226592
-120.3868,38.85132,train,0.0034260975132317175,47.04985850774635,0.5311731284226694
-119.56701,38.5289,train,0.003325482761480006,40.313577470646344,0.5237439890354374
-122.39832,43.10058,train,0.0032565947636138967,36.685034588521766,0.5185201956772213
-121.30378,40.30463,train,0.003773106129112032,72.6130931031311,0.5551080067719487
-120.42913,39.52607,train,0.0038105398627926107,75.62560429238324,0.5575447567048026
-119.66659,38.31264,train,0.0037102948068899015,68.48563714941857,0.5509584381986954
-123.33338,41.28652,train,0.002305564835113181,8.628473723066197,0.43260228143928203
-118.34902,35.99604,train,0.0030735486401121176,27.79793185967344,0.5040662589695015
-122.32845,42.37267,train,0.0032002416207564974,33.13135942761912,0.5141609381359724
-120.19583,39.31645,train,0.004042025669147975,86.24315700041971,0.572039847096609
-119.49666,37.86206,train,0.003948630857928141,81.69487602295925,0.5663075080817158
-121.88202,41.08692,train,0.0032839110639106017,37.33790727796731,0.520605248727297
-119.42537,37.45847,train,0.003957624138278385,83.04853021083366,0.5668661660865719
-119.92898,38.58796,train,0.003632500327262941,62.2460768722832,0.5457104610315862
-122.73985,43.1276,train,0.0024934639204516784,11.514056567402513,0.4519253393544816
-120.27808,38.77892,train,0.003432470603034434,48.08626668270455,0.5316359035517656
-119.53769,37.49862,train,0.004284709622347778,94.16309697180561,0.5862502382415526
-119.77759,37.83877,train,0.003957419773377129,82.65254589181062,0.5668534870246589
-120.97014,40.16792,train,0.0036012464221210354,59.50151036844989,0.5435673850122632
-118.60876,36.65046,train,0.0028270781501445927,18.552811675982223,0.48317543279797
-119.3859,37.46977,train,0.003748096469098617,70.35563937633628,0.5534649908489079
-119.99307,38.67971,train,0.0036359092259209296,62.752125893840464,0.5459429921552831
-122.16104,42.52929,train,0.003402970220250655,45.69096542512383,0.5294860561909432
-122.22152,42.36021,train,0.0032060366156484864,33.7717115352893,0.5146128540538598
-119.24572,37.38419,train,0.003555909813592202,56.48699653565719,0.5404224739909466
-123.13151,41.95002,train,0.0032944829085331208,38.654298909499154,0.5214073587511848
-122.58087,41.99737,train,0.0019863085819414902,6.84411001573557,0.3964474830895038
-122.31602,42.77157,train,0.0032867478460229713,37.666209654037075,0.5208207456846209
-119.82182,38.16275,train,0.004238014950672111,92.87911675857217,0.5835898176283077
-121.25318,40.29727,train,0.003904435905968156,80.28776633596063,0.5635410643594835
-120.01182,38.80398,train,0.0036200755040456693,60.79284013192758,0.5448609070592751
-119.6848,38.47706,train,0.003778915921872392,74.1229998465154,0.5554879534455205
-119.84245,38.89915,train,0.00297499937579319,22.054858929156353,0.49591919580569116
-121.15267,40.02757,train,0.004231238387950283,92.00183340467888,0.5832008786415335
-120.3732,38.72204,train,0.003573410120818418,57.8838352947942,0.5416415578223929
-122.35909,41.33621,train,0.003246638150030883,36.03315824188941,0.5177556899898585
-120.36456,38.8413,train,0.003506567326269479,53.306589934265396,0.5369500597046127
-120.39349,39.44746,train,0.0038415118041595273,76.41173722845609,0.5595407880295495
-120.53975,39.60433,train,0.0040008086344051254,85.4355257731191,0.5695288395375687
-119.26094,38.2107,train,0.0013954537423084162,4.022014190643868,0.31575535896997015
-123.87042,41.63653,train,3.2340378987720487E-4,1.9100222175389696,0.09661445790269012
-119.55607,37.70631,train,0.00395036980329652,81.86157931710048,0.566415642843519
-119.62019,38.0759,train,0.004287514991787376,95.02069743578156,0.5864089915510118
-121.8227,43.30209,train,0.003021427195601542,24.455434654024174,0.49979047317942255
-123.10754,41.91431,train,0.003136854503026591,30.32548127514427,0.5091622589660303
-121.82934,43.35907,train,0.0030223877466368557,24.757296573045522,0.4998699387934254
-119.35934,37.32541,train,0.002970887356237356,21.75688402029175,0.495573433884561
-121.20633,40.47797,train,0.0030814507974738,28.898502589580218,0.5047081397941796
-122.05573,43.21702,train,8.997355602448523E-4,2.8652273156660284,0.2293081670616452
-120.87644,40.43435,train,0.002857549533288704,19.406300862535893,0.4858530375655174
-120.51353,39.56736,train,0.003776560544695805,73.36958204292667,0.5553339956066222
-122.68724,43.14696,train,0.0026391758711939092,12.80272655206583,0.46602724723624384
-122.52275,41.09821,train,0.003566840637397747,57.555166369324624,0.5411846819272209
-119.96942,38.21675,train,0.003750523329942275,70.73219507820052,0.5536249555562215
-120.56011,39.11504,train,0.003563007757361435,56.919346997887935,0.5409177026441402
-119.8525,38.55688,train,0.0038412804690465758,76.36656080144817,0.559525946062391
-119.79601,38.50841,train,0.003663042331641281,65.19031205492173,0.5477853686336991
-119.74105,37.7022,train,0.002328933246173857,9.093805508624182,0.43507929362342906
-121.92239,41.10476,train,0.003195314271371877,32.81141664522427,0.5137760220684036
-120.47128,39.32455,train,0.004567910837001222,99.44019447684472,0.6016844348071766
-119.7376,37.8275,train,0.0040559925721360655,87.05407165118108,0.5728841009844444
-120.60258,39.38144,train,0.003782241383806841,74.50346309032429,0.555705138875419
-119.50738,38.37823,train,0.0036024913659933144,59.70941064902903,0.543653137236142
-122.23389,41.39349,train,0.0025023403787345043,11.764182919479031,0.45280566815578516
-119.7051,38.61603,train,0.002814362191329636,17.996485739018265,0.48204978075430627
-122.12389,41.43348,train,0.00302573979174398,25.36286265374155,0.5001470531021346
-123.28112,41.32108,train,0.003146852603269017,31.219381559643505,0.5099575261092413
-120.18931,38.74266,train,0.004059087986762563,87.45938004906769,0.5730707580144679
-122.74575,41.96786,train,0.0029856213544205003,22.353515457508504,0.4968101622031917
-122.89932,39.7965,train,0.003105569748395735,29.50481124140755,0.5066570526001302
-121.95629,43.00503,train,0.003617786418180289,60.07107229109439,0.5447040428379477
-121.97873,43.34576,train,0.003469976891501799,50.158450341913664,0.534340980263949
-120.09409,38.76844,train,0.0037782148756817873,73.74987384506004,0.555442141119611
-123.69966,41.87625,train,0.0030412522660611665,26.81557083665443,0.5014254840908662
-122.79827,41.92675,train,0.002600171442738855,12.2779135935638,0.46232404430539475
-119.57045,37.72558,train,0.0032340936517911106,35.06184063745499,0.5167890136532161
-123.11223,41.04474,train,0.0035038268993817126,52.25558300637015,0.5367556669614262
-122.91186,39.45946,train,0.0023433934163583276,9.328201954120015,0.43660124459319943
-120.39849,38.90803,train,0.0035650717882179774,57.19880799728457,0.5410615113220487
-120.1358,39.47784,train,0.00445601546202185,98.53361096742069,0.5957259037194893
-119.84763,38.45829,train,0.003767978549606085,71.48292692881193,0.5547721352281035
-123.33901,40.90065,train,0.0030230618360086235,25.060519473729347,0.49992569058958986
-119.8594,39.33405,train,0.0019425253969623708,6.664106032530817,0.3911267287690347
-122.86634,40.1584,train,0.0033620959894283204,43.66006718265913,0.5264745113567009
-119.85005,37.82784,train,0.0023725838746567166,9.800461378250045,0.439648725836659
-122.9566,41.9295,train,0.003583956549696572,58.27075122958095,0.5423731112979364
-119.09238,37.19753,train,0.003952230215158867,82.25683760104917,0.566531271201458
-118.3609,36.1326,train,0.002536768954781478,12.017849322931477,0.4561935548877422
-123.09258,41.35009,train,0.003362492805832464,43.99818608108352,0.5265039334273834
-122.26843,42.85648,train,0.003294148130703997,38.32467444484563,0.5213819995473645
-120.27705,38.64335,train,0.0038716087307869127,77.56740024294149,0.5614632498408317
-120.34985,38.81597,train,0.0036968884932400414,67.37115251645618,0.5500627192215338
-120.15293,39.06365,train,0.004158886935318883,89.10177492850013,0.5790025405868066
-119.70668,38.05181,train,0.0043058934655848535,95.43724393783961,0.5874460069552225
-122.45221,42.94977,train,0.00282368880893968,18.270222069607946,0.48287587742151045
-120.07854,39.30807,test,0.0037266783185422136,68.77037627274696,0.5520482428552917
-120.51933,39.56957,test,0.003776560544695805,73.36958204292667,0.5553339956066222
-120.8987,39.69577,test,0.0035709898785159927,57.78081925519744,0.541473347537026
-120.6391,39.39963,test,0.0032245086900517285,34.605811600963534,0.5160477826976603
-118.31679,35.91397,test,0.0029253471028970546,20.11955006063535,0.4917121923751964
-123.03114,41.47756,test,0.003562102379946825,56.79681465622424,0.5408545932039948
-120.56702,39.69519,test,0.003857158194969246,77.3448030493784,0.5605423107810563
-118.64876,36.60551,test,0.0019505804372461665,6.700703274814991,0.3921126486262727
-123.04792,41.07211,test,0.0033414290523317925,41.752834770151054,0.524937084409061
-123.48781,40.49792,test,0.003088742647353977,29.120293393887568,0.505298973960729
-120.23477,38.83325,test,0.004223724804792114,91.53779355357182,0.5827687882967204
-119.16934,37.17051,test,0.0038777022246538877,78.34631903961505,0.5618504349424064
-120.31173,38.98181,test,0.004341670440897331,95.99466815313832,0.5894498996383926
-120.51565,39.10494,test,0.0035600251556889553,56.6919792907329,0.5407097344480142
-122.3047,41.38065,test,0.003145615768538992,30.952984672792834,0.5098592857243517
-123.19936,41.36684,test,0.0032238025927908503,34.57227578400636,0.5159930883489925
-120.60125,39.83473,test,0.003635363225907601,62.61501083550832,0.5459057638808894
-119.90994,38.25189,test,0.0038827398804518114,78.98416474956048,0.5621700154313881
-122.20292,41.33109,test,0.0032236319765958023,34.56417243365496,0.5159798705507033
-120.20308,39.15306,test,0.00421312126979367,91.43134766632622,0.5821574748041224
-119.90215,38.16603,test,0.004062609029095246,87.59520935918941,0.5732828826426112
-121.77306,40.73594,test,0.0031504384121702304,31.260123934894608,0.5102421203959432
-119.39031,37.63963,test,0.0033678695700830566,44.450965716787465,0.5269022351157506
-122.85249,40.92938,test,0.0036693355978154214,65.86910192154596,0.5482105563118715
-122.21579,41.4774,test,0.0031239153925304384,30.108621305337106,0.5081292186380596
-119.83818,38.03398,test,0.00418277342351595,90.70934068521902,0.5803979231414956
-118.25796,36.22633,test,0.002812520465938044,17.954333424112704,0.4818863394495493
-120.96877,40.63211,test,0.0021269800449373855,7.360275817589609,0.41293041745700976
-119.6223,37.58619,test,0.004165450236779972,89.51836966054766,0.5793868743420048
-120.01744,38.61453,test,0.0037719209708405037,72.23361138224904,0.5550304204536651
-121.52201,40.07443,test,0.004216777008925424,91.46796088009053,0.5823684371902755
-118.19692,36.25576,test,0.002742276834940273,16.26451843760694,0.4755747392782581
-120.7749,39.71981,test,0.0036399900162988864,63.18735700623899,0.5462210421578666
-119.24945,37.19538,test,0.003589037650518256,58.706505533965604,0.5427247291714263
-123.14889,41.91028,test,0.0031125552885699448,29.876004133509465,0.5072186525497582
-122.12091,41.38083,test,0.003024663559126595,25.241355196513314,0.5000581141902817
-121.51048,40.10965,test,0.004087223048061286,88.22636785220912,0.5747598833547466
-120.61777,39.47679,test,0.003945597870803842,81.40428036332213,0.5661187753576516
-121.48316,40.26217,test,0.0037684785713736533,71.75727545818398,0.5548049104389448
-119.60894,38.04607,test,0.004287514991787376,95.02069743578156,0.5864089915510118
-118.56712,36.44927,test,0.0019259122175805973,6.422607060990205,0.3890831770705258
-123.7252,41.74559,test,0.0029548375354270695,20.867269403774323,0.49421932292453824
-119.8858,39.25728,test,0.002736405292777809,15.898737003585888,0.4750401924942175
-118.61416,36.25625,test,0.0032195366659135585,34.44553580177183,0.515662386175837
-120.32674,39.13898,test,0.004438385657397866,98.08798604107277,0.5947708055310689
-123.11907,41.00492,test,0.003412772879401427,46.50106023416752,0.5302026134130968
-121.71607,40.62216,test,0.0033478126080926777,42.008856099831654,0.5254130258059664
-118.57919,36.40419,test,0.001629399096180218,4.713846273723714,0.35015541984801746
-120.0042,39.3835,test,0.0031353426119982352,30.25635229774962,0.5090417756647453
-119.40199,37.39947,test,0.0031980515887115694,32.9891058313831,0.5139899318613776
-123.06226,41.51093,test,0.0036036100216044428,59.73584006463059,0.5437301631952187
-119.78,37.96975,test,0.003856422973120713,77.33347763403086,0.56049535135007
-119.96398,38.32523,test,0.0036259923301637685,61.45530205667227,0.545265869158426
-118.93983,37.38635,test,0.003691926745534911,67.09939802509668,0.5497303021966015
-119.09929,37.16558,test,0.003908031388469683,80.67988498836993,0.5637674466868903
-118.91724,37.18802,test,0.0039541891138190335,82.4062053136729,0.5666529540765058
-120.38366,39.23468,test,0.00453008659224913,99.19729520826519,0.5996900091479296
-119.73102,38.30608,test,0.0043183546686459745,95.66608595167348,0.5881461837981906
-119.07374,37.19415,test,0.0039549948942518825,82.4676467667603,0.566702987720317
-118.91116,36.98916,test,0.003857194810453657,77.34536707718843,0.5605446491901397
-122.28427,41.35047,test,0.0032984554069426715,38.722576343563546,0.521708067929913
-122.15841,41.35494,test,0.003133593056879055,30.233666827066628,0.5089022789536658
-123.21309,41.08324,test,0.00346320239208639,49.52856018609324,0.5338546957677371
-123.20206,41.31265,test,0.0029980820893288217,23.79249455078329,0.49785135629065574
-118.21307,36.25397,test,0.003029085223132994,25.9179112809184,0.5004233146413025
-118.96073,37.01041,test,0.003634916084177144,62.50328868118993,0.5458752715780476
-123.3142,41.56028,test,0.003504014269821485,52.607273032397586,0.5367689633200929
-118.99924,36.95935,test,0.003378752369152389,44.81100667815476,0.5277063673625928
-120.63716,39.83251,test,0.0036592145729036664,64.96200342428493,0.5475263647204489
-120.11709,38.77435,test,0.0037782148756817873,73.74987384506004,0.555442141119611
-122.67263,39.4425,test,0.0025113629342310684,11.830660231803563,0.45369759276539895
-120.63972,39.46482,test,0.003555373101221536,56.460263210009934,0.5403849837287044
-119.61044,38.40469,test,0.0036073157994739534,59.82339296515334,0.5439851419621824
-120.85574,39.61299,test,0.0030696325464238754,27.730447606359217,0.5037475433995025
-119.84045,38.03156,test,0.00418277342351595,90.70934068521902,0.5803979231414956
-119.23617,37.24948,test,0.003722640148371386,68.70015320883762,0.551780121840289
-119.97015,39.3938,test,0.003186376755065267,32.36876061320743,0.513076279924488
-123.76465,41.5657,test,0.0031152078303284805,29.93031937253994,0.5074315678867642
-120.63098,39.28305,test,0.003453129590322791,49.18725103157327,0.5331297731327242
-120.32954,38.94572,test,0.004299159231385941,95.29337548504178,0.5870666283165276
-120.54057,39.29941,test,0.004446656517839582,98.29708594561211,0.5952194423825639
-119.37457,37.7483,test,0.004107610801643754,88.71767884889367,0.5759755608400363
-120.81474,39.97044,test,0.0038877195026547143,79.42023528111643,0.5624854565252521
-120.74542,40.18299,test,0.0029868117424658113,22.396766132623675,0.49690981514952726
-121.52604,40.3916,test,0.003351143612175655,42.36546056020159,0.5256609984055807
-120.64488,39.53833,test,0.003576763184854277,58.0265268660651,0.5418743967159266
-123.02236,41.09777,test,0.003347064539337953,41.97867580082638,0.5253573010705398
-119.02747,37.21977,test,0.003980073656434858,84.63782484247298,0.5682544582621384
-120.08217,38.71671,test,0.00368993348387411,66.98872450713978,0.5495966233921974
-120.90002,39.71095,test,0.0035930336644478754,58.95662010426173,0.5430008784767116
-119.87409,38.336,test,0.0038851704736751315,79.112683787976,0.5623240415443338
-121.02869,39.71528,test,0.0038777184896850803,78.3726002149299,0.5618514675195974
-119.99916,38.75772,test,0.0038481021599065675,77.17401325338064,0.5599631914660183
-120.74762,39.52949,test,0.0033811172371010895,44.8459430033576,0.5278807465213683
-120.62278,39.95008,test,0.0032685476325490658,37.14537893157387,0.5194347856691004
-120.42868,39.33677,test,0.0038252313187506445,75.8266197006669,0.558493819288659
-120.61834,39.38469,test,0.003782241383806841,74.50346309032429,0.555705138875419
-120.04078,38.56884,test,0.0033855103179181397,44.91084222961297,0.5282043392301352
-119.72119,38.55427,test,0.003504491977445436,52.728617452633834,0.5368028594076223
-122.99654,41.1731,test,0.0036720961617400386,65.94471837407183,0.54839681423886
-120.53189,39.43599,test,0.0040457802106303046,86.64814397043341,0.5722671247584272
-119.08672,37.14412,test,0.003908031388469683,80.67988498836993,0.5637674466868903
-123.29661,40.90814,test,0.003213812063698578,34.27975160260952,0.5152178941505212
-119.60443,37.84899,test,0.004309294279473589,95.50987961259483,0.5876373298240505
-120.82089,39.71894,test,0.003757321261484593,71.23821984140821,0.5540724265630823
-118.79241,37.22131,test,0.0034888408398764856,50.58334399791532,0.5356897343867499
-118.71189,36.57886,test,0.0026630114034227174,13.43116212255658,0.4682652615768055
-123.16734,41.45105,test,0.003608330634044671,59.847398461982195,0.5440549187000756
-119.93164,38.14689,test,0.0039732870801944134,84.4227115970227,0.5678357116069346
-123.45985,40.94934,test,0.0031601873052460156,31.371013543832838,0.5110141907478842
-118.93292,37.10283,test,0.0038091131512609567,75.60608320236986,0.557452374268052
-121.45162,40.44144,test,0.003169486688197378,31.476790180726095,0.5117483967776483
-118.98854,36.9834,test,0.003378752369152389,44.81100667815476,0.5277063673625928
-123.36684,41.49525,test,0.00334856350543639,42.096890453960356,0.525468948089804
-122.00289,41.46279,test,0.002776370709587417,16.972344710731452,0.47865726824766897
-119.2528,37.20814,test,0.0030399187033874307,26.779929239782128,0.501315838047781
-121.4989,40.04035,test,0.003634979248614373,62.518583971636566,0.545879579250714
-120.20783,38.77065,test,0.00399070265731487,84.98610461267569,0.5689086626930179
-119.786,38.2506,test,0.0038851842031066997,79.11434030393269,0.5623249112673381
-119.81633,38.29039,test,0.003895189317187579,79.84323649700107,0.5629577909252721
-119.52371,37.98158,test,0.003978931313616858,84.60039377319407,0.5681840300120233
-119.10099,37.18314,test,0.003952230215158867,82.25683760104917,0.566531271201458
-119.96419,38.12936,test,0.0037917563122218364,75.0010171194622,0.5563253867366577
-119.74171,38.45003,test,0.00383506866454871,75.94954388285885,0.5591270355709927
-120.08861,38.75776,test,0.0037782148756817873,73.74987384506004,0.555442141119611
-123.44159,41.0641,test,0.0033772645473409617,44.78902700411992,0.5275965932554898
-120.58267,39.62714,test,0.004012125336675389,85.55956929299364,0.5702212008938842
-118.66872,36.32773,test,0.003018664512091896,24.1278066741705,0.49956177776976046
-119.3795,37.72248,test,0.0042677450439125965,93.8642727005891,0.5852876252825309
-123.57069,40.64665,test,0.0029387798200441145,20.448281496842707,0.4928572508449426
-119.50654,37.83377,test,0.004013892261557651,85.57892965610594,0.5703291012543645
-123.29893,41.12661,test,0.0032733344197776954,37.20533081399123,0.5198000795684884
-121.79445,40.78043,test,0.003208159720964405,34.142274910038545,0.5147782115866294
-123.06226,41.46118,test,0.0036130300938263006,59.95856281906141,0.5443777601339835
-121.27729,40.50064,test,0.0030335620411634967,26.36608948512413,0.5007925272828813
-120.38045,39.50944,test,0.00400831809222956,85.51785295619767,0.569988520559099
-118.98969,36.95523,test,0.0032189185948637055,34.42763649450518,0.5156144347337028
-123.72898,41.5548,test,0.003101505031609525,29.286856459073316,0.506329681670185
-119.53366,37.48284,test,0.004284709622347778,94.16309697180561,0.5862502382415526
-120.08451,39.32119,test,0.0037144659779885336,68.5580059950392,0.5512364005954669
-123.47397,41.0622,test,0.0035026342647360097,52.177113821548765,0.5366710161967071
-123.23653,40.9225,test,0.003662413803296446,65.13131518178427,0.5477428598390546
-121.10125,39.71573,test,0.0039005815383603344,80.10344065131281,0.5632981207589848
-120.23666,38.77032,test,0.00385832781535496,77.36281997405713,0.5606169950496642
-122.98008,41.91983,test,0.0036341982637260167,62.42695784693374,0.545826312094328
-119.91381,38.15066,test,0.004062609029095246,87.59520935918941,0.5732828826426112
-123.04188,41.44241,test,0.0035042444795680386,52.66574952895677,0.5367852986372703
-119.97921,38.77389,test,0.0038481021599065675,77.17401325338064,0.5599631914660183
-120.21738,38.8053,test,0.004223724804792114,91.53779355357182,0.5827687882967204
-120.27871,38.95649,test,0.0043907135886831995,96.60241102038893,0.5921654160458988
-122.96016,41.04539,test,0.0034923825850734216,51.29083912812593,0.5359420950470514
-120.34063,38.74722,test,0.003573410120818418,57.8838352947942,0.5416415578223929
-118.66446,36.54889,test,0.002815528959588413,18.023190036678656,0.48215327060145124
-119.81985,38.33409,test,0.0042379669683947,92.87764677471807,0.5835870662501272
-121.62723,40.2653,test,0.003486556685807122,50.4690631992921,0.5355268354731464
-123.07384,41.05651,test,0.0033414290523317925,41.752834770151054,0.524937084409061
-119.58944,37.6361,test,0.004068012270046825,87.80337426772003,0.5736079904040006
-122.04649,41.46387,test,0.0027042852101519643,14.690208089759992,0.4720965770950865
-120.61268,39.99573,test,0.0033301581577000797,40.47269725732233,0.5240944208829237
-119.7043,38.06878,test,0.0043058934655848535,95.43724393783961,0.5874460069552225
-120.0998,38.43455,test,0.0037917160594353044,74.99845843014194,0.5563227664334135
-119.4815,37.92522,test,0.004406668162321546,97.29628543082433,0.5930410925417859
-121.26561,40.41856,test,0.003171886886891302,31.504091448675457,0.511937539727776
-118.25157,35.96411,test,0.002829352041883226,18.615313537959565,0.48337620852928054
-119.04736,37.10362,test,0.003971186160634033,84.3565749121148,0.5677059155574757
-119.12655,37.13841,test,0.004112510716211047,88.7543862028971,0.5762666968164186
-120.89617,39.71918,test,0.0035930336644478754,58.95662010426173,0.5430008784767116
-123.19704,41.39667,test,0.0034213457569149393,46.85414913994466,0.5308274891393234
-120.76008,39.61671,test,0.0031736602689694414,31.609465176086655,0.5120771935154323
-121.73904,40.5941,test,0.0033478126080926777,42.008856099831654,0.5254130258059664
-119.68063,37.64905,test,0.00377497487193618,73.05077342799518,0.5552302889631768
-120.51931,39.47301,test,0.003967688994745729,84.24672947793738,0.5674896855935897
-118.78973,36.65351,test,0.003144707427656379,30.757296891258473,0.5097871121446526
-120.47914,39.36313,test,0.004062128888521078,87.57670817544334,0.5732539690642716
-119.66317,38.4848,test,0.0038394211815395637,76.00414702161889,0.5594066218080814
-118.62111,36.25269,test,0.0032195366659135585,34.44553580177183,0.515662386175837
-120.25947,39.4151,test,0.004416369704982664,97.48636362641223,0.5935717315152508
-118.64097,36.37355,test,0.0031810086516264077,32.22438501971033,0.5126550277286115
-121.43014,40.02701,test,0.0036391737311141253,63.13287265857948,0.5461654507461497
-120.18515,38.57871,test,0.0038357792251230644,75.95842281009118,0.5591727030390994
-120.24992,38.54658,test,0.003913038861524795,80.77170783759469,0.5640823411579543
-121.43683,40.48298,test,0.0031109147040429327,29.84241041516455,0.507086873267863
-120.06615,38.45436,test,0.0035999796879041595,59.28980890229934,0.5434800987760591
-119.94976,38.14935,test,0.0039732870801944134,84.4227115970227,0.5678357116069346
-120.63896,39.59774,test,0.003727884830473462,68.81924680084403,0.5521282889923367
-120.31502,39.30598,test,0.004470745995371548,98.69622738658587,0.5965204876076888
-122.97448,41.92758,test,0.0036341982637260167,62.42695784693374,0.545826312094328
-119.87095,39.02535,test,0.0019775030277315374,6.822863014640707,0.3953848712485777
-119.72075,38.36837,test,0.003919917530876815,80.89790906644386,0.5645141651920779
-120.08966,39.50188,test,0.0033922786183339117,45.01083070657034,0.5287020224818768
-120.04538,38.47441,test,0.0038460365118863785,77.12973981094464,0.5598308826519321
-119.1007,37.32506,test,0.004062342629781018,87.58494422830316,0.5732668408300111
-123.24725,41.05848,test,0.00346320239208639,49.52856018609324,0.5338546957677371
-120.02096,39.2409,test,0.003548432151450191,56.13000839122942,0.5398995950897184
-118.6641,36.32848,test,0.0027477525518192374,16.40824367094814,0.4760722699433359
-120.28467,39.40481,test,0.004416369704982664,97.48636362641223,0.5935717315152508
-120.12841,38.57705,test,0.003853429609522381,77.28736533181261,0.5603040582594538
-119.6769,37.72906,test,0.003421462331455409,46.858950465622186,0.5308359747842483
-123.54295,40.58818,test,0.0030808974662383188,28.679264602476017,0.504663247602294
-120.64698,39.92434,test,0.0035878079172572187,58.62945507358323,0.5426396798213396
-120.63389,39.64437,test,0.0038405233726826584,76.21898698410818,0.559477365381162
-119.42346,37.72882,test,0.004227086603016941,91.7454186393479,0.5829622289294587
-120.72735,39.89532,test,0.003728778523153155,68.85547521834708,0.5521875626686898
-119.36681,37.71401,test,0.004107610801643754,88.71767884889367,0.5759755608400363
-120.13763,38.42903,test,0.003804737760624983,75.4926741636855,0.5571688182148908
-120.37605,39.06736,test,0.0037577678159328855,71.24847339157624,0.5541017894232798
-120.04176,38.71993,test,0.00368993348387411,66.98872450713978,0.5495966233921974
-119.58791,37.61569,test,0.004165450236779972,89.51836966054766,0.5793868743420048
-120.36081,39.27307,test,0.004648483503326522,99.48397942104926,0.6058673714250699
-123.02881,40.96545,test,0.0036902810071215188,67.00860020535167,0.5496199358755279
-119.66051,38.26829,test,0.003751570627072517,71.10617677551184,0.5536939519628077
-118.30005,35.88846,test,0.0029253471028970546,20.11955006063535,0.4917121923751964
-120.55088,39.21794,test,0.0035153823713646006,53.92103209097115,0.5375742517927141
-122.99078,40.17787,test,0.0036951082605121807,67.27492690688702,0.549943507304403
-122.77228,42.0301,test,0.0031620997249657322,31.39276652758864,0.5111653606467572
-123.2571,41.31701,test,0.003146852603269017,31.219381559643505,0.5099575261092413
-119.05697,37.46394,test,0.004118662533910833,88.8004674089976,0.5766316509808074
-119.07,37.23848,test,0.003955141185725555,82.47880161782186,0.566712070215598
-119.40839,37.33573,test,0.003424731171500875,46.993583341572524,0.531073793899002
-122.27084,41.29817,test,0.0033904695479327,44.98410520932375,0.5285691016752043
