Raw value,Corresponding cumulative value,Corresponding logistic value,Fractional area,Training omission,Test omission
3.01875E-13,0.000000001,0,0.993519442,0,0
6.35456E-13,0.000000003,0,0.990428714,0,0
1.69081E-12,0.00000001,0.000000001,0.983748754,0,0
3.73599E-12,0.000000025,0.000000002,0.977966102,0,0
1.13712E-11,0.000000101,0.000000008,0.9666999,0,0
2.59814E-11,0.000000251,0.000000017,0.958424726,0,0
1.02922E-10,0.000001005,0.000000068,0.944666002,0,0
2.14639E-10,0.000002518,0.000000142,0.934695912,0,0
6.60482E-10,0.000010032,0.000000436,0.917048853,0,0
1.37089E-9,0.000025106,0.000000904,0.901595214,0,0
2.23909E-9,0.000050194,0.000001477,0.888035892,0,0
3.56571E-9,0.000100077,0.000002352,0.870588235,0,0
6.64192E-9,0.000250187,0.000004382,0.840677966,0,0
1.05563E-8,0.000500435,0.000006964,0.811365902,0,0
1.646E-8,0.001000173,0.000010859,0.77447657,0,0
3.3888E-8,0.002501926,0.000022356,0.71335992,0,0
5.69588E-8,0.00500037,0.000037575,0.657427717,0,0
1.02774E-7,0.010001923,0.000067797,0.592821535,0,0
2.33646E-7,0.025005168,0.000154116,0.500997009,0,0
4.59853E-7,0.050022542,0.000303279,0.426321037,0,0
9.63923E-7,0.100095028,0.00063551,0.353539382,0,0
1.93566E-6,0.200045024,0.001275352,0.280259222,0,0
3.23225E-6,0.3003167,0.002127825,0.23998006,0,0
4.83298E-6,0.400372058,0.003178256,0.215054835,0,0
7.18241E-6,0.500635842,0.004715997,0.198205384,0,0
9.48921E-6,0.6004816,0.006221223,0.186041874,0,0
1.18176E-5,0.70004756,0.007735901,0.176769691,0.023255814,0
1.31893E-5,0.750145474,0.008626089,0.172781655,0.023255814,0
1.45952E-5,0.80059503,0.009536807,0.169192423,0.023255814,0
1.73266E-5,0.900872728,0.011301454,0.162911266,0.023255814,0
1.99132E-5,1.000843559,0.01296666,0.157527418,0.023255814,0.004545455
2.29394E-5,1.101488696,0.014907818,0.152841476,0.023255814,0.004545455
2.49338E-5,1.20167454,0.016182994,0.148654038,0.023255814,0.018181818
2.70876E-5,1.302379235,0.017556363,0.144765703,0.023255814,0.027272727
2.98654E-5,1.401530366,0.01932196,0.141276171,0.023255814,0.031818182
3.24197E-5,1.501581449,0.020939873,0.138085743,0.023255814,0.031818182
3.87169E-5,1.752795423,0.024905926,0.131006979,0.046511628,0.040909091
4.37102E-5,2.000858908,0.02802801,0.125024925,0.046511628,0.045454545
5.12336E-5,2.254971552,0.032694483,0.119641077,0.046511628,0.054545455
5.65155E-5,2.502807605,0.035943979,0.115054835,0.046511628,0.054545455
6.46832E-5,2.752563933,0.040926016,0.110867398,0.046511628,0.054545455
7.14035E-5,3.00664139,0.044986769,0.107178465,0.046511628,0.072727273
7.71888E-5,3.252177685,0.0484551,0.103888335,0.046511628,0.077272727
8.4039E-5,3.501748746,0.052529448,0.100797607,0.046511628,0.1
9.11087E-5,3.755035037,0.056697871,0.097906281,0.046511628,0.113636364
9.81884E-5,4.009577815,0.060835634,0.095214357,0.046511628,0.118181818
1.06585E-4,4.256211556,0.065696444,0.092821535,0.046511628,0.154545455
1.13033E-4,4.509755986,0.069395038,0.090528415,0.046511628,0.159090909
1.17656E-4,4.753414443,0.072028713,0.088434696,0.046511628,0.159090909
1.27246E-4,5.012227514,0.077444931,0.086340977,0.046511628,0.168181818
1.35165E-4,5.260897739,0.081870221,0.08444666,0.046511628,0.172727273
1.42073E-4,5.51059172,0.085695423,0.082652044,0.046511628,0.181818182
1.49581E-4,5.758542617,0.089817273,0.080957129,0.046511628,0.186363636
1.56017E-4,6.003421925,0.093321329,0.079361914,0.046511628,0.190909091
1.62485E-4,6.25710701,0.09681549,0.0777667,0.046511628,0.209090909
1.66959E-4,6.504115458,0.099217057,0.076271186,0.046511628,0.213636364
1.71627E-4,6.758541544,0.101708719,0.074775673,0.046511628,0.213636364
1.79326E-4,7.00433977,0.10578867,0.07337986,0.046511628,0.218181818
1.84019E-4,7.258430431,0.108257739,0.071984048,0.046511628,0.227272727
1.92771E-4,7.501341174,0.112825585,0.070687936,0.046511628,0.240909091
1.99021E-4,7.756961214,0.11605863,0.069391825,0.046511628,0.245454545
2.06034E-4,8.02013581,0.119658927,0.068095713,0.046511628,0.25
2.12628E-4,8.250302845,0.123017709,0.066999003,0.046511628,0.254545455
2.21938E-4,8.511694593,0.12771601,0.065802592,0.046511628,0.272727273
2.31555E-4,8.763094202,0.132516778,0.064705882,0.046511628,0.277272727
2.41719E-4,9.023542531,0.137533608,0.063609172,0.046511628,0.286363636
2.4599E-4,9.267870668,0.13962452,0.062612164,0.046511628,0.286363636
2.51547E-4,9.516698966,0.142329755,0.061615155,0.046511628,0.290909091
2.57631E-4,9.772026028,0.145272218,0.060618146,0.046511628,0.295454545
2.66816E-4,10.008632293,0.149676207,0.059720837,0.046511628,0.3
2.74455E-4,10.252280596,0.153304468,0.058823529,0.046511628,0.3
2.81498E-4,10.501933095,0.156622254,0.057926221,0.046511628,0.309090909
2.91147E-4,10.760600561,0.161125891,0.057028913,0.046511628,0.313636364
3.00958E-4,11.026258711,0.165655751,0.056131605,0.046511628,0.318181818
3.12242E-4,11.272812816,0.170806345,0.055333998,0.046511628,0.318181818
3.22911E-4,11.526421498,0.175617461,0.054536391,0.046511628,0.322727273
3.34857E-4,11.757143739,0.180938631,0.053838485,0.046511628,0.327272727
3.46765E-4,12.030901652,0.186175425,0.053040877,0.046511628,0.345454545
3.58817E-4,12.279144961,0.191407625,0.052342971,0.046511628,0.35
3.62946E-4,12.532177163,0.193184627,0.051645065,0.046511628,0.35
3.70137E-4,12.752999202,0.196260827,0.051046859,0.046511628,0.372727273
3.77811E-4,13.014645252,0.199517906,0.050348953,0.046511628,0.372727273
3.90957E-4,13.284274757,0.20503696,0.049651047,0.046511628,0.377272727
4.01355E-4,13.522371271,0.209348286,0.049052841,0.046511628,0.381818182
4.15781E-4,13.768452154,0.215253469,0.048454636,0.046511628,0.381818182
4.26519E-4,14.021769816,0.219591857,0.047856431,0.046511628,0.386363636
4.4127E-4,14.253633942,0.225473988,0.047258225,0.046511628,0.390909091
4.50712E-4,14.508023275,0.229192767,0.046759721,0.046511628,0.395454545
4.55214E-4,14.779610819,0.230953515,0.046161515,0.046511628,0.395454545
4.71485E-4,15.01101475,0.237250115,0.045663011,0.046511628,0.4
4.82021E-4,15.29759265,0.241272345,0.045064806,0.046511628,0.4
4.91555E-4,15.541519472,0.244876168,0.044566301,0.046511628,0.409090909
4.99944E-4,15.790109418,0.248018629,0.044067797,0.046511628,0.413636364
5.15519E-4,16.045949368,0.253784354,0.043569292,0.046511628,0.418181818
5.26401E-4,16.255159933,0.257760779,0.043170489,0.046511628,0.418181818
5.30793E-4,16.519867888,0.259353596,0.042671984,0.046511628,0.422727273
5.46915E-4,16.776493543,0.265142207,0.04217348,0.046511628,0.422727273
5.54031E-4,17.010813648,0.267668787,0.041774676,0.046511628,0.427272727
5.68284E-4,17.291756146,0.272677151,0.041276171,0.046511628,0.431818182
5.84844E-4,17.522305287,0.278410947,0.040877368,0.046511628,0.431818182
5.95021E-4,17.758372457,0.281889779,0.040478564,0.046511628,0.436363636
6.05267E-4,18.058448466,0.285358875,0.03998006,0.046511628,0.440909091
6.21938E-4,18.304263882,0.290931844,0.039581256,0.046511628,0.440909091
6.46105E-4,18.560556918,0.298858262,0.039182453,0.046511628,0.440909091
6.52876E-4,18.755819395,0.301047135,0.03888335,0.046511628,0.440909091
6.7066E-4,19.022673353,0.306732116,0.038484546,0.069767442,0.440909091
6.82806E-4,19.294721915,0.310562022,0.038085743,0.069767442,0.45
6.86662E-4,19.500445227,0.311769131,0.03778664,0.069767442,0.459090909
7.17861E-4,19.782679627,0.321382226,0.037387836,0.069767442,0.463636364
7.32994E-4,20.00103973,0.325948897,0.037088734,0.069767442,0.463636364
7.55139E-4,20.300832917,0.332521762,0.03668993,0.069767442,0.463636364
7.64476E-4,20.52988675,0.335254854,0.036390828,0.069767442,0.463636364
7.6717E-4,20.759603089,0.336039296,0.036091725,0.069767442,0.463636364
7.75072E-4,21.068671889,0.338329385,0.035692921,0.069767442,0.468181818
7.83779E-4,21.302809658,0.340834742,0.035393819,0.069767442,0.468181818
7.97969E-4,21.540499861,0.344877218,0.035094716,0.069767442,0.468181818
8.10675E-4,21.781484179,0.348455212,0.034795613,0.093023256,0.472727273
8.21646E-4,22.0106244,0.351513217,0.03449651,0.093023256,0.472727273
8.34733E-4,22.277118365,0.355123978,0.034197408,0.093023256,0.477272727
8.39873E-4,22.528667384,0.356530995,0.033898305,0.093023256,0.481818182
8.51658E-4,22.782745791,0.359734243,0.033599202,0.093023256,0.486363636
8.71713E-4,23.042955336,0.365112325,0.0333001,0.093023256,0.486363636
8.85722E-4,23.307365026,0.368815916,0.033000997,0.093023256,0.486363636
8.93958E-4,23.574761605,0.370972963,0.032701894,0.093023256,0.490909091
9.06E-4,23.755816025,0.374100907,0.032502493,0.093023256,0.495454545
9.15277E-4,24.029360076,0.37648923,0.03220339,0.093023256,0.495454545
9.36301E-4,24.307213995,0.381835077,0.031904287,0.11627907,0.495454545
9.55956E-4,24.592048672,0.386750716,0.031605184,0.139534884,0.5
9.59926E-4,24.783742698,0.387734094,0.031405783,0.139534884,0.5
9.69906E-4,25.073492916,0.390192342,0.03110668,0.162790698,0.5
9.86129E-4,25.270593729,0.394146441,0.030907278,0.162790698,0.5
1.00415E-3,25.571072884,0.398478123,0.030608175,0.162790698,0.504545455
1.01377E-3,25.773117413,0.400767491,0.030408774,0.186046512,0.509090909
1.01876E-3,26.00718551,0.401946531,0.030109671,0.186046512,0.509090909
1.0312E-3,26.284617355,0.404868149,0.029910269,0.186046512,0.518181818
1.05448E-3,26.598141636,0.410257397,0.029611167,0.186046512,0.527272727
1.06268E-3,26.810283256,0.412132486,0.029411765,0.186046512,0.527272727
1.06611E-3,27.023439111,0.412914952,0.029212363,0.209302326,0.531818182
1.07242E-3,27.2631796,0.414346192,0.02891326,0.209302326,0.536363636
1.0907E-3,27.562683729,0.418452513,0.028713858,0.209302326,0.540909091
1.09349E-3,27.781316279,0.41907347,0.028514457,0.209302326,0.540909091
1.09644E-3,28.000374629,0.419730376,0.028315055,0.209302326,0.540909091
1.10481E-3,28.33110754,0.421583827,0.028015952,0.209302326,0.545454545
1.11694E-3,28.554385746,0.424249434,0.02781655,0.209302326,0.545454545
1.12048E-3,28.778307433,0.425021367,0.027617149,0.209302326,0.545454545
1.12871E-3,29.003751197,0.426810376,0.027417747,0.209302326,0.545454545
1.14477E-3,29.345730667,0.430271452,0.027118644,0.209302326,0.545454545
1.14723E-3,29.574954115,0.430797186,0.026919242,0.209302326,0.545454545
1.16538E-3,29.80680552,0.434651671,0.02671984,0.209302326,0.55
1.17473E-3,30.041184135,0.436615181,0.026520439,0.209302326,0.554545455
1.1806E-3,30.277294228,0.437841588,0.026321037,0.23255814,0.554545455
1.18522E-3,30.514008167,0.438804246,0.026121635,0.23255814,0.554545455
1.1928E-3,30.75247932,0.440374206,0.025922233,0.23255814,0.559090909
1.2227E-3,31.073268375,0.446485107,0.025623131,0.23255814,0.559090909
1.23315E-3,31.363194371,0.448588443,0.025423729,0.23255814,0.568181818
1.24821E-3,31.612209826,0.451593235,0.025224327,0.23255814,0.568181818
1.24845E-3,31.861897144,0.451639876,0.025024925,0.23255814,0.568181818
1.26857E-3,32.115312388,0.455603519,0.024825523,0.255813953,0.568181818
1.29831E-3,32.372891592,0.461356723,0.024626122,0.255813953,0.568181818
1.30484E-3,32.503375576,0.462603021,0.024526421,0.255813953,0.568181818
1.30802E-3,32.764830317,0.463207643,0.024327019,0.255813953,0.572727273
1.31977E-3,33.028540218,0.465431811,0.024127617,0.255813953,0.577272727
1.32454E-3,33.293094563,0.466330771,0.023928215,0.255813953,0.577272727
1.35014E-3,33.561541546,0.471097004,0.023728814,0.255813953,0.577272727
1.36056E-3,33.833121707,0.473013935,0.023529412,0.255813953,0.577272727
1.36358E-3,34.03826602,0.47356586,0.02333001,0.255813953,0.577272727
1.37351E-3,34.380418864,0.475375899,0.023130608,0.255813953,0.581818182
1.37689E-3,34.5181081,0.475988721,0.023030907,0.255813953,0.586363636
1.38999E-3,34.795916241,0.478350936,0.022831505,0.255813953,0.586363636
1.40441E-3,35.076448188,0.480926354,0.022632104,0.255813953,0.586363636
1.41175E-3,35.358348138,0.482228362,0.022432702,0.255813953,0.586363636
1.41857E-3,35.500204852,0.483430871,0.022333001,0.255813953,0.586363636
1.43495E-3,35.786520145,0.486299004,0.022133599,0.279069767,0.590909091
1.45519E-3,36.077175181,0.489799096,0.021934197,0.279069767,0.595454545
1.47739E-3,36.372335618,0.493582778,0.021734796,0.279069767,0.595454545
1.47987E-3,36.520322762,0.494002068,0.021635095,0.279069767,0.595454545
1.48988E-3,36.818200779,0.495687476,0.021435693,0.302325581,0.595454545
1.52359E-3,37.122652805,0.50128087,0.021236291,0.302325581,0.6
1.52715E-3,37.275367544,0.501863354,0.02113659,0.302325581,0.6
1.52916E-3,37.581186947,0.502192211,0.020937188,0.325581395,0.6
1.53398E-3,37.887543388,0.502978653,0.020737787,0.325581395,0.6
1.55392E-3,38.042935172,0.506207503,0.020638086,0.325581395,0.6
1.58975E-3,38.3594344,0.511904685,0.020438684,0.325581395,0.6
1.60256E-3,38.5196902,0.513909662,0.020338983,0.325581395,0.6
1.61185E-3,38.841368336,0.515353969,0.020139581,0.325581395,0.6
1.62242E-3,39.00361014,0.516985851,0.02003988,0.325581395,0.604545455
1.64929E-3,39.331704398,0.521086567,0.019840479,0.325581395,0.613636364
1.68239E-3,39.519803381,0.526043925,0.019641077,0.325581395,0.613636364
1.6922E-3,39.817739141,0.527492553,0.019541376,0.325581395,0.622727273
1.69823E-3,40.007889173,0.528378369,0.019441675,0.325581395,0.636363636
1.72122E-3,40.351478301,0.531728395,0.019242273,0.348837209,0.645454545
1.72836E-3,40.524314779,0.532759913,0.019142572,0.348837209,0.645454545
1.75304E-3,40.873171837,0.5362869,0.01894317,0.348837209,0.645454545
1.8067E-3,41.053842287,0.543776718,0.01884347,0.348837209,0.645454545
1.81288E-3,41.415925767,0.544622803,0.018644068,0.348837209,0.65
1.82442E-3,41.598367999,0.546196696,0.018544367,0.348837209,0.65
1.82889E-3,41.781256518,0.54680221,0.018444666,0.348837209,0.65
1.85977E-3,42.151506183,0.550948728,0.018245264,0.348837209,0.654545455
1.87361E-3,42.33886702,0.552782135,0.018145563,0.348837209,0.654545455
1.88058E-3,42.52692543,0.55370066,0.018045862,0.348837209,0.654545455
1.88569E-3,42.903699825,0.554371228,0.017846461,0.348837209,0.654545455
1.89535E-3,43.017022479,0.555632067,0.01774676,0.348837209,0.654545455
1.90882E-3,43.28477067,0.557379826,0.017647059,0.348837209,0.663636364
1.92922E-3,43.668587227,0.560001372,0.017447657,0.372093023,0.663636364
1.93508E-3,43.862095682,0.560749133,0.017347956,0.372093023,0.668181818
1.9393E-3,44.056025453,0.561284756,0.017248255,0.395348837,0.668181818
1.9429E-3,44.250315637,0.561741916,0.017148554,0.418604651,0.668181818
1.97445E-3,44.643833818,0.565703202,0.016949153,0.418604651,0.668181818
1.97912E-3,44.841745807,0.5662836,0.016849452,0.418604651,0.668181818
1.98548E-3,45.040294118,0.567071833,0.016749751,0.418604651,0.672727273
2.00539E-3,45.44016035,0.569519824,0.016550349,0.418604651,0.672727273
2.00918E-3,45.641078076,0.569981878,0.016450648,0.418604651,0.672727273
2.02873E-3,45.843951305,0.572354266,0.016350947,0.418604651,0.672727273
2.06274E-3,46.05022502,0.576417938,0.016251246,0.418604651,0.681818182
2.06621E-3,46.256846492,0.576829168,0.016151545,0.418604651,0.681818182
2.11483E-3,46.675049034,0.582495805,0.015952144,0.418604651,0.681818182
2.14308E-3,46.889357103,0.585719147,0.015852443,0.418604651,0.686363636
2.18372E-3,47.107729253,0.59027019,0.015752742,0.418604651,0.690909091
2.20093E-3,47.327822419,0.59216742,0.015653041,0.418604651,0.690909091
2.20289E-3,47.548110966,0.592381698,0.01555334,0.418604651,0.690909091
2.2136E-3,47.76947098,0.593552793,0.015453639,0.441860465,0.695454545
2.24264E-3,48.217431308,0.596693625,0.015254237,0.441860465,0.704545455
2.25011E-3,48.374603365,0.597493273,0.015154536,0.465116279,0.704545455
2.25995E-3,48.648076442,0.598542534,0.015054835,0.465116279,0.718181818
2.26579E-3,48.895407118,0.599162035,0.014955135,0.465116279,0.722727273
2.27723E-3,49.123129911,0.600370906,0.014855434,0.465116279,0.722727273
2.27741E-3,49.350870946,0.600390124,0.014755733,0.465116279,0.722727273
2.29246E-3,49.580117401,0.601969793,0.014656032,0.465116279,0.722727273
2.29491E-3,49.809608524,0.602225349,0.014556331,0.465116279,0.722727273
2.30916E-3,50.040524897,0.603707526,0.01445663,0.465116279,0.727272727
2.31091E-3,50.271615595,0.603888056,0.014356929,0.465116279,0.727272727
2.35858E-3,50.507473457,0.60876194,0.014257228,0.465116279,0.727272727
2.36768E-3,50.980601918,0.609678377,0.014057827,0.465116279,0.727272727
2.36909E-3,51.217510971,0.609820568,0.013958126,0.488372093,0.727272727
2.38441E-3,51.455952224,0.611353385,0.013858425,0.488372093,0.727272727
2.3942E-3,51.695372679,0.61232669,0.013758724,0.488372093,0.736363636
2.39734E-3,51.935106662,0.612637301,0.013659023,0.488372093,0.740909091
2.39739E-3,52.174846045,0.612642647,0.013559322,0.488372093,0.740909091
2.40896E-3,52.415742328,0.613784455,0.013459621,0.488372093,0.740909091
2.41294E-3,52.657036756,0.614175852,0.01335992,0.488372093,0.740909091
2.42067E-3,52.899103807,0.614933119,0.013260219,0.511627907,0.740909091
2.42218E-3,53.141321707,0.615080623,0.013160518,0.511627907,0.740909091
2.42452E-3,53.383773435,0.615309043,0.013060818,0.511627907,0.740909091
2.4273E-3,53.626502994,0.615580097,0.012961117,0.511627907,0.740909091
2.47799E-3,53.87430244,0.620460072,0.012861416,0.511627907,0.740909091
2.479E-3,54.122202569,0.620555729,0.012761715,0.511627907,0.740909091
2.48454E-3,54.370656962,0.621081464,0.012662014,0.511627907,0.740909091
2.50556E-3,54.621212929,0.6230617,0.012562313,0.511627907,0.740909091
2.51532E-3,54.87274476,0.6239742,0.012462612,0.534883721,0.740909091
2.51748E-3,55.124492608,0.624175594,0.012362911,0.534883721,0.745454545
2.54909E-3,55.379401571,0.627098237,0.01226321,0.534883721,0.745454545
2.5581E-3,55.635211522,0.627922949,0.012163509,0.534883721,0.745454545
2.57043E-3,55.892254333,0.629045545,0.012063809,0.534883721,0.75
2.57295E-3,56.149548916,0.629273966,0.011964108,0.558139535,0.75
2.58832E-3,56.408380791,0.630662604,0.011864407,0.581395349,0.75
2.59218E-3,56.667598614,0.631009598,0.011764706,0.581395349,0.75
2.599E-3,56.927498824,0.63162152,0.011665005,0.604651163,0.75
2.62188E-3,57.189686562,0.633658109,0.011565304,0.604651163,0.754545455
2.6231E-3,57.451996905,0.633766628,0.011465603,0.604651163,0.754545455
2.6383E-3,57.647003843,0.63510598,0.011365902,0.604651163,0.754545455
2.64632E-3,57.980998754,0.635809446,0.011266201,0.604651163,0.763636364
2.64962E-3,58.245961252,0.636098457,0.0111665,0.604651163,0.763636364
2.6625E-3,58.368444059,0.637219647,0.0110668,0.604651163,0.768181818
2.67777E-3,58.513738198,0.638540722,0.0110668,0.604651163,0.777272727
2.7187E-3,58.785608409,0.642034747,0.010967099,0.604651163,0.781818182
2.73359E-3,59.00357939,0.643289035,0.010867398,0.604651163,0.786363636
2.74284E-3,59.333632451,0.644063609,0.010767697,0.604651163,0.790909091
2.74966E-3,59.60859869,0.644632985,0.010667996,0.604651163,0.790909091
2.77209E-3,59.885807301,0.646491392,0.010568295,0.604651163,0.790909091
2.78798E-3,60.164605268,0.647796873,0.010468594,0.604651163,0.790909091
2.80187E-3,60.444792284,0.648929953,0.010368893,0.604651163,0.790909091
2.84652E-3,60.729443978,0.652523026,0.010269192,0.604651163,0.795454545
2.85747E-3,61.01519097,0.65339329,0.010169492,0.604651163,0.795454545
2.86489E-3,61.301679862,0.653980292,0.010069791,0.627906977,0.795454545
2.89568E-3,61.591248166,0.65639566,0.00997009,0.627906977,0.8
2.89833E-3,61.881080791,0.656601412,0.009870389,0.627906977,0.8
2.93968E-3,62.101299554,0.65978896,0.009770688,0.627906977,0.8
2.9562E-3,62.472081175,0.661045808,0.009670987,0.627906977,0.804545455
2.96149E-3,62.768230309,0.661446031,0.009571286,0.627906977,0.804545455
2.96334E-3,63.064563869,0.661585428,0.009471585,0.627906977,0.804545455
2.96653E-3,63.361216416,0.661826263,0.009371884,0.651162791,0.804545455
2.96688E-3,63.657904656,0.661853188,0.009272183,0.651162791,0.804545455
2.97053E-3,63.954957592,0.66212807,0.009172483,0.651162791,0.804545455
2.97104E-3,64.252061985,0.662166819,0.009072782,0.651162791,0.804545455
2.972E-3,64.549261614,0.66223851,0.008973081,0.674418605,0.804545455
3.00648E-3,64.849909225,0.664813748,0.00887338,0.674418605,0.809090909
3.01064E-3,65.150973059,0.665121964,0.008773679,0.697674419,0.809090909
3.01707E-3,65.452680221,0.665597239,0.008673978,0.697674419,0.809090909
3.0196E-3,65.754639751,0.665783314,0.008574277,0.697674419,0.809090909
3.02696E-3,66.057335925,0.666325271,0.008474576,0.720930233,0.809090909
3.03761E-3,66.361097036,0.667105657,0.008374875,0.720930233,0.809090909
3.04968E-3,66.666065014,0.66798565,0.008275174,0.720930233,0.809090909
3.07677E-3,66.973742126,0.669944182,0.008175474,0.720930233,0.809090909
3.07954E-3,67.28169624,0.670143136,0.008075773,0.720930233,0.813636364
3.08973E-3,67.590669489,0.670873058,0.007976072,0.720930233,0.813636364
3.0939E-3,67.900059017,0.671170277,0.007876371,0.720930233,0.818181818
3.10723E-3,68.210781572,0.672118439,0.00777667,0.720930233,0.818181818
3.11524E-3,68.522305479,0.672685802,0.007676969,0.720930233,0.818181818
3.15877E-3,68.8381822,0.675733648,0.007577268,0.720930233,0.822727273
3.16175E-3,69.154357577,0.675940687,0.007477567,0.720930233,0.822727273
3.16923E-3,69.471280992,0.676458097,0.007377866,0.720930233,0.822727273
3.17669E-3,69.788950282,0.676972368,0.007278166,0.720930233,0.822727273
3.1995E-3,70.108900227,0.678534758,0.007178465,0.720930233,0.840909091
3.20845E-3,70.429745529,0.679144009,0.007078764,0.720930233,0.840909091
3.23628E-3,70.753373033,0.681022525,0.006979063,0.720930233,0.840909091
3.25803E-3,71.0791763,0.682476322,0.006879362,0.720930233,0.85
3.27136E-3,71.40631205,0.683360133,0.006779661,0.720930233,0.85
3.27646E-3,71.733958277,0.683697421,0.00667996,0.720930233,0.85
3.27673E-3,72.061631301,0.683715107,0.006580259,0.720930233,0.854545455
3.2822E-3,72.332462745,0.684075707,0.006480558,0.720930233,0.854545455
3.31717E-3,72.721684335,0.686361501,0.006380857,0.720930233,0.859090909
3.3219E-3,73.053874378,0.686668292,0.006281157,0.720930233,0.859090909
3.3313E-3,73.387003902,0.687275602,0.006181456,0.720930233,0.859090909
3.34281E-3,73.721285207,0.688016944,0.006081755,0.720930233,0.859090909
3.34935E-3,74.056220196,0.688436125,0.005982054,0.720930233,0.859090909
3.35151E-3,74.39137149,0.688574585,0.005882353,0.720930233,0.859090909
3.3937E-3,74.730741085,0.691250388,0.005782652,0.744186047,0.863636364
3.41692E-3,75.07243316,0.692704076,0.005682951,0.76744186,0.868181818
3.41824E-3,75.414257438,0.692786413,0.00558325,0.76744186,0.868181818
3.44018E-3,75.758275608,0.694146371,0.005483549,0.76744186,0.872727273
3.44082E-3,76.102357943,0.694185964,0.005383848,0.76744186,0.872727273
3.4471E-3,76.447068143,0.694572854,0.005284148,0.76744186,0.881818182
3.47879E-3,76.794947087,0.696510589,0.005184447,0.76744186,0.881818182
3.4804E-3,77.142987374,0.696608595,0.005084746,0.76744186,0.881818182
3.49545E-3,77.329238597,0.697519768,0.004985045,0.76744186,0.881818182
3.52578E-3,77.803559176,0.699339327,0.004885344,0.76744186,0.895454545
3.54737E-3,78.201414667,0.700621112,0.004785643,0.76744186,0.9
3.61507E-3,78.562921481,0.704571424,0.004685942,0.76744186,0.9
3.64848E-3,78.927769312,0.706482689,0.004586241,0.76744186,0.9
3.66632E-3,79.294401273,0.707493227,0.00448654,0.76744186,0.9
3.71732E-3,79.666133314,0.710343927,0.004386839,0.76744186,0.9
3.76137E-3,80.042269853,0.71276149,0.004287139,0.76744186,0.904545455
3.77042E-3,80.419312245,0.713253704,0.004187438,0.76744186,0.913636364
3.80073E-3,80.557141616,0.714888351,0.004087737,0.76744186,0.913636364
3.8552E-3,80.804831987,0.717779578,0.004087737,0.76744186,0.918181818
3.87881E-3,81.19271257,0.719014657,0.003988036,0.76744186,0.922727273
3.89673E-3,81.582386063,0.719945424,0.003888335,0.76744186,0.922727273
3.91629E-3,81.974015242,0.720953688,0.003788634,0.790697674,0.922727273
3.92456E-3,82.366470917,0.721377612,0.003688933,0.813953488,0.922727273
3.97942E-3,82.611102297,0.724159428,0.003589232,0.813953488,0.922727273
4.01145E-3,82.753902409,0.725757746,0.003589232,0.813953488,0.927272727
4.01683E-3,83.169612941,0.72602423,0.003489531,0.837209302,0.931818182
4.03693E-3,83.573305446,0.727015976,0.003389831,0.860465116,0.931818182
4.03938E-3,83.977243042,0.727136415,0.00329013,0.860465116,0.931818182
4.04783E-3,84.382025758,0.727550896,0.003190429,0.860465116,0.931818182
4.11197E-3,84.793223189,0.730656354,0.003090728,0.860465116,0.931818182
4.16054E-3,85.209277647,0.732961019,0.002991027,0.860465116,0.940909091
4.19423E-3,85.628701039,0.734536554,0.002891326,0.860465116,0.945454545
4.2959E-3,86.058290581,0.739180186,0.002791625,0.860465116,0.945454545
4.30951E-3,86.489241962,0.739789929,0.002691924,0.860465116,0.945454545
4.36247E-3,86.925489081,0.74213416,0.002592223,0.860465116,0.945454545
4.39852E-3,87.365341535,0.743706092,0.002492522,0.860465116,0.95
4.40377E-3,87.805718195,0.743933053,0.002392822,0.860465116,0.95
4.47378E-3,88.023321149,0.746926195,0.002293121,0.860465116,0.954545455
4.55016E-3,88.260734579,0.750113018,0.002293121,0.860465116,0.963636364
4.57717E-3,88.718451852,0.751220715,0.00219342,0.860465116,0.963636364
4.67579E-3,89.186030496,0.75518303,0.002093719,0.860465116,0.963636364
4.73004E-3,89.659034884,0.757309745,0.001994018,0.860465116,0.963636364
4.90387E-3,90.14942152,0.763880955,0.001894317,0.860465116,0.963636364
4.98772E-3,90.648193032,0.766925196,0.001794616,0.860465116,0.968181818
5.02995E-3,91.151187748,0.768428952,0.001694915,0.860465116,0.968181818
5.05869E-3,91.65705724,0.769441524,0.001595214,0.88372093,0.972727273
5.14622E-3,92.127908392,0.772470536,0.001495513,0.88372093,0.972727273
5.22288E-3,92.694796177,0.775058984,0.001395813,0.88372093,0.977272727
5.24743E-3,92.911226147,0.775875461,0.001296112,0.88372093,0.977272727
5.2828E-3,93.223076262,0.777041538,0.001296112,0.88372093,0.986363636
5.29116E-3,93.752191835,0.777315198,0.001196411,0.88372093,0.986363636
5.41581E-3,94.293773313,0.781319986,0.00109671,0.906976744,0.986363636
5.45393E-3,94.839165818,0.782515721,0.000997009,0.930232558,0.986363636
5.46879E-3,95.38604491,0.78297861,0.000897308,0.930232558,0.986363636
5.50784E-3,95.936828931,0.784185181,0.000797607,0.930232558,0.986363636
5.52141E-3,96.48896966,0.784601252,0.000697906,0.930232558,0.986363636
5.55943E-3,96.64017189,0.78575884,0.000598205,0.930232558,0.986363636
5.59154E-3,96.76787181,0.78672685,0.000598205,0.930232558,0.990909091
5.66384E-3,97.055353495,0.78887437,0.000598205,0.930232558,0.995454545
5.69255E-3,97.624608589,0.789715333,0.000498504,0.953488372,0.995454545
5.74287E-3,98.19889584,0.791173154,0.000398804,0.976744186,0.995454545
5.90409E-3,98.789304549,0.795710406,0.000299103,0.976744186,1
5.94835E-3,99.384139468,0.796921834,0.000199402,0.976744186,1
6.15861E-3,100,0.802485573,0.000099701,0.976744186,1
6.15861E-3,100,0.802485573,0.000099701,1,1
