X,Y,Test or train,Raw prediction,Cumulative prediction,Logistic prediction
-119.7357,37.98757,train,9.599905414294237E-4,24.785616534998553,0.38774998826682705
-120.13974,38.89774,train,0.0028574699176974134,61.015188822263326,0.6533932900047534
-119.58244,38.09216,train,0.0017146728345525252,40.253629894433246,0.530779581164687
-119.86336,37.82968,train,3.44864225701051E-5,1.5840291384479446,0.022245091048425335
-118.91251,37.58957,train,6.667753200209138E-4,18.96438262942923,0.3054983336793241
-119.3622,37.54189,train,0.0038967349271518538,81.582484714147,0.719945423535257
-119.59741,37.63585,train,0.0010654447826727433,26.982099470139286,0.4127627964368714
-120.45046,39.32192,train,0.002242643661162796,48.21750834046153,0.5966936245260436
-119.16148,37.25127,train,0.002412944282968144,52.65717087831152,0.6141758518923187
-119.62056,37.99715,train,0.0030064761078670466,64.84987528763126,0.6648137477554978
-118.53198,36.38178,train,0.0019350845504722768,43.862304798598714,0.5607491326397813
-120.34282,39.29574,train,0.002570428111903638,55.892214971962176,0.6290455448116163
-119.747,37.89363,train,0.0015290364243278145,37.56238503740147,0.50217239958786
-119.74264,38.61332,train,0.002963335595614255,63.06385837315814,0.6615854276699243
-119.50272,37.9041,train,0.0033515129377141746,74.39139512050177,0.6885745851035745
-118.3979,36.41112,train,0.0010066714418583984,25.624029592178896,0.3990802653486554
-119.64801,38.5504,train,0.0014888972031019167,36.788954666001516,0.4955220241868137
-118.46785,36.41398,train,0.0019392977110838563,44.05592026603706,0.5612847558714299
-120.15601,38.68776,train,0.0029710439396943094,64.25328164717412,0.6621668189150641
-119.83994,38.79605,train,0.00259217822522405,56.6674794291404,0.6310095978987007
-120.36342,39.34917,train,0.003916291796344624,81.97410048814773,0.7209536876946957
-120.08137,38.5721,train,0.004014595141949595,82.99692631849472,0.7259137583062635
-120.25203,38.65355,train,0.0022028854757833133,47.547602479714186,0.5923816979753329
-119.555,38.42042,train,9.152770235817616E-4,24.029360387657384,0.3764892299308819
-118.63781,36.31101,train,0.005029947153404198,91.15115384265671,0.7684289524616021
-119.71726,38.09286,train,0.005415814781491601,94.29384172301265,0.7813199859326976
-119.52228,37.94525,train,0.0025055596750390785,54.621209055503435,0.6230616998997244
-119.76259,38.5751,train,0.002572945829148525,56.14912306778928,0.6292739661480122
-118.60365,36.61696,train,0.0023676753071389498,50.980357926117975,0.6096783772554378
-119.49146,37.61375,train,0.005291155732517422,93.75192174032426,0.7773151980570493
-119.90889,38.24259,train,0.005663838351553079,97.05534694039007,0.7888743697074796
-118.30196,36.14821,train,0.0011747289028913174,30.04115663352262,0.4366151808421195
-120.56177,39.5704,train,0.001248447764597008,31.859571511592996,0.45163987583163107
-119.96532,38.17339,train,9.493634180729806E-4,24.49651084733561,0.385110634877828
-119.75567,39.24329,train,1.1213926324060742E-5,0.67423343561722,0.007343661591823147
-119.75004,38.39248,train,0.006158605315923766,99.99998628014039,0.8024855727951368
-119.94669,39.08901,train,7.979685364058432E-4,21.540492095546213,0.34487721830397694
-119.862,38.27675,train,0.005692550933003627,97.62461923709397,0.789715332621971
-120.23393,39.03187,train,0.00301959529770568,65.7540785246827,0.6657833137611885
-119.03144,37.23297,train,0.0033936959545797785,74.7307085442884,0.691250388161701
-119.92887,38.74607,train,0.004016825102066481,83.16923447955969,0.7260242303845196
-119.89659,39.26591,train,0.0014185671394651518,35.500145352575686,0.4834308714724571
-119.59675,37.81828,train,0.0019088157256472844,43.28468570710413,0.5573798261870394
-120.07854,39.30807,test,0.001929219893766093,43.66858522825822,0.560001372032361
-120.51933,39.56957,test,0.002558099508444474,55.63519756586293,0.6279229490533884
-120.8987,39.69577,test,1.8138123057473982E-4,7.115615051321766,0.10687159324429729
-120.6391,39.39963,test,6.79737038124124E-4,19.225982686845473,0.3095984263599969
-118.31679,35.91397,test,0.0016385880030275347,39.20102841155418,0.519461862766346
-123.03114,41.47756,test,3.2050918863473177E-4,11.469328966857598,0.1745391983164288
-120.56702,39.69519,test,0.0012277607587558843,31.213674645125884,0.44750513985922297
-118.64876,36.60551,test,0.0026496249716702744,58.24600853027101,0.6360984571686049
-123.04792,41.07211,test,1.0328820740607787E-4,4.159374706472798,0.06379377493899745
-123.48781,40.49792,test,1.9529529283747082E-5,0.9860148725644593,0.012720030098043837
-120.23477,38.83325,test,0.0031831627328018455,69.87974162369007,0.6774171328809173
-119.16934,37.17051,test,8.857222979158865E-4,23.307374698376016,0.36881591596595725
-120.31173,38.98181,test,0.0025990020978105158,56.92752286334413,0.6316215201806987
-120.51565,39.10494,test,4.412699982330941E-4,14.253633914226826,0.22547398785209247
-122.3047,41.38065,test,1.1242742671167511E-4,4.485943992480838,0.06904866506152602
-123.19936,41.36684,test,8.847967767954336E-5,3.660844998878909,0.05515203012970654
-120.60125,39.83473,test,0.0010724235511917763,27.263237783621438,0.41434619178247656
-119.90994,38.25189,test,0.0057428725175580125,98.19890505962645,0.7911731538919324
-122.20292,41.33109,test,1.741251539555445E-4,6.838297591609783,0.1030367603456755
-120.20308,39.15306,test,0.004473778302794635,88.02331587379787,0.7469261951351809
-119.90215,38.16603,test,0.0034408233535297363,76.10254201878124,0.6941859642560014
-121.77306,40.73594,test,1.1813639457586563E-4,4.766379239190982,0.07230139135114894
-119.39031,37.63963,test,0.0013735133511803953,34.38055537922731,0.4753758994411469
-122.85249,40.92938,test,2.778628016231667E-4,10.373076590791968,0.15491300120660562
-122.21579,41.4774,test,1.9581695669578823E-4,7.625918385586505,0.11440417981914623
-119.83818,38.03398,test,0.0010312035052960598,26.28466456270734,0.4048681487984165
-118.25796,36.22633,test,8.375904918368568E-4,22.416962580634596,0.3559069077845173
-120.96877,40.63211,test,4.802159614242169E-5,2.1464819339034715,0.03070770698091752
-119.6223,37.58619,test,0.001692199795815277,39.81773293978383,0.5274925532079429
-120.01744,38.61453,test,0.005559430787917005,96.6401750235079,0.7857588402019229
-121.52201,40.07443,test,1.0056218755136615E-4,4.0793031924304675,0.062214855669311515
-118.19692,36.25576,test,6.864177680385955E-4,19.48741509007148,0.31169284747194953
-120.7749,39.71981,test,8.939575746010664E-4,23.574747793657167,0.3709729628474664
-119.24945,37.19538,test,3.6912008249763954E-4,12.721771584649698,0.19582722783231457
-123.14889,41.91028,test,6.963276380379071E-5,2.939694356422524,0.04392015202059045
-122.12091,41.38083,test,1.8766808980971437E-4,7.359710494637048,0.11016777995013899
-121.51048,40.10965,test,9.092578567205683E-5,3.748481761515116,0.05659047709343459
-120.61777,39.47679,test,0.0010988766301250781,28.09665584456719,0.4202713236455879
-121.48316,40.26217,test,1.4504053124221025E-4,5.608594121888859,0.08732921709852008
-119.60894,38.04607,test,0.0037224125075361273,79.70961749469173,0.710625502987833
-118.56712,36.44927,test,0.0023942045448021175,51.695719667380125,0.6123266903031712
-123.7252,41.74559,test,2.488706512158849E-5,1.199326879932865,0.016153149811521755
-119.8858,39.25728,test,0.0014185671394651518,35.500145352575686,0.4834308714724571
-118.61416,36.25625,test,0.003495453146832218,77.32928780924134,0.6975197678179315
-120.32674,39.13898,test,0.0035087558387022918,77.53732409378047,0.6983205939399802
-123.11907,41.00492,test,9.125457417626504E-5,3.7602797815604987,0.05678348909381228
-121.71607,40.62216,test,8.055052052677605E-5,3.3746541322063557,0.05045894161467008
-118.57919,36.40419,test,0.002515318304541016,54.87270106513293,0.6239741997016968
-120.0042,39.3835,test,3.538549129796361E-4,12.176937451749993,0.1892614244888313
-119.40199,37.39947,test,6.819643419904852E-5,2.8853903858577117,0.04305320590448932
-123.06226,41.51093,test,2.549506777818748E-4,9.659541018603676,0.1439782831844372
-119.78,37.96975,test,4.360086991751116E-4,14.170933995054991,0.22338618182485956
-119.96398,38.32523,test,5.938502378933118E-4,17.731215289144135,0.2814913122656408
-118.93983,37.38635,test,0.0011690572445846126,29.89898386147142,0.4354250551330035
-119.09929,37.16558,test,0.0022501104699721008,48.37461642645493,0.5974932733417905
-118.91724,37.18802,test,0.002259953178132425,48.64821103954127,0.5985425338500012
-120.38366,39.23468,test,0.002218940314640517,47.85184870375996,0.5941339573035993
-119.73102,38.30608,test,0.005146218757035365,92.12790170570581,0.7724705363978828
-119.07374,37.19415,test,0.0032469743342496476,70.91356839101955,0.6817390882854192
-118.91116,36.98916,test,0.0021430806875386895,46.88936079737259,0.5857191472082367
-122.28427,41.35047,test,2.1711579877391874E-4,8.37630430216293,0.1252887751750864
-122.15841,41.35494,test,2.1953604102676496E-4,8.444256112372912,0.1265087142782808
-123.21309,41.08324,test,1.6037540897895236E-4,6.174365547803076,0.09567896066208227
-123.20206,41.31265,test,2.8243070430337906E-5,1.3436227370538052,0.01829154862935914
-118.21307,36.25397,test,0.0011852239198283886,30.51413148705216,0.4388042460465066
-118.96073,37.01041,test,5.614424587677672E-4,17.15690175155999,0.2702816481492832
-123.3142,41.56028,test,3.461050211175908E-4,12.015729125843432,0.18588686351325567
-118.99924,36.95935,test,3.465009784402527E-4,12.024831951699074,0.18605995734556438
-120.63716,39.83251,test,2.7974585833029456E-4,10.439825108851485,0.15579927228748383
-120.11709,38.77435,test,0.005247428976110072,92.91121712050442,0.7758754606516726
-122.67263,39.4425,test,2.440574640870833E-5,1.175148519782999,0.015845696284598657
-120.63972,39.46482,test,0.0010187608196573017,26.00720378966539,0.401946531185861
-119.61044,38.40469,test,7.698815565438447E-4,20.865659470566467,0.3368269444414337
-120.85574,39.61299,test,8.635286746601002E-5,3.5846477245042148,0.0538977782197211
-119.84045,38.03156,test,0.0010312035052960598,26.28466456270734,0.4048681487984165
-119.23617,37.24948,test,4.1603055631753914E-4,13.774339379078818,0.21535481281789856
-119.97015,39.3938,test,0.0016823946472023167,39.51994451940511,0.5260439248936825
-123.76465,41.5657,test,3.7535637909860466E-5,1.705671376757305,0.02416442605467803
-120.63098,39.28305,test,6.933129568998171E-5,2.928296613505813,0.04373832084876006
-120.32954,38.94572,test,0.0022136701032605516,47.77055236703824,0.5935604185289692
-120.54057,39.29941,test,0.0013173330789232546,32.97384743366865,0.4649727700506891
-119.37457,37.7483,test,0.0020306488948212066,45.85558957502248,0.5725853770867597
-120.81474,39.97044,test,5.469146097213518E-4,16.776487330649562,0.26514220662984395
-120.74542,40.18299,test,3.6904166940612793E-4,12.719363666592141,0.19579377280336074
-121.52604,40.3916,test,1.6016577438637017E-4,6.166143350920244,0.09556584608527255
-120.64488,39.53833,test,0.0010088624856767231,25.670047099069933,0.3996017757396761
-123.02236,41.09777,test,1.0386740969664401E-4,4.176387643580448,0.06412856613100507
-119.02747,37.21977,test,0.0033936959545797785,74.7307085442884,0.691250388161701
-120.08217,38.71671,test,0.004117390594598517,84.83965643066612,0.7309153258626658
-120.90002,39.71095,test,3.695765630158916E-4,12.735789239885992,0.1960219304774167
-119.87409,38.336,test,0.0018953462241150657,43.016978183627124,0.5556320674717119
-121.02869,39.71528,test,2.1408311157904343E-4,8.291157212258991,0.1237553105803329
-119.99916,38.75772,test,0.003762674780547614,80.09662980644833,0.7128327426953115
-120.74762,39.52949,test,5.292558869888146E-4,16.427225346607745,0.25879685221751636
-120.62278,39.95008,test,4.92046198150004E-4,15.556075071187601,0.2450608201675801
-120.42868,39.33677,test,0.003276462266150256,71.73670848554494,0.6836974205905094
-120.61834,39.38469,test,0.001806704502261863,41.054106072540975,0.5437767175676536
-120.04078,38.56884,test,0.0026624984357252754,58.368429183475214,0.6372196469164346
-119.72119,38.55427,test,0.0022522278565030346,48.433462789240785,0.5977194555059823
-122.99654,41.1731,test,3.909571665160759E-4,13.28427856993491,0.2050369596633
-120.53189,39.43599,test,0.0026382953854132436,57.64694464060306,0.6351059795291075
-119.08672,37.14412,test,0.0022501104699721008,48.37461642645493,0.5974932733417905
-123.29661,40.90814,test,3.8796545350672043E-5,1.7567521456587134,0.024955906422297676
-119.60443,37.84899,test,0.0038007317753367916,80.55714968895444,0.7148883512191091
-120.82089,39.71894,test,6.706595788732576E-4,19.02266703387393,0.3067321160918474
-118.79241,37.22131,test,9.471172289379047E-4,24.4639597124198,0.38454985526135965
-118.71189,36.57886,test,5.015846937647507E-4,15.817059980487265,0.24863027244559774
-123.16734,41.45105,test,2.407034497004437E-4,8.997519471325178,0.13703500805453472
-119.93164,38.14689,test,0.0023844125288576463,51.456014068764894,0.6113533853349535
-123.45985,40.94934,test,2.628103074187224E-5,1.2646666752748017,0.01704249496445984
-118.93292,37.10283,test,0.0022111923372760914,47.719708117789764,0.5932902113120765
-121.45162,40.44144,test,2.2509639794284633E-4,8.594258803034103,0.12929860071685126
-118.98854,36.9834,test,3.465009784402527E-4,12.024831951699074,0.18605995734556438
-123.36684,41.49525,test,7.346288685639993E-5,3.0940446739597145,0.04622429372596461
-122.00289,41.46279,test,1.305615612478676E-4,5.116341841757106,0.07930274498046418
-119.2528,37.20814,test,8.158565799360986E-5,3.412366951668352,0.051074260211395474
-121.4989,40.04035,test,1.4046625437813168E-4,5.452514894467484,0.08480861347466856
-120.20783,38.77065,test,0.002810394266055873,60.49913599671917,0.649621681839724
-119.786,38.2506,test,0.004011448970200369,82.75389781781978,0.7257577455640586
-119.81633,38.29039,test,0.004906572977789303,90.16549985415472,0.7639804635309282
-119.52371,37.98158,test,0.003076771116391457,66.97386624056392,0.6699441818788439
-119.10099,37.18314,test,0.004160544579222666,85.20933465599683,0.7329610193576782
-119.96419,38.12936,test,0.001067125819171343,27.06203387880877,0.41314498489042606
-119.74171,38.45003,test,0.0032383033642545684,70.78368193803308,0.6811586157060764
-120.08861,38.75776,test,0.005247428976110072,92.91121712050442,0.7758754606516726
-123.44159,41.0641,test,6.974160098181612E-5,2.9438092134110145,0.043985780422058224
-120.58267,39.62714,test,0.0013048655487156334,32.50547615236126,0.462607919971123
-118.66872,36.32773,test,0.001842726747847414,41.947158436885836,0.5486699797541555
-119.3795,37.72248,test,0.003861921377391169,80.91525518823039,0.7181324473296455
-123.57069,40.64665,test,2.3752344343438534E-5,1.1423257974703247,0.015428012888717244
-119.50654,37.83377,test,0.0028672207300857347,61.32359949688171,0.6541643772675055
-123.29893,41.12661,test,8.323238024744619E-5,3.472361436509998,0.052051482515163894
-121.79445,40.78043,test,1.2198288237982315E-4,4.870187510422087,0.07448016959839751
-123.06226,41.46118,test,3.847109097474547E-4,13.156165048877444,0.20242422828685017
-121.27729,40.50064,test,2.483305205955671E-4,9.372673215458862,0.14076594988119828
-120.38045,39.50944,test,0.003144225833532017,68.73264202969023,0.6747217921957869
-118.98969,36.95523,test,4.6022032872431487E-4,14.850810139673879,0.2329017811206252
-123.72898,41.5548,test,4.8551262181129925E-5,2.1643720949387957,0.03103589340671994
-119.53366,37.48284,test,0.0016982251848465953,40.007737331942955,0.5283783691720669
-120.08451,39.32119,test,0.001222704834645463,31.073402507957052,0.44648510706081873
-123.47397,41.0622,test,1.0106722378792158E-4,4.094137646419252,0.06250777605685894
-123.23653,40.9225,test,1.915862617458827E-4,7.468458901425942,0.11220979061166426
-121.10125,39.71573,test,1.0464229183756951E-4,4.1991482944689675,0.06457609014721227
-120.23666,38.77032,test,0.0011472281146931835,29.574778441614225,0.43079718565570563
-122.98008,41.91983,test,4.8787774922338836E-4,15.447437229957215,0.24349025118652068
-119.91381,38.15066,test,0.0034408233535297363,76.10254201878124,0.6941859642560014
-123.04188,41.44241,test,2.6519075480735963E-4,9.96676585916877,0.14890009027565584
-119.97921,38.77389,test,0.003762674780547614,80.09662980644833,0.7128327426953115
-120.21738,38.8053,test,0.0031831627328018455,69.87974162369007,0.6774171328809173
-120.27871,38.95649,test,0.0032822005129981282,72.3324684547497,0.6840757072443683
-122.96016,41.04539,test,1.893000362569222E-4,7.405004978643843,0.11101943227293927
-120.34063,38.74722,test,6.014619130928068E-4,17.94700836322734,0.28407438248108174
-118.66446,36.54889,test,0.0010247775350515599,26.141386141166112,0.40336286557396306
-119.81985,38.33409,test,0.004362471193214439,86.92550363962133,0.7421341604794285
-121.62723,40.2653,test,9.979983412233297E-5,4.056910548006935,0.06177234476804074
-123.07384,41.05651,test,1.0328820740607787E-4,4.159374706472798,0.06379377493899745
-119.58944,37.6361,test,0.0010654447826727433,26.982099470139286,0.4127627964368714
-122.04649,41.46387,test,1.0479155892040707E-4,4.203532723767539,0.06466224842563086
-120.61268,39.99573,test,9.904061030150528E-4,25.341909432890517,0.3951802927773561
-119.7043,38.06878,test,0.005591544054396518,96.76788793122742,0.7867268496921827
-120.0998,38.43455,test,0.0033618403598114723,74.47446724789106,0.6892339647898716
-119.4815,37.92522,test,0.002640209447274691,57.72652325354483,0.63527403220766
-121.26561,40.41856,test,3.3621489422612955E-4,11.788360928235806,0.18153935475991587
-118.25157,35.96411,test,6.828056475007487E-4,19.294714019650552,0.31056202154423435
-119.04736,37.10362,test,0.0027239683535895806,58.86273051780965,0.6424793778328426
-119.12655,37.13841,test,0.001363578997102776,34.03819789461522,0.47356586034482684
-120.89617,39.71918,test,3.695765630158916E-4,12.735789239885992,0.1960219304774167
-123.19704,41.39667,test,1.7982365415647157E-4,7.031284000463938,0.10605118133129422
-120.76008,39.61671,test,3.3179383951306406E-5,1.53188749365345,0.02142005909078118
-121.73904,40.5941,test,8.055052052677605E-5,3.3746541322063557,0.05045894161467008
-119.68063,37.64905,test,3.304597304370581E-4,11.672215906433195,0.17898805786164104
-120.51931,39.47301,test,0.0016896524802979154,39.7403693939505,0.5271170608683192
-118.78973,36.65351,test,0.002114832234666931,46.675065986465654,0.5824958050428648
-120.47914,39.36313,test,0.0026690297434181884,58.43057460568216,0.6377858410474032
-119.66317,38.4848,test,0.0019026103182073182,43.16133851954148,0.5565763437239342
-118.62111,36.25269,test,0.003495453146832218,77.32928780924134,0.6975197678179315
-120.25947,39.4151,test,0.0031766928939823374,69.78899087513852,0.6769723680181131
-118.64097,36.37355,test,0.003525780641301379,77.80357099375242,0.6993393270272406
-121.43014,40.02701,test,2.3509609819001662E-4,8.853833389958949,0.13427132140042944
-120.18515,38.57871,test,0.002992121774236085,64.72471298735152,0.6637464338445912
-120.24992,38.54658,test,0.0014528518182771364,36.04359789380467,0.48939666498548084
-121.43683,40.48298,test,2.9464250920250277E-4,10.855250495567818,0.16274548212156414
-120.06615,38.45436,test,0.002303488727703285,49.9486238703998,0.6031186839555156
-119.94976,38.14935,test,0.0023844125288576463,51.456014068764894,0.6113533853349535
-120.63896,39.59774,test,0.0017007292676553053,40.04524111707677,0.5287455279571169
-120.31502,39.30598,test,0.003423187744078249,75.49183783286908,0.6930939977788497
-122.97448,41.92758,test,4.8787774922338836E-4,15.447437229957215,0.24349025118652068
-119.87095,39.02535,test,2.201628736907366E-4,8.461855348220285,0.12682411883561862
-119.72075,38.36837,test,0.00270297320199301,58.68114596354398,0.6407001433235016
-120.08966,39.50188,test,8.433119963670393E-4,22.602810338485885,0.3574690084048659
-120.04538,38.47441,test,0.004506530216010816,88.12511927830569,0.7483025131218707
-119.1007,37.32506,test,0.001979119887660148,44.84174104609989,0.5662836000615042
-123.24725,41.05848,test,1.6037540897895236E-4,6.174365547803076,0.09567896066208227
-120.02096,39.2409,test,8.216455242153731E-4,22.01061446276597,0.3515132174066039
-118.6641,36.32848,test,0.005029947153404198,91.15115384265671,0.7684289524616021
-120.28467,39.40481,test,0.0031766928939823374,69.78899087513852,0.6769723680181131
-120.12841,38.57705,test,0.003979422096459873,82.611111643697,0.724159427896352
-119.6769,37.72906,test,2.889948282074345E-4,10.702905792217784,0.1601255014366104
-123.54295,40.58818,test,2.5895302173331948E-5,1.2466312598009244,0.016796562436488874
-120.64698,39.92434,test,6.998207145508155E-4,19.619482436718922,0.3158566079703216
-120.63389,39.64437,test,0.0015209269086081886,37.09860108237585,0.5008429645370083
-119.42346,37.72882,test,0.004408033774098344,87.81897072805225,0.7441175076423522
-120.72735,39.89532,test,2.10533659621617E-4,8.177198793563361,0.121953703193133
-119.36681,37.71401,test,0.0020306488948212066,45.85558957502248,0.5725853770867597
-120.13763,38.42903,test,0.0030897324808455426,67.59085355318021,0.6708730575490853
-120.37605,39.06736,test,7.990345695517537E-4,21.560709647849595,0.34517891607530693
-120.04176,38.71993,test,0.004117390594598517,84.83965643066612,0.7309153258626658
-119.58791,37.61569,test,0.001692199795815277,39.81773293978383,0.5274925532079429
-120.36081,39.27307,test,0.00293968370669342,62.10138274853964,0.6597889603313102
-123.02881,40.96545,test,3.629462899673455E-4,12.532186067349947,0.1931846268173234
-119.66051,38.26829,test,0.0016186210915242047,38.94529966087569,0.5164007423330743
-118.30005,35.88846,test,0.0016385880030275347,39.20102841155418,0.519461862766346
-120.55088,39.21794,test,1.4079395408580649E-4,5.464359805379739,0.08498965159048001
-122.99078,40.17787,test,1.5056552717660567E-4,5.796002271088624,0.0903552522178454
-122.77228,42.0301,test,2.0061302611541938E-4,7.81670466612419,0.11687873645201488
-123.2571,41.31701,test,8.050620333366842E-5,3.3730395386318013,0.050432580253163065
-119.05697,37.46394,test,0.0016946628844116754,39.89540374293903,0.5278550632693428
-119.07,37.23848,test,0.002733591729804442,59.00364111186497,0.6432890348023041
-119.40839,37.33573,test,1.6252004510900332E-4,6.259041841914373,0.0968345395820989
-122.27084,41.29817,test,1.591186449265748E-4,6.125073294331779,0.09500041230480868
