Raw value,Corresponding cumulative value,Corresponding logistic value,Fractional area,Training omission,Test omission
1.64304E-11,0.000000002,0.000000021,1,0,0
2.02307E-11,0.000000004,0.000000026,0.999900398,0,0
2.83211E-11,0.000000011,0.000000037,0.999601594,0,0
3.42233E-11,0.000000028,0.000000044,0.999103586,0,0
6.76573E-11,0.000000105,0.000000087,0.99750996,0,0
1.43953E-10,0.000000255,0.000000186,0.996015936,0,0
3.58347E-10,0.000001021,0.000000463,0.993027888,0,0
6.54685E-10,0.000002529,0.000000847,0.989940239,0,0
1.30283E-9,0.000010029,0.000001685,0.982270916,0,0
2.06756E-9,0.000025144,0.000002674,0.973306773,0,0
3.43525E-9,0.000050132,0.000004443,0.964143426,0,0
6.39831E-9,0.000100485,0.000008275,0.953685259,0,0
1.21443E-8,0.000250631,0.000015705,0.937450199,0,0
2.02865E-8,0.000500771,0.000026235,0.921613546,0,0.003508772
3.24164E-8,0.001000291,0.000041921,0.90249004,0,0.003508772
6.93823E-8,0.002504945,0.000089721,0.871513944,0,0.003508772
1.27025E-7,0.005005133,0.000164248,0.844920319,0,0.003508772
2.13718E-7,0.010016452,0.000276314,0.815438247,0,0.003508772
3.8712E-7,0.025008683,0.000500392,0.764741036,0,0.003508772
6.44573E-7,0.050022836,0.0008329,0.714641434,0,0.003508772
1.08574E-6,0.10003683,0.001402159,0.655976096,0,0.003508772
1.94476E-6,0.200042579,0.002508754,0.589442231,0,0.007017544
2.59676E-6,0.300099535,0.003347016,0.545517928,0,0.007017544
3.16329E-6,0.400200313,0.004074254,0.510956175,0,0.007017544
3.72298E-6,0.500343282,0.004791673,0.48187251,0,0.007017544
4.35962E-6,0.600190907,0.005606465,0.457270916,0,0.007017544
5.07574E-6,0.70033585,0.006521386,0.435956175,0,0.007017544
5.39255E-6,0.750229209,0.006925609,0.426494024,0,0.007017544
5.79569E-6,0.800369449,0.007439519,0.41752988,0,0.007017544
6.38904E-6,0.90017816,0.008194912,0.401195219,0,0.007017544
7.0302E-6,1.000087573,0.009009883,0.386354582,0,0.010526316
7.88683E-6,1.100219488,0.010096656,0.373007968,0,0.010526316
8.74717E-6,1.200013355,0.011185736,0.361055777,0,0.014035088
9.51561E-6,1.300342462,0.012156458,0.350099602,0,0.014035088
1.02148E-5,1.400289155,0.01303811,0.340039841,0,0.014035088
1.10111E-5,1.50020572,0.014040226,0.330677291,0,0.014035088
1.29466E-5,1.751270849,0.016467433,0.309760956,0,0.014035088
1.53108E-5,2.00050341,0.01941629,0.292131474,0,0.01754386
1.72339E-5,2.250863847,0.021801829,0.276792829,0,0.021052632
1.92086E-5,2.501641891,0.024239385,0.26314741,0,0.021052632
2.09479E-5,2.750673776,0.026376327,0.250796813,0,0.021052632
2.37572E-5,3.001518246,0.02980814,0.239641434,0,0.021052632
2.63517E-5,3.251961141,0.032956192,0.229681275,0,0.021052632
2.86495E-5,3.501426212,0.035727207,0.22061753,0,0.024561404
3.1281E-5,3.751151383,0.038881234,0.212350598,0,0.024561404
3.45723E-5,4.001241742,0.042797143,0.204780876,0,0.028070175
3.8151E-5,4.251664254,0.047018967,0.197908367,0,0.028070175
4.19712E-5,4.503589755,0.051484738,0.191633466,0,0.031578947
4.55614E-5,4.75258798,0.055643674,0.185956175,0,0.035087719
4.92085E-5,5.002860693,0.05983123,0.180677291,0,0.035087719
5.31059E-5,5.254216331,0.064265482,0.175796813,0,0.035087719
5.793E-5,5.504365846,0.069696436,0.171314741,0,0.035087719
6.21495E-5,5.752020919,0.07439536,0.167231076,0,0.038596491
6.60294E-5,6.001336739,0.078674331,0.163346614,0,0.042105263
6.92982E-5,6.252772221,0.082248798,0.159661355,0,0.042105263
7.38846E-5,6.503754532,0.087217477,0.156175299,0,0.042105263
7.70085E-5,6.754395213,0.090571083,0.152888446,0,0.042105263
8.1689E-5,7.007446028,0.095550001,0.149701195,0,0.042105263
8.4749E-5,7.257636574,0.098775608,0.146713147,0,0.042105263
8.7853E-5,7.507782868,0.102024249,0.143824701,0,0.042105263
9.16076E-5,7.758654855,0.105922644,0.141035857,0,0.042105263
9.43956E-5,8.0010927,0.108795592,0.138446215,0,0.045614035
9.73868E-5,8.25070087,0.111857541,0.135856574,0,0.045614035
1.01699E-4,8.509615106,0.116234456,0.133266932,0,0.045614035
1.06396E-4,8.759143317,0.120953686,0.130876494,0,0.049122807
1.09572E-4,9.007929175,0.124115973,0.128585657,0,0.049122807
1.127E-4,9.252675206,0.127208773,0.126394422,0,0.049122807
1.16967E-4,9.506405249,0.131392622,0.124203187,0,0.049122807
1.20264E-4,9.755311823,0.134597004,0.122111554,0,0.049122807
1.24022E-4,10.011917056,0.138222085,0.12001992,0,0.049122807
1.28447E-4,10.252303537,0.142450984,0.11812749,0,0.052631579
1.31222E-4,10.512518422,0.145082017,0.116135458,0,0.056140351
1.35624E-4,10.753201869,0.149222617,0.114342629,0,0.063157895
1.38246E-4,11.012939689,0.151670129,0.112450199,0.017857143,0.066666667
1.41818E-4,11.251211201,0.154981129,0.110756972,0.035714286,0.066666667
1.46004E-4,11.510450622,0.158829868,0.108964143,0.035714286,0.070175439
1.50159E-4,11.76190759,0.162614721,0.107270916,0.035714286,0.070175439
1.54859E-4,12.005420511,0.166854779,0.105677291,0.053571429,0.073684211
1.60735E-4,12.256531259,0.172096574,0.104083665,0.053571429,0.073684211
1.63495E-4,12.501764626,0.174535564,0.102589641,0.053571429,0.077192982
1.69355E-4,12.752440958,0.179667582,0.101095618,0.053571429,0.087719298
1.72805E-4,13.009233484,0.182659406,0.099601594,0.053571429,0.09122807
1.77962E-4,13.255746303,0.187090299,0.098207171,0.071428571,0.09122807
1.84617E-4,13.50932293,0.192738269,0.096812749,0.071428571,0.09122807
1.89213E-4,13.752349487,0.196593021,0.095517928,0.071428571,0.09122807
1.94703E-4,14.001678158,0.201150165,0.094223108,0.071428571,0.09122807
1.97789E-4,14.256459056,0.203689249,0.092928287,0.071428571,0.094736842
2.01742E-4,14.515906965,0.206917743,0.091633466,0.089285714,0.101754386
2.0626E-4,14.761651644,0.210575704,0.090438247,0.089285714,0.101754386
2.10153E-4,15.01168299,0.213700454,0.089243028,0.089285714,0.101754386
2.17661E-4,15.268759789,0.219658222,0.088047809,0.089285714,0.10877193
2.22456E-4,15.511171621,0.223416493,0.086952191,0.089285714,0.115789474
2.28006E-4,15.759447897,0.227721037,0.085856574,0.089285714,0.115789474
2.33824E-4,16.013262755,0.232182492,0.084760956,0.089285714,0.115789474
2.40801E-4,16.273293994,0.237465589,0.083665339,0.089285714,0.122807018
2.44331E-4,16.515637639,0.2401107,0.082669323,0.089285714,0.122807018
2.48622E-4,16.753075959,0.243301328,0.081673307,0.089285714,0.126315789
2.56622E-4,17.015899793,0.249179553,0.080677291,0.089285714,0.133333333
2.59184E-4,17.273824867,0.251043001,0.079681275,0.089285714,0.133333333
2.63709E-4,17.509641806,0.254311031,0.078784861,0.089285714,0.133333333
2.66923E-4,17.775139154,0.256615232,0.077788845,0.107142857,0.133333333
2.74698E-4,18.018824698,0.262130208,0.07689243,0.107142857,0.133333333
2.83391E-4,18.271199027,0.268201232,0.075996016,0.107142857,0.133333333
2.89212E-4,18.501115645,0.27221044,0.075199203,0.107142857,0.133333333
2.92456E-4,18.762733408,0.27442571,0.074302789,0.125,0.133333333
3.06981E-4,19.003073814,0.284182277,0.073505976,0.125,0.136842105
3.13234E-4,19.28100336,0.288301813,0.072609562,0.125,0.136842105
3.18204E-4,19.501926318,0.291542385,0.071912351,0.125,0.140350877
3.23165E-4,19.758291989,0.294748373,0.071115538,0.125,0.140350877
3.28021E-4,20.019663682,0.297857616,0.070318725,0.125,0.143859649
3.34045E-4,20.251911804,0.301677768,0.069621514,0.125,0.143859649
3.38328E-4,20.521171611,0.304368531,0.068824701,0.125,0.143859649
3.43991E-4,20.759693499,0.307894568,0.06812749,0.125,0.143859649
3.48464E-4,21.00183798,0.310654423,0.067430279,0.125,0.147368421
3.60971E-4,21.285792008,0.318255808,0.066633466,0.142857143,0.147368421
3.63744E-4,21.503611951,0.319918682,0.066035857,0.142857143,0.150877193
3.73878E-4,21.762073419,0.325926522,0.065338645,0.160714286,0.150877193
3.78134E-4,22.025233543,0.328418108,0.064641434,0.160714286,0.154385965
3.84419E-4,22.254421317,0.332064015,0.064043825,0.178571429,0.157894737
3.93293E-4,22.528209393,0.337145268,0.063346614,0.178571429,0.157894737
4.06134E-4,22.766946397,0.344362545,0.062749004,0.178571429,0.161403509
4.1083E-4,23.012446654,0.346962319,0.062151394,0.178571429,0.161403509
4.18499E-4,23.261684272,0.351165065,0.061553785,0.178571429,0.164912281
4.28102E-4,23.515612464,0.356351283,0.060956175,0.178571429,0.164912281
4.32973E-4,23.774589504,0.358950525,0.060358566,0.178571429,0.164912281
4.39055E-4,24.036979394,0.362166546,0.059760956,0.178571429,0.168421053
4.49172E-4,24.259806186,0.367445457,0.059262948,0.178571429,0.171929825
4.59798E-4,24.532824324,0.37289689,0.058665339,0.178571429,0.178947368
4.62925E-4,24.763526759,0.374483083,0.058167331,0.178571429,0.178947368
4.71026E-4,25.043372091,0.378555544,0.057569721,0.178571429,0.178947368
4.80641E-4,25.280659485,0.383320833,0.057071713,0.178571429,0.185964912
4.90619E-4,25.523967643,0.388189351,0.056573705,0.178571429,0.196491228
4.98238E-4,25.771836022,0.39185548,0.056075697,0.178571429,0.2
5.02263E-4,26.022281211,0.39377458,0.055577689,0.178571429,0.203508772
5.33441E-4,26.281978041,0.408239382,0.055079681,0.178571429,0.203508772
5.40728E-4,26.551231312,0.411520997,0.054581673,0.178571429,0.207017544
5.48151E-4,26.769442676,0.4148269,0.054183267,0.178571429,0.207017544
5.65983E-4,27.04826278,0.42261862,0.053685259,0.178571429,0.207017544
5.7311E-4,27.276364869,0.425674881,0.053286853,0.196428571,0.207017544
5.82161E-4,27.507563539,0.429510061,0.052888446,0.196428571,0.210526316
5.87478E-4,27.800187298,0.431739194,0.052390438,0.214285714,0.21754386
5.98629E-4,28.038627673,0.436358294,0.051992032,0.214285714,0.21754386
6.08378E-4,28.280648457,0.440335446,0.051593625,0.214285714,0.221052632
6.15939E-4,28.52628375,0.443381614,0.051195219,0.214285714,0.221052632
6.22154E-4,28.774490257,0.445860591,0.050796813,0.214285714,0.224561404
6.25297E-4,29.024309709,0.447106038,0.050398406,0.214285714,0.231578947
6.36033E-4,29.276862182,0.451318076,0.05,0.214285714,0.242105263
6.41912E-4,29.532881538,0.453597417,0.049601594,0.214285714,0.245614035
6.48436E-4,29.791279288,0.456104699,0.049203187,0.214285714,0.245614035
6.56732E-4,30.052401949,0.459260156,0.048804781,0.214285714,0.245614035
6.68568E-4,30.251698626,0.46369915,0.048505976,0.214285714,0.245614035
6.74374E-4,30.520808674,0.46585016,0.04810757,0.214285714,0.245614035
6.84719E-4,30.792541064,0.469640251,0.047709163,0.214285714,0.245614035
6.94667E-4,31.068688998,0.473234453,0.047310757,0.214285714,0.245614035
6.99947E-4,31.278251914,0.475122568,0.047011952,0.214285714,0.245614035
7.08485E-4,31.56015127,0.478146949,0.046613546,0.214285714,0.245614035
7.1607E-4,31.761097172,0.480804539,0.046314741,0.214285714,0.252631579
7.24699E-4,32.062762272,0.483795443,0.045916335,0.232142857,0.266666667
7.42955E-4,32.28418432,0.490010993,0.04561753,0.232142857,0.270175439
7.51726E-4,32.508820556,0.492944112,0.045318725,0.232142857,0.273684211
7.70109E-4,32.767330166,0.49898377,0.044920319,0.232142857,0.277192982
7.83634E-4,33.047786033,0.50333635,0.044621514,0.232142857,0.280701754
7.91407E-4,33.284329061,0.505803543,0.044322709,0.232142857,0.284210526
7.93719E-4,33.522282761,0.506532891,0.044023904,0.25,0.284210526
8.0211E-4,33.762392183,0.509161276,0.0437251,0.267857143,0.29122807
8.06671E-4,34.003888722,0.51057813,0.043426295,0.267857143,0.29122807
8.12065E-4,34.327744649,0.512243316,0.043027888,0.267857143,0.29122807
8.16502E-4,34.572055317,0.51360478,0.042729084,0.267857143,0.294736842
8.20094E-4,34.817864337,0.514701387,0.042430279,0.267857143,0.301754386
8.25516E-4,35.065048087,0.516346939,0.042131474,0.285714286,0.305263158
8.33587E-4,35.314602692,0.518776299,0.041832669,0.285714286,0.305263158
8.37252E-4,35.565528464,0.519871624,0.041533865,0.285714286,0.30877193
8.40913E-4,35.817416019,0.520960528,0.04123506,0.285714286,0.30877193
8.45458E-4,36.002596977,0.522305667,0.040936255,0.285714286,0.30877193
8.55806E-4,36.326480279,0.525339832,0.04063745,0.285714286,0.315789474
8.59543E-4,36.584105076,0.526426443,0.040338645,0.285714286,0.315789474
8.62443E-4,36.75655719,0.527265968,0.040139442,0.303571429,0.315789474
8.66988E-4,37.016058412,0.528575873,0.039840637,0.303571429,0.315789474
8.82787E-4,37.279365397,0.533073333,0.039541833,0.303571429,0.315789474
8.97302E-4,37.54819666,0.53713045,0.039243028,0.303571429,0.329824561
9.13353E-4,37.820859768,0.541535506,0.038944223,0.303571429,0.336842105
9.16405E-4,38.004018279,0.542363434,0.03874502,0.303571429,0.343859649
9.21195E-4,38.279736134,0.543657216,0.038446215,0.321428571,0.343859649
9.26068E-4,38.556721159,0.54496591,0.03814741,0.321428571,0.343859649
9.30038E-4,38.835190768,0.546026447,0.037848606,0.321428571,0.347368421
9.36439E-4,39.021950086,0.547726204,0.037649402,0.321428571,0.357894737
9.44324E-4,39.256354449,0.549802502,0.037350598,0.321428571,0.361403509
9.54717E-4,39.590237989,0.552510167,0.037051793,0.321428571,0.368421053
9.59285E-4,39.78164347,0.553689883,0.03685259,0.321428571,0.368421053
9.61986E-4,40.069728432,0.55438475,0.036553785,0.321428571,0.368421053
9.72925E-4,40.263862164,0.557176309,0.036354582,0.321428571,0.368421053
9.81754E-4,40.557539344,0.559404112,0.036055777,0.321428571,0.368421053
1.00276E-3,40.7564997,0.564614885,0.035856574,0.339285714,0.378947368
1.00746E-3,41.057942536,0.56576432,0.035557769,0.357142857,0.378947368
1.01079E-3,41.259942932,0.566574181,0.035358566,0.357142857,0.385964912
1.01346E-3,41.563500905,0.56722175,0.035059761,0.357142857,0.385964912
1.01656E-3,41.766738781,0.567972092,0.034860558,0.357142857,0.385964912
1.0209E-3,42.072803965,0.569016965,0.034561753,0.375,0.385964912
1.0228E-3,42.277246413,0.569473252,0.03436255,0.375,0.385964912
1.02514E-3,42.584708619,0.570032581,0.034063745,0.375,0.385964912
1.02763E-3,42.790018442,0.57062765,0.033864542,0.375,0.389473684
1.03317E-3,43.018427976,0.571944458,0.033565737,0.375,0.392982456
1.04105E-3,43.30792491,0.573804884,0.033366534,0.375,0.4
1.0482E-3,43.505764664,0.575477661,0.033167331,0.375,0.4
1.05365E-3,43.832453021,0.576743671,0.032868526,0.375,0.403508772
1.05904E-3,44.043927047,0.577987939,0.032669323,0.375,0.403508772
1.06359E-3,44.256215615,0.579033527,0.03247012,0.375,0.410526316
1.07048E-3,44.577119522,0.580605853,0.032171315,0.375,0.41754386
1.0723E-3,44.791449146,0.581019512,0.031972112,0.375,0.421052632
1.07816E-3,45.006896535,0.582347585,0.031772908,0.375,0.428070175
1.08263E-3,45.331512913,0.583353418,0.031474104,0.375,0.438596491
1.08912E-3,45.548734252,0.58480395,0.0312749,0.375,0.438596491
1.10149E-3,45.768083549,0.587543599,0.031075697,0.375,0.438596491
1.11627E-3,46.101771068,0.5907701,0.030776892,0.375,0.438596491
1.12301E-3,46.267460713,0.592225139,0.030577689,0.375,0.442105263
1.13037E-3,46.552463175,0.593801322,0.030378486,0.375,0.459649123
1.13195E-3,46.77872342,0.59413846,0.030179283,0.392857143,0.459649123
1.13662E-3,47.005863542,0.595130815,0.02998008,0.392857143,0.459649123
1.1449E-3,47.285662014,0.596878658,0.029681275,0.392857143,0.463157895
1.1478E-3,47.578140741,0.597487286,0.029482072,0.392857143,0.466666667
1.15144E-3,47.808150631,0.598249218,0.029282869,0.410714286,0.466666667
1.15543E-3,48.03906473,0.599079756,0.029083665,0.428571429,0.466666667
1.16114E-3,48.271284703,0.600262966,0.028884462,0.446428571,0.466666667
1.16319E-3,48.503810204,0.600686758,0.028685259,0.446428571,0.466666667
1.16895E-3,48.85392452,0.601870659,0.028386454,0.446428571,0.470175439
1.17148E-3,49.088140805,0.602388377,0.028187251,0.446428571,0.470175439
1.17588E-3,49.323095797,0.603285725,0.027988048,0.446428571,0.473684211
1.18657E-3,49.559843004,0.605449155,0.027788845,0.464285714,0.484210526
1.19444E-3,49.798127268,0.607028313,0.027589641,0.464285714,0.487719298
1.20232E-3,50.038379134,0.608595637,0.027390438,0.464285714,0.498245614
1.20845E-3,50.27958211,0.609806094,0.027191235,0.464285714,0.498245614
1.21957E-3,50.522896726,0.61198393,0.026992032,0.464285714,0.501754386
1.22643E-3,50.767887455,0.613313491,0.026792829,0.464285714,0.505263158
1.22742E-3,51.013275744,0.613505128,0.026593625,0.464285714,0.505263158
1.23506E-3,51.25986883,0.614975177,0.026394422,0.464285714,0.505263158
1.23613E-3,51.507047421,0.615181976,0.026195219,0.464285714,0.505263158
1.23838E-3,51.754686041,0.615610886,0.025996016,0.464285714,0.505263158
1.25334E-3,52.004752683,0.618448807,0.025796813,0.464285714,0.512280702
1.25657E-3,52.256051665,0.619056653,0.02559761,0.464285714,0.515789474
1.25823E-3,52.507543125,0.619367744,0.025398406,0.464285714,0.519298246
1.26597E-3,52.760279495,0.620812699,0.025199203,0.464285714,0.519298246
1.27873E-3,53.015442328,0.623170687,0.025,0.464285714,0.522807018
1.28126E-3,53.271588168,0.623634399,0.024800797,0.464285714,0.526315789
1.29531E-3,53.53035017,0.626190356,0.024601594,0.464285714,0.529824561
1.30401E-3,53.790513306,0.627756592,0.02440239,0.482142857,0.533333333
1.31017E-3,54.052355734,0.628856347,0.024203187,0.482142857,0.543859649
1.32334E-3,54.259151888,0.631187208,0.024003984,0.482142857,0.543859649
1.32717E-3,54.582347575,0.631860653,0.023804781,0.482142857,0.550877193
1.3309E-3,54.848489611,0.632513911,0.023605578,0.482142857,0.550877193
1.33484E-3,55.115368354,0.633200835,0.023406375,0.482142857,0.554385965
1.33613E-3,55.382480732,0.633424277,0.023207171,0.5,0.561403509
1.33626E-3,55.516106776,0.633447001,0.02310757,0.5,0.561403509
1.33802E-3,55.783679611,0.633751838,0.022908367,0.5,0.564912281
1.34392E-3,56.005984686,0.634772349,0.022709163,0.517857143,0.568421053
1.35031E-3,56.322334849,0.635871847,0.02250996,0.517857143,0.571929825
1.35612E-3,56.593297537,0.636866088,0.022310757,0.517857143,0.571929825
1.36498E-3,56.804107709,0.638369763,0.022111554,0.517857143,0.571929825
1.36689E-3,57.002963666,0.63869313,0.022011952,0.517857143,0.578947368
1.36994E-3,57.276711857,0.639207899,0.021812749,0.517857143,0.58245614
1.37841E-3,57.552262653,0.640628341,0.021613546,0.517857143,0.585964912
1.39075E-3,57.830169962,0.642676265,0.021414343,0.517857143,0.585964912
1.40157E-3,58.109810449,0.644454595,0.021215139,0.517857143,0.592982456
1.40265E-3,58.250075932,0.644631824,0.021115538,0.517857143,0.596491228
1.40823E-3,58.531353387,0.645539936,0.020916335,0.535714286,0.6
1.41164E-3,58.813675637,0.646092588,0.020717131,0.535714286,0.6
1.41691E-3,59.096846889,0.646945554,0.020517928,0.553571429,0.6
1.42001E-3,59.380666623,0.647443189,0.020318725,0.553571429,0.6
1.42442E-3,59.523108526,0.648151151,0.020219124,0.553571429,0.6
1.44135E-3,59.811072739,0.650840496,0.02001992,0.553571429,0.610526316
1.45955E-3,60.093263435,0.65368778,0.019820717,0.553571429,0.610526316
1.47242E-3,60.34086958,0.655672323,0.019621514,0.553571429,0.614035088
1.47882E-3,60.544653541,0.656651037,0.019521912,0.553571429,0.624561404
1.4966E-3,60.842746357,0.65934004,0.019322709,0.553571429,0.631578947
1.50164E-3,61.142608107,0.660094474,0.019123506,0.553571429,0.631578947
1.50463E-3,61.293071486,0.660541388,0.019023904,0.553571429,0.631578947
1.51246E-3,61.595475668,0.661703066,0.018824701,0.553571429,0.652631579
1.51926E-3,61.89918408,0.662707578,0.018625498,0.553571429,0.652631579
1.52028E-3,62.051212077,0.662857138,0.018525896,0.553571429,0.652631579
1.52338E-3,62.281465942,0.663312065,0.018326693,0.571428571,0.652631579
1.52774E-3,62.508647693,0.663950226,0.018227092,0.571428571,0.656140351
1.53162E-3,62.776284005,0.664516547,0.018027888,0.571428571,0.656140351
1.54328E-3,63.07766246,0.666204873,0.017828685,0.571428571,0.663157895
1.54816E-3,63.278108971,0.666905515,0.017729084,0.571428571,0.666666667
1.5536E-3,63.588616556,0.667684944,0.01752988,0.589285714,0.666666667
1.56003E-3,63.900164744,0.668601314,0.017330677,0.589285714,0.677192982
1.57263E-3,64.057427711,0.670380694,0.017231076,0.589285714,0.680701754
1.58282E-3,64.355778097,0.671805893,0.017031873,0.589285714,0.69122807
1.58611E-3,64.531986371,0.672263498,0.016932271,0.589285714,0.698245614
1.60644E-3,64.801768301,0.675063289,0.016733068,0.589285714,0.705263158
1.61568E-3,65.014290211,0.6763208,0.016633466,0.589285714,0.70877193
1.63554E-3,65.341135329,0.678989456,0.016434263,0.589285714,0.719298246
1.63747E-3,65.504882459,0.679246543,0.016334661,0.589285714,0.719298246
1.63907E-3,65.832609322,0.679459648,0.016135458,0.607142857,0.726315789
1.64739E-3,66.162040178,0.680561443,0.015936255,0.607142857,0.729824561
1.64926E-3,66.326966621,0.680808018,0.015836653,0.625,0.729824561
1.65494E-3,66.552360644,0.68155442,0.01563745,0.642857143,0.729824561
1.65825E-3,66.823845314,0.681988226,0.015537849,0.642857143,0.736842105
1.65876E-3,67.155570032,0.682054413,0.015338645,0.660714286,0.740350877
1.67083E-3,67.322653385,0.6836249,0.015239044,0.678571429,0.743859649
1.67396E-3,67.517946495,0.684029562,0.015039841,0.678571429,0.754385965
1.679E-3,67.784917444,0.684678079,0.014940239,0.678571429,0.768421053
1.68096E-3,68.161821299,0.684929904,0.014741036,0.678571429,0.771929825
1.68152E-3,68.329972875,0.68500165,0.014641434,0.678571429,0.771929825
1.69428E-3,68.668755097,0.686630822,0.014442231,0.678571429,0.775438596
1.69549E-3,68.785181543,0.686785228,0.014342629,0.678571429,0.775438596
1.69685E-3,69.008044618,0.686956558,0.014243028,0.678571429,0.785964912
1.70649E-3,69.349079592,0.688174327,0.014043825,0.678571429,0.8
1.70808E-3,69.519887986,0.68837441,0.013944223,0.696428571,0.807017544
1.71235E-3,69.862013834,0.688908797,0.01374502,0.696428571,0.810526316
1.7165E-3,70.033664086,0.689428108,0.013645418,0.696428571,0.810526316
1.72567E-3,70.378737607,0.690567572,0.013446215,0.696428571,0.810526316
1.72703E-3,70.551441077,0.690736362,0.013346614,0.696428571,0.810526316
1.73811E-3,70.898574566,0.692100517,0.01314741,0.696428571,0.810526316
1.74091E-3,71.072665368,0.692442906,0.013047809,0.696428571,0.810526316
1.7439E-3,71.421359416,0.692808456,0.012848606,0.696428571,0.810526316
1.74673E-3,71.596032828,0.693153965,0.012749004,0.696428571,0.810526316
1.74776E-3,71.770808478,0.693278407,0.012649402,0.696428571,0.810526316
1.75105E-3,72.120907108,0.693678211,0.012450199,0.696428571,0.810526316
1.75197E-3,72.296104491,0.693790657,0.012350598,0.696428571,0.810526316
1.75579E-3,72.647110784,0.694253044,0.012151394,0.696428571,0.810526316
1.75832E-3,72.822942759,0.694558237,0.012051793,0.696428571,0.810526316
1.7717E-3,73.000112329,0.696163607,0.011952191,0.696428571,0.814035088
1.77233E-3,73.354574171,0.696238955,0.011752988,0.696428571,0.814035088
1.77485E-3,73.532059352,0.696539943,0.011653386,0.696428571,0.814035088
1.77955E-3,73.887790337,0.69709814,0.011454183,0.696428571,0.821052632
1.78025E-3,74.065814916,0.697180971,0.011354582,0.696428571,0.821052632
1.79086E-3,74.422937878,0.698434225,0.011155378,0.696428571,0.824561404
1.79161E-3,74.602099003,0.69852283,0.011055777,0.696428571,0.824561404
1.79757E-3,74.77793208,0.699221528,0.010956175,0.714285714,0.824561404
1.80086E-3,75.141748857,0.699606129,0.010756972,0.714285714,0.831578947
1.81103E-3,75.322851649,0.700787947,0.010657371,0.714285714,0.831578947
1.81648E-3,75.50449934,0.701417514,0.010557769,0.714285714,0.835087719
1.82049E-3,75.868215884,0.701879035,0.010358566,0.714285714,0.845614035
1.82323E-3,76.050539182,0.702194429,0.010258964,0.732142857,0.849122807
1.82589E-3,76.415652281,0.702498799,0.010059761,0.75,0.856140351
1.82665E-3,76.598317179,0.702585717,0.009960159,0.75,0.859649123
1.83363E-3,76.781680145,0.70338213,0.009860558,0.75,0.863157895
1.83811E-3,77.010306198,0.703891502,0.009661355,0.75,0.863157895
1.85487E-3,77.335723169,0.705779894,0.009561753,0.75,0.873684211
1.86115E-3,77.521838041,0.70648062,0.009462151,0.75,0.873684211
1.86165E-3,77.894124759,0.706536097,0.009262948,0.75,0.873684211
1.86239E-3,78.080363382,0.706618437,0.009163347,0.75,0.873684211
1.8629E-3,78.266653779,0.706676057,0.009063745,0.75,0.873684211
1.86675E-3,78.639948645,0.707103173,0.008864542,0.75,0.880701754
1.86825E-3,78.82677363,0.707269688,0.00876494,0.75,0.880701754
1.86866E-3,79.013639338,0.70731481,0.008665339,0.75,0.880701754
1.87014E-3,79.3876103,0.707478792,0.008466135,0.75,0.887719298
1.87676E-3,79.571547564,0.70820953,0.008366534,0.75,0.887719298
1.88404E-3,79.763703329,0.709008856,0.008266932,0.75,0.894736842
1.89132E-3,80.14153578,0.709804201,0.008067729,0.75,0.90877193
1.90307E-3,80.253775624,0.711077997,0.007968127,0.75,0.912280702
1.91405E-3,80.524073246,0.712258726,0.007868526,0.75,0.915789474
1.92794E-3,80.908702682,0.713738711,0.007669323,0.75,0.919298246
1.93743E-3,81.021354042,0.714740144,0.007569721,0.75,0.919298246
1.95671E-3,81.276130596,0.716755622,0.00747012,0.75,0.922807018
1.97028E-3,81.692739707,0.718155783,0.007270916,0.767857143,0.936842105
1.97047E-3,81.889786688,0.718175658,0.007171315,0.785714286,0.943859649
1.97049E-3,82.086835731,0.718177776,0.007071713,0.785714286,0.947368421
1.97254E-3,82.284089736,0.718388146,0.006972112,0.785714286,0.947368421
1.97444E-3,82.540025355,0.718582505,0.006772908,0.785714286,0.947368421
1.98368E-3,82.877498743,0.719525865,0.006673307,0.785714286,0.950877193
1.98507E-3,83.076005409,0.719667058,0.006573705,0.803571429,0.950877193
1.99314E-3,83.275319539,0.720485306,0.006474104,0.803571429,0.950877193
2.00504E-3,83.675290199,0.72168224,0.0062749,0.803571429,0.950877193
2.04724E-3,83.840474547,0.725847036,0.006175299,0.803571429,0.950877193
2.07413E-3,84.088464165,0.72843534,0.006075697,0.821428571,0.961403509
2.08064E-3,84.296528183,0.729055101,0.005976096,0.839285714,0.961403509
2.1218E-3,84.508707873,0.732906929,0.005876494,0.839285714,0.961403509
2.14204E-3,84.936877302,0.734761757,0.005677291,0.839285714,0.961403509
2.14494E-3,85.151370929,0.735024811,0.005577689,0.839285714,0.961403509
2.15962E-3,85.318199167,0.736351632,0.005478088,0.839285714,0.961403509
2.1698E-3,85.5847495,0.737263391,0.005378486,0.839285714,0.968421053
2.18038E-3,85.802787817,0.738204813,0.005278884,0.839285714,0.971929825
2.18142E-3,86.020930036,0.738296875,0.005179283,0.839285714,0.971929825
2.19154E-3,86.458901293,0.739190174,0.00498008,0.839285714,0.978947368
2.21233E-3,86.680134743,0.741006515,0.004880478,0.839285714,0.978947368
2.21572E-3,86.901707091,0.741300169,0.004780876,0.857142857,0.978947368
2.22283E-3,87.123990138,0.741913831,0.004681275,0.857142857,0.978947368
2.23064E-3,87.347054547,0.742585156,0.004581673,0.857142857,0.978947368
2.23818E-3,87.570872529,0.743229305,0.004482072,0.857142857,0.978947368
2.24598E-3,87.795470834,0.743892932,0.00438247,0.857142857,0.978947368
2.28329E-3,88.023800041,0.747019052,0.004282869,0.857142857,0.978947368
2.28406E-3,88.252205793,0.747082391,0.004183267,0.857142857,0.978947368
2.31329E-3,88.714284424,0.749477898,0.003984064,0.857142857,0.985964912
2.38103E-3,88.952387162,0.754857679,0.003884462,0.857142857,0.985964912
2.40786E-3,89.193173167,0.756925458,0.003784861,0.857142857,0.985964912
2.42716E-3,89.43588909,0.758391253,0.003685259,0.857142857,0.985964912
2.4369E-3,89.679578623,0.759124033,0.003585657,0.857142857,0.985964912
2.43807E-3,89.923385374,0.759211957,0.003486056,0.857142857,0.989473684
2.43839E-3,90.167224388,0.759236145,0.003386454,0.857142857,0.989473684
2.44431E-3,90.411655091,0.759678896,0.003286853,0.857142857,0.989473684
2.46105E-3,90.657760405,0.760923198,0.003187251,0.857142857,0.989473684
2.46191E-3,90.903951425,0.760986534,0.003087649,0.857142857,0.989473684
2.47747E-3,91.151698799,0.762130863,0.002988048,0.875,0.989473684
2.51188E-3,91.263827486,0.764621992,0.002888446,0.892857143,0.989473684
2.62799E-3,91.6575925,0.772657688,0.002788845,0.892857143,0.992982456
2.63513E-3,91.933971132,0.773133454,0.002689243,0.892857143,0.996491228
2.66085E-3,92.200056552,0.774833042,0.002589641,0.892857143,0.996491228
2.6707E-3,92.46712615,0.775476504,0.00249004,0.892857143,0.996491228
2.69583E-3,92.736708658,0.777102897,0.002390438,0.892857143,0.996491228
2.7154E-3,93.008248508,0.778353485,0.002290837,0.910714286,0.996491228
2.72793E-3,93.281041705,0.779146933,0.002191235,0.910714286,0.996491228
2.72936E-3,93.553977618,0.77923692,0.002091633,0.910714286,0.996491228
2.76096E-3,93.83007345,0.781210756,0.001992032,0.928571429,0.996491228
2.76807E-3,94.106880577,0.781650207,0.00189243,0.946428571,0.996491228
2.84219E-3,94.391099455,0.786126444,0.001792829,0.946428571,0.996491228
2.86852E-3,94.677951381,0.787672781,0.001693227,0.964285714,0.996491228
2.86872E-3,94.964823611,0.787684617,0.001593625,0.964285714,0.996491228
2.97542E-3,95.262365708,0.793727771,0.001494024,0.964285714,0.996491228
2.9772E-3,95.560086193,0.793825883,0.001394422,0.964285714,0.996491228
2.99554E-3,95.859639955,0.794828791,0.001294821,0.964285714,1
3.00751E-3,96.160390863,0.795478449,0.001195219,0.964285714,1
3.01266E-3,96.461656949,0.795756758,0.001095618,0.964285714,1
3.20459E-3,96.782116251,0.805611568,0.000996016,0.964285714,1
3.22399E-3,97.104515017,0.806554743,0.000896414,0.982142857,1
3.28468E-3,97.432982611,0.809447816,0.000796813,0.982142857,1
3.33951E-3,97.766933951,0.811988543,0.000697211,0.982142857,1
3.36278E-3,98.103212248,0.813046307,0.00059761,0.982142857,1
3.38012E-3,98.441224419,0.813826768,0.000498008,0.982142857,1
3.43619E-3,98.784843391,0.816306522,0.000398406,0.982142857,1
3.63256E-3,99.148099862,0.824494074,0.000298805,0.982142857,1
4.21474E-3,99.569574068,0.844978401,0.000199203,0.982142857,1
4.30426E-3,100,0.847711458,0.000099602,0.982142857,1
4.30426E-3,100,0.847711458,0,0.982142857,1
