Predictor variable,Categorical,Sample average
bio1,false,57.96551724137931
bio10,false,136.86206896551724
bio11,false,-7.281609195402299
bio12,false,940.1436781609195
bio13,false,160.10344827586206
bio14,false,10.339080459770114
bio15,false,68.46551724137932
bio16,false,447.0977011494253
bio17,false,49.0632183908046
bio18,false,56.793103448275865
bio19,false,430.7528735632184
bio2,false,135.4655172413793
bio3,false,44.60919540229885
bio4,false,5832.770114942528
bio5,false,234.63793103448276
bio6,false,-65.92528735632185
bio7,false,300.5632183908046
bio8,false,-1.367816091954023
bio9,false,133.94252873563218
