X,Y,Test or train,Raw prediction,Cumulative prediction,Logistic prediction
-119.079406,37.606732,train,0.005241796622187295,60.48403750095227,0.569711261649893
-118.365792,35.990745,train,0.005428167364316454,70.08926810309558,0.5782541203019315
-119.01037,37.692863,train,0.004639387187695548,34.20611006583653,0.5395649058532829
-118.28642,36.27383,train,0.004986524087609473,48.21644348409586,0.5574323930622201
-120.007081,38.730822,train,0.004695076678470559,36.53337297083177,0.5425278331758971
-119.91111,38.50861,train,0.004596722054400663,31.89143625465609,0.5372688368734727
-123.190287,41.562772,train,0.005045417561424113,51.22347359328082,0.5603270109325922
-119.663837,37.663746,train,0.00677591710400348,95.80171809431778,0.631203572186478
-123.595622,41.691636,train,0.0044818844855576915,30.06287137645527,0.5309734147456435
-119.99004,38.693813,train,0.004525395863058997,30.51532133828609,0.5333787711954442
-120.676589,39.697564,train,0.005738178110980518,80.0994000266068,0.5917369885348684
-120.351441,39.344285,train,0.005354647045918919,66.3225242910801,0.5749249307746281
-122.43442,42.05025,train,0.0036498746495996913,15.112025350496287,0.47968661808871044
-120.48873,39.615388,train,0.005251311180240719,62.05944055120633,0.5701557643108719
-120.1484,39.0427199990768,train,0.005570021631850905,77.2569702541803,0.5845324628542139
-120.03055,38.8784099990779,train,0.004158916443516565,22.62115227222605,0.5123133772678156
-119.615517,37.754945,train,0.005923864310983314,82.44818354067363,0.5994077220373671
-119.99579,38.472112,train,0.005036018107853298,50.7190267009696,0.5598675692209051
-120.2525,39.445278,train,0.005473572149708226,71.18424424725943,0.5802842435609883
-120.24,39.436389,train,0.005407157507960456,69.00459401701755,0.5773080736738122
-120.313028,39.427723,train,0.005050617194135186,52.23287865960254,0.5605807551679327
-122.5277,41.2872,train,0.005213974326852562,58.39431776665165,0.5684061645427262
-118.494704,36.446737,train,0.005389590833331259,67.92473560338478,0.5765138050158757
-123.222,40.66,train,0.004991894373337359,48.73510263497304,0.5576979212642855
-121.4525,39.99167,train,0.00607246303833937,84.85411384484446,0.6053418027499919
-120.237222,38.802222,train,0.0059773089412944415,84.20132022580029,0.6015623963198767
-119.9518,38.656754,train,0.004733142358760338,38.429739366120934,0.5445312509114177
-121.502194,40.359611,train,0.005291552098438259,63.13455989088135,0.5720256342672722
-120.32226,38.54554,train,0.005558273603830728,76.7001053065754,0.5840196137739145
-120.389167,39.505833,train,0.005092682105935921,54.26726342085425,0.562622821441888
-122.748611,39.425,train,0.0051835657684736755,57.35232964934835,0.5669706650599525
-122.72,42.08,train,0.004850195417393944,41.32306171887999,0.5505833381316332
-79.80714,36.0683,train,1.4421212453656486E-5,0.936428821108216,0.0036294208360494163
-118.628850578804,37.2248832393021,train,0.004721457576929299,37.01066541551755,0.5439181433868882
-118.221111,36.500833,train,0.0037976197303292427,17.34406585164886,0.48959734721040954
-122.234314,41.353816,train,0.005088447080252343,53.75737500625927,0.5624180892266777
-118.93669575442,37.6388717646236,train,0.003508616641172677,14.027458886839886,0.46984432837956985
-121.029444,39.739167,train,0.006247468801498017,87.3213339441201,0.6121088316014079
-121.421667,40.15444399907,train,0.0054191730841350845,69.54679634634888,0.5778496384095282
-119.0245,36.9614,train,0.006208104147301587,86.69667190095684,0.6106070073183455
-121.931944,41.482778,train,0.004316925321376765,24.988726206506115,0.5216245813413264
-119.087979110015,37.6220179751541,train,0.0063878277663233325,88.59718093772725,0.617370735225723
-122.2739,41.2386,train,0.0021334454632971622,8.776338350703535,0.3501789201210162
-120.0376,38.8721,train,0.004151251028798309,22.205509255696345,0.5118524395146266
-122.0307,42.8542,train,0.004010428992756132,18.137895232059545,0.5032267342125337
-121.9126,42.8532,train,0.003543202976284629,14.382082648603754,0.4722884298438025
-119.0251,37.7282,train,0.004034283431959421,19.34689681779027,0.5047092601264835
-120.87,39.85,train,0.0034217463395277837,12.9826195894665,0.46360447266845395
-122.835556,40.0377779990706,train,0.006750105915804768,95.16182372550644,0.6303146954329428
-120.7461,39.428,train,0.004991996449647645,49.198343160952426,0.557702965235851
-118.37139,35.90222,train,0.00488036281877383,42.41477557537971,0.5521171291227812
-122.517996950826,41.3426809295553,train,0.005122142016074898,55.80061284773508,0.564041706249609
-122.798333,40.0291669990707,train,0.005902559996509104,81.85548858589542,0.59854230671475
-122.8725,39.7271999990724,train,0.0069176672188647394,97.18038370981202,0.636009910557426
-120.3521,39.231,train,0.0070716860497816725,99.28106160797584,0.6410922177855738
-119.006,37.6512,train,0.004970343498194397,47.22504275586758,0.5566304297481698
-123.441667,41.221667,train,0.004849779211955789,40.843254086559135,0.5505621036693896
-120.816498,39.991721,train,0.005477513032267079,71.7322737048454,0.5804595255484999
-121.018333,40.0891669990703,train,0.004653398361465071,35.60088616207011,0.5403139698112788
-123.6817,41.5488,train,0.004908223770880288,44.75064820230333,0.5535243841539513
-122.9499,39.8376,train,0.00637131652720576,88.18336347537547,0.6167591678881681
-123.6736,41.634,train,0.0048588157071216345,41.81399334630577,0.5510226875807737
-123.185855859315,41.9212594912238,train,0.004617475738273634,32.41964144668364,0.5383885716224933
-121.6898,41.5977,train,0.002396293950027856,10.146660497405708,0.3770548644867916
-123.7079,41.6116,train,0.00468077759620043,36.06901424728885,0.5417707033563595
-123.211,41.4124,train,0.0052507344220785465,61.53827373219114,0.5701288453793115
-123.2246,41.418,train,0.005375738931498056,67.38561065912947,0.5758853899997951
-123.6734,41.7945,train,0.0045894161299777,31.53535874293924,0.5368733625036661
-119.2436,37.1594,train,0.006576062547515958,93.11824533089813,0.6242073482561084
-123.654306,41.920889,train,0.004468758221091123,29.609667832958365,0.5302429039855845
-119.8066,38.5703,train,0.004462317962675402,28.27377768356598,0.5298836540881806
-120.0124,38.4793,train,0.004902429392760151,44.25937184909495,0.5532324392712349
-118.11667,36.28333,train,0.005009570764161269,50.21547546645173,0.5585696661477236
-122.4854,41.3389,train,0.005267066983651076,62.586006997183894,0.570889830338742
-120.9265,41.2763,train,5.226239381021889E-4,3.2994282094414955,0.11661489565768222
-122.9368,39.5218,train,0.006598860138751837,93.77805844925712,0.625018797577558
-122.2006,41.4456,train,0.0018536079777939142,8.357214297091506,0.3188944531017347
-118.5372,36.1322,train,0.004432041677959098,26.048477793125677,0.5281873952260512
-121.535278,40.4336109990685,train,0.004634365310882418,33.27893235381462,0.5392958321398509
-123.7296,41.5677,train,0.004726002048826182,37.48350714605406,0.5441567905991659
-122.953889,41.3086109990644,train,0.00531021480080595,63.74966943089863,0.5728873210050506
-118.9966,37.6237,train,0.005329626954219255,65.77545643935439,0.5737799371247554
-121.406667,40.4969439990682,train,0.00446800295473132,28.72310091502633,0.5302008022092931
-122.8196,41.1782,train,0.005720819103828256,79.52562507757278,0.5910048424558794
-123.6461,41.5363,train,0.00444035665550379,26.492245412336274,0.528654468128782
-120.1883,39.0979,train,0.005597180561295764,77.81665880391718,0.5857132332650548
-122.9044,41.3224,train,0.004069354956580148,20.56759845671028,0.5068729168933545
-122.9735,40.1956,train,0.006387920763373681,89.2360761945722,0.6173741742583417
-118.7909,37.4375,train,0.004443182510249424,26.936889730434594,0.528812992921274
-120.877778,39.805832999072,train,0.005538017824031464,75.58976718608392,0.5831323870094368
-118.2935,36.2219,train,0.004912641986264197,45.24156145611196,0.5537467359757806
-120.5574,40.2613,train,0.004057233748517518,20.157186523484775,0.5061272678455598
-122.7014,41.1918,train,0.004326680711899326,25.605187067725623,0.5221878108462832
-122.709,41.1989,train,0.0048158935773129595,39.40233001584865,0.5488265281045246
-118.2653,36.093,train,0.0045741242136796,30.993725506873133,0.536043409158647
-119.0846,37.2599,train,0.006711299674923041,94.44918564782978,0.6289702065831079
-119.0911,37.3042,train,0.006417234622940037,89.87793894518492,0.6184551291233715
-122.8073,41.0506,train,0.005192673086276287,57.871814293193935,0.5674015957063493
-119.3828,37.4401,train,0.004889644715208058,43.280317376260406,0.5525869415336186
-120.030196401034,38.8242217017792,train,0.00425481544224768,24.040270276892553,0.5180072801117458
-120.043756649615,38.8187787004003,train,0.004961374993144137,46.7293880876894,0.5561846678959924
-118.3108,35.8837,train,0.005071084965339427,52.77367225809538,0.5615767517782494
-120.873333,40.5899999990677,train,0.002145314304524334,8.832846434843768,0.35144239127900107
-118.3474,35.8715,train,0.005327112962474007,65.0270930391133,0.5736645482756116
-124.0752,40.8751,train,6.771043022334417E-4,3.851518752726844,0.14605031957287376
-118.2291,36.5898,train,0.004045628025158067,19.75126689814223,0.5054112131670818
-119.2042,37.1629,train,0.007189035463535311,99.99997221227781,0.6448702487645637
-122.16667,41.5,train,0.004844939558280021,40.35139118032764,0.5503150410774234
-118.5888,36.4375,train,0.005961481115008215,83.63727976242654,0.6009267011323604
-118.5756,35.8727,train,0.005215884297788344,58.91578744277159,0.5684960111049135
-122.9964,41.3039,train,0.005314604200887032,64.15395508032466,0.5730894828270986
-118.3396,36.0209,train,0.005505013581713197,73.38047394336184,0.5816786272792784
-118.3904,36.0101,train,0.005512746695786327,73.93125816929684,0.5820201616863656
-123.5244,41.9853,train,0.0043245241587622635,25.271615986029996,0.5220634160190524
-123.2081,41.414,train,0.004780562500262038,38.92705256410113,0.5470025869914029
-122.7662,39.3831,train,0.00694346959967605,97.87475914421249,0.6368713495248007
-120.781944,39.2130559990756,train,0.0012289615566544623,6.259272549497422,0.2368872413939311
-123.6241,39.8079,train,0.0010959283289560463,5.747320000018477,0.21680399272762663
-122.9726,39.6207,train,0.006868663457235288,96.48870503850034,0.6343625665992519
-120.8863,40.0447,train,0.0034048594546494068,12.640518687635849,0.46237440420145576
-118.2344,36.0664,train,0.00407575667521933,21.37833160902518,0.5072658175796059
-118.1831,36.1918,train,0.005694526991977025,78.93764827252289,0.5898909130019272
-118.2574,36.2974,train,0.005327282928322134,65.24384862589743,0.5736723514492346
-120.410833,39.4905559990739,train,0.005499820348477933,72.82975444392397,0.5814489537354058
-120.65,40.4,train,0.0013384131360400773,6.769627883451262,0.25265416715446287
-121.4952,40.3603,train,0.004885383429584143,42.791203595013975,0.5523713747659535
-122.6852,39.4431,train,0.005081290908997509,53.24880239835924,0.5620717052853373
-118.5751,36.413,train,0.004929788912195468,46.22708181356365,0.5546075813613528
-119.7101,38.3221,train,0.005532724607511787,75.03667421506469,0.582899913885176
-119.1129,37.2437,train,0.006991579308101084,98.57391779398827,0.6384667003575545
-122.7496,41.2303,train,0.005237145787316648,59.96012346058203,0.5694936485071765
-118.5855,35.7882,train,0.004176564436629228,23.456164408613695,0.5133712868654473
-119.938,38.1884,train,0.005807835543753919,80.73847464843395,0.5946487358851471
-119.951586,39.806853,train,2.8505823822879713E-4,2.5004061697451228,0.06716645249351674
-122.8833,39.7473,train,0.006188791654164207,86.07584884075449,0.6098659445497805
-122.9828,42.0345,train,0.003753878282158376,16.964286193390187,0.4867027397005141
-118.702,36.6109999990965,train,0.006147016191091148,85.45688511734524,0.6082532385272214
-118.5787,35.7891,train,0.003927885666666003,17.775108819274177,0.4980275558581177
-120.3633,39.3194,train,0.0064508853649550705,91.81046849539543,0.6196885019572657
-118.725,36.6049999990965,train,0.005541125536508511,76.14331184219161,0.5832687541422468
-121.5596,40.4414,train,0.004893893503878835,43.76936490990418,0.5528016695031608
-119.0596,37.6552,train,0.0053647722220183484,66.84819801478979,0.5753865422877694
-119.7976,38.2709,train,0.005095276688713268,54.775729464919294,0.5627481557470149
-119.0071,37.6199,train,0.005514268026682333,74.4822044292562,0.5820872859076893
-119.745833,37.7822219990862,train,0.006448378301100106,91.33949631295702,0.6195968875932831
-119.3128,37.6491,train,0.004970706404520049,47.71258351239461,0.556648448442245
-118.5289,36.0667,train,0.00368378324358907,15.846877721030499,0.4819950832137544
-121.5908,40.4017,train,0.004645062844802075,35.13579647898451,0.5398686312215903
-121.55944,40.5375,train,0.004033124973824378,18.945075956833623,0.5046374677442019
-121.571516737259,40.555569622722,train,0.003721683095325509,16.588954477326702,0.4845511466554392
-118.5464,36.1202,train,0.005471611037437785,70.6368778919065,0.5801969629124829
-122.9583,41.2303,train,0.005168100726844119,56.834139213520324,0.5662369361398324
-120.9097,40.0967,train,0.0025287891631250183,10.640933369648078,0.3897768048779324
-120.0892,38.6247,train,0.005247782755283806,61.009686962712564,0.5699910299613175
-120.2471,41.5473,train,4.7116774335443853E-4,3.0587156781749543,0.10635441489462961
-123.14222,39.92139,train,0.005849866660106356,81.26518616171819,0.5963856713808926
-118.1269,36.265,train,0.005217994231683711,59.436639697768975,0.568595220607899
-122.9647,41.4198,train,0.004845011276186067,40.35848604105354,0.5503187042336776
-118.3447,36.7738,train,0.0044686012765050576,29.171325702294,0.5302341558444107
-118.943350448885,36.7537636715594,train,0.004926991383796371,45.9969143455414,0.5544673608625632
-122.94167,41.44194,train,0.004069914211851473,20.9712810261329,0.5069072657434484
-122.6784,41.2809,train,0.00500048546560352,49.704894738362434,0.5581220369794263
-118.675773321741,36.2370729727944,train,0.004117651188480888,21.790343051578905,0.5098216865876888
-119.45883234536,37.8290526462535,train,0.0059321453056607465,83.04075367020164,0.5997431031188802
-123.4533,41.279,train,0.004450722985678002,27.381950041826556,0.5292354770709211
-118.9835,37.6486,train,0.004267492248155785,24.308390684069998,0.5187500182140155
-119.91,39.34,train,0.0036650955644000997,15.478316271403147,0.4807253835529357
-119.8458,38.6988,train,0.004021339880487447,18.540029239543227,0.5039059331440529
-122.101042422467,41.4293462832832,train,0.004730923844368977,38.016092509326,0.5444149709345049
-118.4408,36.7511,train,0.00539355170496462,68.46404501104796,0.5766931544352554
-119.085,37.628,train,0.005480387548815366,72.27926900705037,0.5805872855558412
-123.8173,41.5984,train,0.0046377676185019485,33.742651891924965,0.5394781631781822
-121.465887832378,40.1124030448848,train,0.005674552962911723,78.3841944563971,0.5890406003401896
-119.235697889143,37.2318784897755,train,0.006492261262649613,92.3835640884208,0.6211941318934182
-120.07854,39.30807,test,0.004583893868342545,31.2661725718285,0.5365739900734533
-120.51933,39.56957,test,0.0055502919813600095,76.44128709169472,0.5836704606599886
-120.8987,39.69577,test,0.0056813725771267705,78.57862090968226,0.5893313136881072
-120.6391,39.39963,test,0.006164475767637447,85.7155072785334,0.6089288694774558
-118.31679,35.91397,test,0.005071084965339427,52.77367225809538,0.5615767517782494
-123.03114,41.47756,test,0.004906083901448556,44.5692983654865,0.5534166130724902
-120.56702,39.69519,test,0.005156711385014319,56.19747255055776,0.5656949842955951
-118.64876,36.60551,test,0.005807825114581024,80.7383487833146,0.5946483030444852
-123.04792,41.07211,test,0.004543909513268105,30.689132412089997,0.5343947603314277
-123.48781,40.49792,test,0.006242666342148826,87.24507626823814,0.611926230860355
-120.23477,38.83325,test,0.0059773089412944415,84.20132022580029,0.6015623963198767
-119.16934,37.17051,test,0.007025171988119439,98.8704958291255,0.6395723707780561
-120.31173,38.98181,test,0.006447090057178421,91.09748929342791,0.6195497947790528
-120.51565,39.10494,test,0.006064911633178105,84.79403697510872,0.6050444912323271
-122.3047,41.38065,test,0.004293008635801417,24.531190402319393,0.520238112058636
-123.19936,41.36684,test,0.002245632733552016,9.342077663744059,0.36192847458237243
-120.60125,39.83473,test,0.0051728371726269245,56.99284430874471,0.5664619177643775
-119.90994,38.25189,test,0.005287296941978729,63.023237481627355,0.5718286799421951
-122.20292,41.33109,test,0.004367153765755672,25.775443342106016,0.5245104345199676
-120.20308,39.15306,test,0.005459186058559698,70.48014476707915,0.5796431360244996
-119.90215,38.16603,test,0.005692882861996982,78.89571466625654,0.5898210538090224
-121.77306,40.73594,test,0.004183003358097874,23.4911752346573,0.5137561263810875
-119.39031,37.63963,test,0.004687417279720468,36.2869787853923,0.5421225829757796
-122.85249,40.92938,test,0.005576307221583211,77.3864767125852,0.5848063354021794
-122.21579,41.4774,test,0.004694726710395518,36.52696387286997,0.5425093323974571
-119.83818,38.03398,test,0.006366229158581626,88.07527291192781,0.6165703403445076
-118.25796,36.22633,test,0.004742618280968705,38.52522780439961,0.5450272491289476
-120.96877,40.63211,test,0.0027988257239692574,11.83096924600847,0.41416077321289924
-119.6223,37.58619,test,0.006901492163753531,96.95211663751783,0.6354678024782227
-120.01744,38.61453,test,0.004805105690370601,39.24225878077623,0.5482711709024465
-121.52201,40.07443,test,0.00528307856697087,62.932107995311895,0.5716332490694629
-118.19692,36.25576,test,0.0047302558519709895,37.89179483831166,0.5443799475225766
-120.7749,39.71981,test,0.0057547152644638975,80.23732412784537,0.592432037639203
-119.24945,37.19538,test,0.005848010577745585,81.23936507668098,0.5963092830114498
-123.14889,41.91028,test,0.002029552056645919,8.536264133444599,0.3389053866390449
-122.12091,41.38083,test,0.0047264045531087845,37.52243512395837,0.5441779155650348
-121.51048,40.10965,test,0.003913627571996944,17.712443025888362,0.4971184347434381
-120.61777,39.47679,test,0.005995721035270192,84.35247593085613,0.6022993402934536
-121.48316,40.26217,test,0.005599172226114381,77.8312634526042,0.5857995594458678
-119.60894,38.04607,test,0.005429633846806432,70.10786853534016,0.5783199960250471
-118.56712,36.44927,test,0.005420815479444058,69.64585408644207,0.577923556482087
-123.7252,41.74559,test,0.004275156188025843,24.375309390097,0.5191979416552189
-119.8858,39.25728,test,0.003677750067785884,15.727874520923736,0.48158584953475764
-118.61416,36.25625,test,0.006115735310510842,85.1990300918411,0.6070369102509038
-120.32674,39.13898,test,0.006303978056693699,87.61205348583911,0.6142446097363955
-123.11907,41.00492,test,0.0048782332764608985,42.25516780614554,0.5520092010357772
-121.71607,40.62216,test,0.004373399663053774,25.801716800974248,0.524866857595124
-118.57919,36.40419,test,0.004929788912195468,46.22708181356365,0.5546075813613528
-120.0042,39.3835,test,0.002344542961691072,9.81018018312048,0.37194059238841587
-119.40199,37.39947,test,0.002239206818313703,9.296492535594826,0.36126696156388033
-123.06226,41.51093,test,0.005122296699540323,55.80238862889879,0.5640491320118876
-119.78,37.96975,test,0.005383059817102411,67.67057090833394,0.5762177465772221
-119.96398,38.32523,test,0.002698133490030944,11.514365761596617,0.4052996810527532
-118.93983,37.38635,test,0.005839311468524708,81.11834650353597,0.5959508794057131
-119.09929,37.16558,test,0.007120903980733554,99.58263870563917,0.642686518674416
-118.91724,37.18802,test,0.006113464050080475,85.18030760368431,0.6069483001907499
-120.38366,39.23468,test,0.006828143406430731,96.18859571057482,0.6329891122175608
-119.73102,38.30608,test,0.005532724607511787,75.03667421506469,0.582899913885176
-119.07374,37.19415,test,0.006665955701786908,94.17855734373231,0.6273867677657206
-118.91116,36.98916,test,0.00659763814625459,93.74263287949098,0.6249753913081729
-122.28427,41.35047,test,0.004697584279591313,36.57895015196295,0.5426603517160241
-122.15841,41.35494,test,0.004961221646393068,46.720990284232336,0.5561770383041436
-123.21309,41.08324,test,0.005107060306374163,55.020697661557726,0.5633164742015226
-123.20206,41.31265,test,0.0018195776896706877,8.322583822142683,0.3148833927528048
-118.21307,36.25397,test,0.00510997856393218,55.08120667909961,0.563456992253833
-118.96073,37.01041,test,0.006067678181100087,84.8160468574521,0.6051534668552615
-123.3142,41.56028,test,0.004975025042984084,47.853480356170394,0.5568627611810746
-118.99924,36.95935,test,0.005010832404644542,50.239496805995984,0.5586317549856219
-120.63716,39.83251,test,0.0027347040890734497,11.629353567815905,0.40854878668345684
-120.11709,38.77435,test,0.004811766349899798,39.33578935948248,0.5486142210202657
-122.67263,39.4425,test,0.005081290908997509,53.24880239835924,0.5620717052853373
-120.63972,39.46482,test,0.005717846529139692,79.46088977247409,0.590879205572794
-119.61044,38.40469,test,0.003907563582689173,17.685791168829283,0.49673078529940345
-120.85574,39.61299,test,0.003900158544540551,17.653247272429685,0.496256596058496
-119.84045,38.03156,test,0.006366229158581626,88.07527291192781,0.6165703403445076
-119.23617,37.24948,test,0.006492261262649613,92.3835640884208,0.6211941318934182
-119.97015,39.3938,test,0.004323508203790568,25.114663296726427,0.5220047910081168
-123.76465,41.5657,test,0.0048391303426729565,39.77698992767694,0.5500181237538255
-120.63098,39.28305,test,0.004905039116851049,44.480689267107316,0.5533639752721979
-120.32954,38.94572,test,0.006433757105259684,90.4354939473159,0.6190617120736588
-120.54057,39.29941,test,0.007134659935287365,99.66689961579443,0.643129581530538
-119.37457,37.7483,test,0.005254203995993188,62.156119829943975,0.5702907293429268
-120.81474,39.97044,test,0.005477513032267079,71.7322737048454,0.5804595255484999
-120.74542,40.18299,test,0.004614568684997257,32.28843000851813,0.5382320522905198
-121.52604,40.3916,test,0.004575204350858898,31.005324426903222,0.5361021301393332
-120.64488,39.53833,test,0.0056306751071200905,78.06227045007525,0.5871602425792359
-123.02236,41.09777,test,0.0025583829084271973,10.703766797968992,0.3925476707458187
-119.02747,37.21977,test,0.006167847126061957,85.76547209711848,0.609059062135017
-120.08217,38.71671,test,0.00487653396648249,42.21563854985819,0.5519230403845623
-120.90002,39.71095,test,0.005376371387052967,67.41025197057672,0.5759141230487264
-119.87409,38.336,test,0.00488163783605937,42.510337266473705,0.5521817238394656
-121.02869,39.71528,test,0.006247468801498017,87.3213339441201,0.6121088316014079
-119.99916,38.75772,test,0.0046664965029249396,35.82484476518499,0.5410120204875509
-120.74762,39.52949,test,0.0054563309875987325,70.44419345264117,0.5795156685076612
-120.62278,39.95008,test,0.004921508473409293,45.545879492929366,0.5541922847289394
-120.42868,39.33677,test,0.005698804310307465,79.0467252753357,0.5900725451124392
-120.61834,39.38469,test,0.00617120860298754,85.81528119732329,0.6091887869197978
-120.04078,38.56884,test,0.004014795906053587,18.298696759221954,0.5034987961265742
-119.72119,38.55427,test,0.004019693405535911,18.479309532534955,0.5038035596648068
-122.99654,41.1731,test,0.005357794627211705,66.48594082270097,0.5750685379484022
-120.53189,39.43599,test,0.005755329682966408,80.24244680329392,0.5924578157775632
-119.08672,37.14412,test,0.007120903980733554,99.58263870563917,0.642686518674416
-123.29661,40.90814,test,0.004490645004637951,30.153980101625717,0.5314596975486663
-119.60443,37.84899,test,0.0062669622374589475,87.42162900143333,0.6128482566601132
-120.82089,39.71894,test,0.005574536249505994,77.34998812019815,0.5847292080404417
-118.79241,37.22131,test,0.00586022478961258,81.38123907138483,0.5968114371817564
-118.71189,36.57886,test,0.0043638619416989126,25.76159623578504,0.5243223708136113
-123.16734,41.45105,test,0.005341335805416062,66.02664311288615,0.5743165358217398
-119.93164,38.14689,test,0.005584068032437661,77.54637819691918,0.5851439878195834
-123.45985,40.94934,test,0.004579006247953093,31.119420781020782,0.5363086997075692
-118.93292,37.10283,test,0.006384215621755383,88.4574286160887,0.6172371102037354
-121.45162,40.44144,test,0.004688434080797199,36.320362659346216,0.5421764221059415
-118.98854,36.9834,test,0.005010832404644542,50.239496805995984,0.5586317549856219
-123.36684,41.49525,test,0.002636236142352504,10.869064557454074,0.3997183220627937
-122.00289,41.46279,test,0.0046083203815624335,32.149449585057184,0.537895276424125
-119.2528,37.20814,test,0.001779809775831115,8.28211427491438,0.3101357767514225
-121.4989,40.04035,test,0.005867591249972471,81.46376676347307,0.5971136857367383
-120.20783,38.77065,test,0.0052487076264156685,61.174305697835685,0.5700342223564134
-119.786,38.2506,test,0.0048527481241636495,41.471983283684125,0.5507135312702244
-119.81633,38.29039,test,0.005095276688713268,54.775729464919294,0.5627481557470149
-119.52371,37.98158,test,0.004787257720618931,39.01303874068077,0.5473493545007817
-119.10099,37.18314,test,0.006648524581037559,94.07452246719531,0.6267744602395006
-119.96419,38.12936,test,0.005379142048245676,67.51815345325062,0.5760399509124284
-119.74171,38.45003,test,0.0044590765716282605,27.76130369453324,0.5297026351623737
-120.08861,38.75776,test,0.004811766349899798,39.33578935948248,0.5486142210202657
-123.44159,41.0641,test,0.00530003548945713,63.356528198442945,0.5724177565855972
-120.58267,39.62714,test,0.005693502688005943,78.91152335542886,0.5898473930524031
-118.66872,36.32773,test,0.005681353027525164,78.57806376892289,0.589330480895947
-119.3795,37.72248,test,0.005881447173264862,81.61898533367452,0.5976809732383923
-123.57069,40.64665,test,0.00549439853586809,72.67635431772126,0.5812089018978093
-119.50654,37.83377,test,0.004839665776219274,39.829932307598554,0.5500455069318869
-123.29893,41.12661,test,0.004537939129322948,30.6330821935894,0.5340676022240431
-121.79445,40.78043,test,0.004356743224862921,25.731650142691883,0.5239151654864617
-123.06226,41.46118,test,0.004996891898902119,49.502930219506695,0.557944732674047
-121.27729,40.50064,test,0.004519812423314737,30.4573189860793,0.5330714932617182
-120.38045,39.50944,test,0.005092682105935921,54.26726342085425,0.562622821441888
-118.98969,36.95523,test,0.00516116087027151,56.24855133501987,0.5659068702590709
-123.72898,41.5548,test,0.004726002048826182,37.48350714605406,0.5441567905991659
-119.53366,37.48284,test,0.007470612379988904,100.0,0.653619132778264
-120.08451,39.32119,test,0.004935938769052313,46.32375068637299,0.5549155205320763
-123.47397,41.0622,test,0.005689230035036481,78.80254915660696,0.5896657597360185
-123.23653,40.9225,test,0.005846308781291721,81.21569035626989,0.5962392189728783
-121.10125,39.71573,test,0.006357347004072696,87.88660333982787,0.6162402155474495
-120.23666,38.77032,test,0.005089419062347645,53.874252162539875,0.5624650943275707
-122.98008,41.91983,test,0.005072901224763211,52.83109681768401,0.5616649159935965
-119.91381,38.15066,test,0.005692882861996982,78.89571466625654,0.5898210538090224
-123.04188,41.44241,test,0.004682776754499906,36.13461527816613,0.5418767085312024
-119.97921,38.77389,test,0.0046664965029249396,35.82484476518499,0.5410120204875509
-120.21738,38.8053,test,0.0059773089412944415,84.20132022580029,0.6015623963198767
-120.27871,38.95649,test,0.006486060825714202,92.32920900223156,0.6209692636745915
-122.96016,41.04539,test,0.004972906299246531,47.786648816341774,0.5567576442697186
-120.34063,38.74722,test,0.004782243341514788,38.94863947312833,0.5470896932343333
-118.66446,36.54889,test,0.004812617754716072,39.34951601654226,0.5486580341572227
-119.81985,38.33409,test,0.005575326915459865,77.36627877100868,0.5847636457652963
-121.62723,40.2653,test,0.005184820001982612,57.4237994761929,0.5670300625534085
-123.07384,41.05651,test,0.004543909513268105,30.689132412089997,0.5343947603314277
-119.58944,37.6361,test,0.006745006044004097,95.0354202553064,0.6301385606373698
-122.04649,41.46387,test,0.0045576694898735795,30.81831165791146,0.5351470166339991
-120.61268,39.99573,test,0.004987526946468891,48.30900410398301,0.5574820025833681
-119.7043,38.06878,test,0.005733003492154926,79.92852597744601,0.5915190144303347
-120.0998,38.43455,test,0.005308682261155434,63.60289474681602,0.5728166919955309
-119.4815,37.92522,test,0.006007208728190075,84.42578774352339,0.6027577557094758
-121.26561,40.41856,test,0.004550033703975779,30.74662657502116,0.5347298695658503
-118.25157,35.96411,test,0.004713679342292721,36.87148774176872,0.5435090988286996
-119.04736,37.10362,test,0.007062672730313445,99.20155249688857,0.6407987096214958
-119.12655,37.13841,test,0.007471532927921487,100.0,0.6536470282608141
-120.89617,39.71918,test,0.005376371387052967,67.41025197057672,0.5759141230487264
-123.19704,41.39667,test,0.004780562500262038,38.92705256410113,0.5470025869914029
-120.76008,39.61671,test,0.003020100539516998,12.340413303811617,0.4327350139996697
-121.73904,40.5941,test,0.004373399663053774,25.801716800974248,0.524866857595124
-119.68063,37.64905,test,0.006076557154909661,84.8866854924549,0.6055028079512458
-120.51931,39.47301,test,0.005635840929145437,78.10016376830242,0.5873825138030371
-118.78973,36.65351,test,0.006199798706096675,86.42958166592322,0.6102886546111528
-120.47914,39.36313,test,0.00590462917866363,81.91303573127459,0.5986265241161074
-119.66317,38.4848,test,0.004226154257338777,23.725802818547642,0.5163195312321442
-118.62111,36.25269,test,0.006115735310510842,85.1990300918411,0.6070369102509038
-120.25947,39.4151,test,0.005527711950610262,74.8859869864044,0.5826795235162989
-118.64097,36.37355,test,0.005965749827930248,83.79835844440372,0.6010983457206069
-121.43014,40.02701,test,0.0058724095734758106,81.5177472505779,0.5973111382861631
-120.18515,38.57871,test,0.005490194974197685,72.55744335582519,0.5810225987805602
-120.24992,38.54658,test,0.0055347666548919965,75.25004958867423,0.5829896294111356
-121.43683,40.48298,test,0.004588616974999702,31.496403423024297,0.5368300627135684
-120.06615,38.45436,test,0.004810666604901428,39.318067323621165,0.5485576157514953
-119.94976,38.14935,test,0.005584068032437661,77.54637819691918,0.5851439878195834
-120.63896,39.59774,test,0.0057922163329853235,80.54998691749681,0.5939994560867283
-120.31502,39.30598,test,0.005964947541146251,83.76805299410685,0.6010660971047234
-122.97448,41.92758,test,0.005072901224763211,52.83109681768401,0.5616649159935965
-119.87095,39.02535,test,0.0014574395639138705,7.0421194386520725,0.26907711948979196
-119.72075,38.36837,test,0.0044911531163591995,30.159264424477247,0.5314878711044944
-120.08966,39.50188,test,0.004151571836995845,22.22290449024688,0.5118717478655389
-120.04538,38.47441,test,0.005314292132028096,64.1400551600815,0.5730751162464941
-119.1007,37.32506,test,0.006417234622940037,89.87793894518492,0.6184551291233715
-123.24725,41.05848,test,0.005107060306374163,55.020697661557726,0.5633164742015226
-120.02096,39.2409,test,0.004244719219203438,23.826720442653336,0.5174140971005446
-118.6641,36.32848,test,0.005687064179668814,78.74082491905519,0.5895736263296442
-120.28467,39.40481,test,0.005527711950610262,74.8859869864044,0.5826795235162989
-120.12841,38.57705,test,0.0053542907713911665,66.30402718418608,0.5749086697722666
-119.6769,37.72906,test,0.004773592505853693,38.837537486477444,0.5466410231190405
-123.54295,40.58818,test,0.006170880341818611,85.81041714761926,0.609176122588162
-120.64698,39.92434,test,0.005066251892917505,52.620924566046035,0.5613419736604595
-120.63389,39.64437,test,0.0053268637510610044,64.70469566773254,0.5736531064022602
-119.42346,37.72882,test,0.0059761703414515244,84.19197267321141,0.6015167341878885
-120.72735,39.89532,test,0.003101160900649464,12.403639001342805,0.43924799787558616
-119.36681,37.71401,test,0.005254203995993188,62.156119829943975,0.5702907293429268
-120.13763,38.42903,test,0.005417239042731901,69.4593394994541,0.5777625612348992
-120.37605,39.06736,test,0.004878206133001327,42.253336072916966,0.552007825032778
-120.04176,38.71993,test,0.00487653396648249,42.21563854985819,0.5519230403845623
-119.58791,37.61569,test,0.006901492163753531,96.95211663751783,0.6354678024782227
-120.36081,39.27307,test,0.006481134984351225,92.2860274434756,0.6207904302072033
-123.02881,40.96545,test,0.00545560438483971,70.43504400430233,0.5794832162547405
-119.66051,38.26829,test,0.004444288063114933,27.001882924484423,0.5288749832079602
-118.30005,35.88846,test,0.005071084965339427,52.77367225809538,0.5615767517782494
-120.55088,39.21794,test,0.0027411995593547133,11.6497770746099,0.40912216581639854
-122.99078,40.17787,test,0.006387920763373681,89.2360761945722,0.6173741742583417
-122.77228,42.0301,test,0.0038283370652731023,17.436687744081723,0.49161064290344975
-123.2571,41.31701,test,0.0023006235569159985,9.692758324436358,0.3675339373376893
-119.05697,37.46394,test,0.00594419327367268,83.28598907568512,0.6002300453471101
-119.07,37.23848,test,0.006609139495668482,93.8394194423577,0.6253835321790879
-119.40839,37.33573,test,0.0048439456316428315,40.253114107472896,0.5502642678531351
-122.27084,41.29817,test,0.0031367268958297505,12.431379870273672,0.4420586622924412
