-118.28347,36.01702
-118.25383,36.01964
-118.13361,36.26822
-118.09055,36.21268
-119.56195,38.32231
-118.23817,36.58658
-118.24808,36.58302
-120.11169,39.04824
-120.16427,39.10928
-119.93102,39.26773
-119.91973,38.80656
-119.91555,38.81449
-120.34295,39.48241
-120.28656,39.52465
-120.48654,39.62175
-119.04813,37.31712
-119.00693,37.01178
-119.28856,37.50520
-119.45035,37.46544
-119.77162,37.76274
-119.77229,38.60366
-120.06921,38.92003
