X,Y,Test or train,Raw prediction,Cumulative prediction,Logistic prediction
-118.28347,36.01702,train,0.002678995528316122,78.834173175926,0.6814039479954278
-118.17052,36.0308,train,0.0014828463503430657,42.551831910693195,0.5420883719844184
-118.13361,36.26822,train,0.0019266703376971462,55.1361468162357,0.6060127964074393
-118.09055,36.21268,train,0.0019843825338301136,57.28363246413477,0.6130372277203822
-119.7713,38.33798,train,0.0034306591393275104,89.93717824940464,0.7325387968629874
-119.80338,38.39623,train,0.003913810097204257,95.42796248844041,0.7575512274044166
-120.01962,38.20184,train,4.4045202918345896E-4,13.791377965321356,0.26015475541443234
-119.56195,38.32231,train,0.0030920617272675427,85.6955442402314,0.7116943772245092
-118.23817,36.58658,train,0.0018892542402977484,53.817911966665335,0.6013208133576319
-118.24808,36.58302,train,0.0012337785837165563,35.79460274774134,0.4962177850712329
-118.36187,36.77113,train,8.404374993912401E-4,25.675728624651274,0.40154221468833884
-118.57553,37.27004,train,7.037480237645775E-4,21.500688370292547,0.3597278526213392
-118.71262,37.5157,train,5.323321752229436E-4,16.34587725196027,0.2982388930125758
-118.93011,37.6395,train,0.0011835642898026795,33.261510858620746,0.4858337529634311
-119.15896,37.87252,train,0.001595298149227075,45.63692017037262,0.5601695066913411
-120.11169,39.04824,train,0.0021450363270290084,61.210436583389914,0.6313344431638394
-120.16427,39.10928,train,0.0028556103063542442,82.72513928875574,0.6951006556782876
-119.89983,39.3121,train,0.00446334492979859,100.0,0.7808604722536187
-119.93102,39.26773,train,0.002342752075576376,68.83988022149822,0.6516081905825373
-119.91973,38.80656,train,0.0031342443918302774,86.63163682041767,0.714466651703901
-119.91555,38.81449,train,0.00408212838272985,97.41975694889705,0.7652008511405411
-119.89243,38.84913,train,0.00250685672597551,74.42941028307904,0.6668159520445626
-120.34295,39.48241,train,0.0024599634327111706,72.19543628621025,0.6626074976187211
-120.36417,39.43297,train,0.002792756264135435,81.58972490200559,0.6903633176350197
-120.28656,39.52465,train,8.693666009665346E-4,26.55373250568908,0.4097011348378945
-120.48654,39.62175,train,0.0015574957228215384,44.0539476647361,0.5542527190571886
-118.8059,36.62007,train,0.0011714048070710955,32.77828104979918,0.4832545376267233
-118.92984,37.31349,train,0.0012703504428373906,36.55670738089988,0.503520485248448
-119.04813,37.31712,train,0.0017073523174763801,49.28929351528749,0.5768201345710526
-119.00693,37.01178,train,0.0015658112072808189,44.23045211100325,0.555567865089996
-119.28856,37.5052,train,0.001349451439704976,38.25514708926883,0.5186132798877173
-119.45035,37.46544,train,0.0014274993707143126,40.346450998037184,0.5326319490940016
-119.48553,37.46822,train,0.0017310622591518421,49.807938554660275,0.5801829867954662
-119.58737,37.70996,train,6.886736189510083E-4,20.807512396933145,0.35475596793876724
-119.77162,37.76274,train,9.00565341676307E-4,27.327145875853642,0.41825444757874547
-119.77229,38.60366,train,0.0034908363038244237,90.97558798048982,0.7359319282412877
-119.80596,38.57712,train,0.003964300719029236,96.61191370648082,0.7598977203862584
-119.85513,38.54852,train,0.0035496635075050052,91.33062164020228,0.7391667423721565
-120.06921,38.92003,train,0.0019286651383515884,55.328511940409285,0.6062598456875449
-120.97927,40.1439,test,1.3200732693040756E-4,4.340710197357984,0.09534010814895506
-119.75992,37.85787,test,0.00170274365026129,48.9196718894322,0.576160209939704
-118.21494,35.74679,test,1.5725996968068837E-5,1.0218905972273413,0.012399149878968646
-120.1993,38.9453,test,0.001596629499995399,45.6499039410543,0.5603750259153921
-120.59397,39.111,test,2.22780649570118E-6,0.1660265735581764,0.0017754072869436337
-120.40414,39.86254,test,1.2998980765923732E-4,4.259607845615012,0.09401998662537642
-120.65264,39.53801,test,2.0891631303602716E-4,7.202691587528531,0.1429462253380596
-122.78278,41.609,test,3.11031452361923E-5,1.5622481119416554,0.024229489512783493
-119.91185,39.10396,test,0.0019457368153645686,56.10350439850111,0.6083615108541243
-123.19857,41.88373,test,2.479691044022654E-4,8.26111976692986,0.16525152462116355
-119.11583,34.58103,test,1.4789153652493693E-6,0.10734478334403139,0.0011792968099980194
-119.55212,38.2226,test,0.002889421034567974,83.58977019259135,0.6975895137337713
-120.48309,39.34838,test,9.914070151415472E-4,28.6203683895841,0.4418047558703512
-120.94962,41.04765,test,1.1573083568981382E-5,0.8032914335571182,0.009154764598892745
-119.42741,38.28933,test,0.0018893530576592906,53.82188525905705,0.6013333522446397
-117.87687,34.24021,test,1.581317864924996E-7,0.012767835924050692,1.2622826727145018E-4
-120.20625,38.43768,test,5.377229419434081E-4,16.43597873852709,0.3003519525174446
-120.19991,38.93051,test,0.001596629499995399,45.6499039410543,0.5603750259153921
-120.61626,39.58413,test,3.0125642744916636E-4,9.774303454165173,0.1938782991590814
-120.00117,38.31493,test,7.47649999406603E-4,22.826657312173776,0.373780796846709
-120.28635,38.88467,test,0.0010907086839987612,30.806171564341263,0.46545935954123585
-120.95847,39.68818,test,3.306655848560034E-5,1.6211685262926712,0.025719658815466638
-118.23068,35.91948,test,0.0010912712128245685,30.877497852433898,0.465587649972371
-120.35097,38.66163,test,1.3308741802089185E-4,4.384128829728269,0.09604526328221913
-118.81961,36.99779,test,0.0022527768303300237,65.36890071234929,0.6426657114789286
-123.96794,41.86646,test,6.800702027389028E-12,7.018721660188161E-8,5.429327149888455E-9
-119.70076,37.78885,test,0.0024163051203310464,71.21066633375978,0.6585926646077755
-120.02829,39.39015,test,1.6350375823960002E-4,5.5795443971442475,0.11546139463566296
-117.08129,34.238,test,2.3722854872941713E-4,7.9246552082494555,0.1592335545575815
-119.49018,37.69318,test,0.00211228396756385,60.399491386948725,0.6277459939527156
-120.62326,39.33432,test,1.1187914499248666E-5,0.7830844411391714,0.008852778004042404
-120.14827,39.85806,test,1.845079840711787E-5,1.151251503973851,0.014516331005442596
-116.59252,32.96965,test,5.39711663680846E-6,0.4106174221813896,0.004290291612426449
-120.39432,39.70468,test,4.780074356295918E-5,2.055143241775213,0.03675885251347295
-119.82651,38.0626,test,0.0029995351188168186,84.62333614964227,0.7054208169291255
-117.07084,34.25409,test,1.1617013955065317E-4,3.9361664338838662,0.08487274848951497
-119.06392,37.71195,test,6.65369792247201E-4,20.07547918035611,0.34691603174029045
-118.30468,36.4042,test,0.0018959820318438885,54.0883925203153,0.6021727022140893
-120.02192,39.22622,test,8.016236423722314E-4,24.236321421342275,0.3902344841758367
-121.22321,39.78323,test,6.180901113045821E-5,2.4258272196017816,0.04702466628538316
-116.95739,34.20323,test,2.8142430951477113E-5,1.4781028442514983,0.021973760311787476
-120.3995,39.30484,test,0.0013446338506886068,38.1877749079209,0.5177203547423266
-120.40709,39.72304,test,5.542787284431295E-5,2.251683628236166,0.042375583347396405
-120.33279,39.20853,test,0.0024350928540373207,71.50073431421569,0.6603320430773709
-119.5676,38.28284,test,0.0028260161013737954,82.15511381785544,0.6928883161747742
-120.43812,39.60295,test,3.542109586230235E-4,11.02604791720971,0.22044530424510736
-119.23656,37.40922,test,6.753714795993324E-4,20.280377855594974,0.3503040420978381
-120.26984,38.68326,test,6.46435745537429E-4,19.6327194168655,0.3404045112610339
-117.66712,34.27492,test,3.802456815950574E-4,11.588921272872017,0.23287492839690202
-118.05629,35.85613,test,8.747175670524008E-4,26.779644303182675,0.4111859574497673
-119.94174,39.34474,test,0.00285483573369753,82.71623154735316,0.695043158133433
-117.14273,34.19776,test,1.4526859420894587E-6,0.10528949193421148,0.0011584055246221035
-119.40779,37.87631,test,0.0019069602163978897,54.34114555675852,0.6035549958981757
-116.95887,34.14347,test,3.213948133433931E-5,1.5933477046168838,0.02501660381104406
-118.55411,35.37797,test,5.9681383957016E-6,0.4510920799491951,0.004742057378881244
-119.76636,37.85705,test,0.00170274365026129,48.9196718894322,0.576160209939704
-116.74423,33.4943,test,3.852992059162687E-7,0.030097632165742988,3.0750827798792056E-4
-119.97001,39.18225,test,4.868261402795664E-4,14.854941357289466,0.2798796121932228
-119.1263,37.339,test,0.001476687437775111,42.00067800817062,0.5410550430748393
-118.92744,37.32118,test,0.0012703504428373906,36.55670738089988,0.503520485248448
-119.86812,37.9239,test,1.2187837335427527E-4,4.064199041907353,0.0886733259681059
-119.95387,39.08859,test,9.42788632119036E-4,28.270730250122764,0.4294430644403627
-120.29157,39.19131,test,0.0022213299692915235,64.54804245053043,0.6394310218264566
-123.03267,40.2437,test,1.451109634021859E-5,0.9548295375869769,0.011452232388811875
-118.14585,36.0371,test,5.4671095959522E-4,16.647638352461055,0.30384689933901204
-118.32577,35.79398,test,0.0016967659411424663,48.73341101591937,0.5753011769780794
-118.41892,35.87436,test,2.384664588791782E-6,0.1783176975117747,0.0019001747782177636
-119.05641,34.69402,test,5.326056936257282E-5,2.195835267972923,0.04078622211797693
-117.9577,35.68471,test,3.0830866837878E-6,0.23448587319512193,0.002455332734000331
-120.34844,39.29843,test,0.00234599053187342,69.07434438992458,0.6519217177443486
-116.33128,32.88597,test,1.0772651390636915E-10,1.7982367796648265E-6,8.600324455223412E-8
-123.20665,41.51693,test,2.0483585882928964E-4,6.932898800644884,0.14054666791702106
-118.30216,35.7799,test,4.3233967949802307E-4,13.44598649167672,0.25659265082751614
-118.18815,36.14816,test,0.0027213924165920282,79.32716168135053,0.6848029295813552
-120.5949,39.3158,test,1.4296091199383704E-5,0.9428135850915411,0.011284464001723655
-120.37681,39.71124,test,5.542787284431295E-5,2.251683628236166,0.042375583347396405
-119.49339,38.41363,test,0.00230041761408699,67.33894929205027,0.6474570612592513
-119.77903,38.23304,test,0.0022607817884324984,65.67468276707073,0.6434798720674574
-120.15376,39.47612,test,2.773159773243058E-4,9.119958795117931,0.18126382442562924
-118.94719,36.94914,test,0.0021970653448382697,63.38483478070781,0.6368948033347311
-122.58068,41.45315,test,5.017297192849785E-4,15.442660284626276,0.28599730686206004
-120.26542,39.84308,test,1.2966414288650548E-4,4.248886886741284,0.09380653346273635
-118.09243,36.04887,test,0.0017325157038476115,49.883870087816675,0.5803873954775354
-119.29444,37.89051,test,0.0012558403657887444,36.32883515925752,0.5006485833172797
-121.3674,40.12471,test,3.982265721417334E-4,12.164734240879794,0.2412305635862489
-119.61691,37.60941,test,0.0017840145141518793,51.224970325917155,0.5875037567287681
-118.79788,37.72363,test,2.0964367985663683E-4,7.248567170595127,0.14337255525521345
-120.60902,39.87912,test,0.0010200935882917713,29.583542746738267,0.44885049392102905
-119.49371,37.67518,test,0.00211228396756385,60.399491386948725,0.6277459939527156
-120.17658,38.39299,test,5.391446101459091E-4,16.4597405566677,0.3009070957341644
-123.68917,41.5751,test,4.0363391984748025E-6,0.31116993966728024,0.003212052983865714
-120.67554,39.79111,test,1.792913694774652E-4,6.051498313799129,0.12521414781890572
-120.58957,39.90616,test,0.0010200935882917713,29.583542746738267,0.44885049392102905
-119.73988,38.73828,test,5.036942340665601E-4,15.512932822541595,0.28679596552924896
-119.79996,37.70045,test,7.315343416754401E-6,0.540431015876687,0.0058062803461336986
-120.36163,39.09068,test,6.262217739682431E-4,18.776599359276766,0.3333079679294922
-119.11524,37.33463,test,0.0010587585086280673,30.099373728993235,0.4580702994884502
-119.11423,37.86346,test,0.0010098780747580171,29.066382181493946,0.4463619355337858
-120.98015,39.82545,test,3.8926132401121066E-5,1.7971127148827046,0.030139954405496792
-120.39132,39.20647,test,5.60641454580803E-4,17.054070965778806,0.3091952380056935
-118.35753,35.7837,test,2.840216316237309E-4,9.26734525329964,0.18483673386042312
-119.57118,38.45054,test,0.002092820982490379,59.508983152857,0.6255802864381914
-123.94671,40.19041,test,1.688630195597447E-10,3.085656095214632E-6,1.348114436416065E-7
-118.2497,35.96081,test,5.342320714052476E-4,16.377632191326942,0.29898506459141627
-120.61207,39.77055,test,5.056338109328097E-5,2.1263325225428003,0.03880089399034621
-120.40265,39.00992,test,3.376361427567389E-4,10.587670448571725,0.21232004238232371
-119.76136,37.98853,test,9.86281247922723E-4,28.54368734090319,0.44052679790988253
-120.46001,38.93597,test,1.7305264319421552E-5,1.1052857261152216,0.013627353573425443
-118.1296,36.10462,test,0.0022974955263574295,66.99096327083348,0.6471668816570538
-116.81937,33.97377,test,1.221930326657941E-8,8.021968987085826E-4,9.755161730101453E-6
-119.97589,38.94017,test,9.175310922547247E-4,27.527136869583074,0.42280247294624357
-120.25688,38.53698,test,1.442407236853106E-4,4.8067105365411065,0.10326310897107623
-120.43111,39.6405,test,1.0743117066760416E-4,3.7501069966458926,0.07899248043061015
-119.65087,38.65259,test,0.002322264581337033,68.26125742770995,0.6496115549213934
-118.37119,35.49467,test,0.0012097331364005163,34.329463028953704,0.49129816844650226
-119.63236,37.92193,test,0.002144936961656353,61.20800489602743,0.6313236610189451
-120.99327,39.81203,test,3.8926132401121066E-5,1.7971127148827046,0.030139954405496792
-119.45858,37.70897,test,0.0027294010296142666,79.45382435070958,0.6854368570691889
-116.91519,34.25963,test,1.3349569563022426E-4,4.400541200481808,0.0963115277759036
-118.33268,35.44455,test,5.970250954185861E-4,18.075243752991486,0.3227840326290221
-120.35845,38.80257,test,1.8877444897454166E-4,6.326835431068132,0.1309695858864548
-119.05633,36.92766,test,7.200973989288981E-4,21.789322373968147,0.36503435380697646
-118.87067,37.67161,test,5.140161911562891E-4,15.78084298798681,0.2909630945624678
-119.88009,39.35663,test,0.0035275623358987287,91.19723830767943,0.7379607714362099
-119.99704,39.21213,test,3.55434587978998E-4,11.045930521654762,0.221038509151865
-123.24438,41.93679,test,2.0726302819391206E-4,7.098417644920563,0.14197560886727706
-120.42469,38.87666,test,5.168096373283233E-5,2.155131054175987,0.03962451295575555
-119.47664,37.84418,test,0.0014523117417374399,40.932748130529156,0.5369191748486609
-119.61817,37.59643,test,0.0017840145141518793,51.224970325917155,0.5875037567287681
-116.27864,32.78442,test,2.252577377782895E-8,0.0016084055670997572,1.7983084097518964E-5
-116.8726,34.02198,test,4.459589879715902E-6,0.34221074218125375,0.003547674068040248
-120.05433,37.97722,test,1.800949627917729E-5,1.1335437851033892,0.014174053810137276
-118.11316,36.40554,test,0.0018387178023011879,52.308906522421644,0.5948032324571974
-118.80897,37.75746,test,5.812842204129492E-4,17.579314515173706,0.31697120641931914
-119.95426,38.54406,test,0.003002557111609345,84.63860614417158,0.7056300263578852
-119.56994,37.74797,test,7.67527429593254E-4,23.295602087884248,0.3799426415813838
-119.95058,38.72382,test,0.0035740141020165006,91.5932853549721,0.7404826674696459
-120.30383,39.09852,test,0.0013878292165404342,39.019902465131764,0.5256101144670002
-120.91345,41.02131,test,7.128451934644497E-6,0.5289398425805686,0.005658781632388176
-119.95447,38.76055,test,0.0033718399639256174,89.519505518427,0.729136894490539
-119.46564,37.4598,test,0.0017310622591518421,49.807938554660275,0.5801829867954662
-119.26366,34.58604,test,1.0814060068561365E-5,0.7632833178794262,0.00855948640136241
-120.12857,38.59782,test,7.218448426142962E-4,21.83832508332719,0.36559632153649363
-122.97698,40.1997,test,1.1765273421563677E-5,0.8127959163378482,0.009305379642107868
-119.67969,38.52904,test,0.003722062490722538,93.78254486591548,0.7482060511403408
-120.59037,39.42776,test,1.6301846659864957E-4,5.5619980652768355,0.11515816089750003
-123.20458,41.9111,test,2.479691044022654E-4,8.26111976692986,0.16525152462116355
-116.79226,34.09281,test,0.0017244518322914605,49.53938273996983,0.5792507953575763
-119.44892,37.45196,test,6.789732754446637E-4,20.406658408818384,0.3515155356325893
-119.12134,38.58533,test,6.20951199183866E-5,2.43363523463614,0.04723205840965407
-120.29037,39.30958,test,0.0010340245385542254,29.786091995957804,0.4522083174275318
-121.45988,40.61157,test,7.336704571491828E-5,2.803611511513464,0.05533153476520702
-119.70406,37.75489,test,0.0024163051203310464,71.21066633375978,0.6585926646077755
-120.85784,40.95152,test,1.796979462547488E-5,1.131950713876347,0.014143249256310294
-118.97517,37.64887,test,0.0013330474350855045,38.02582401642653,0.5155592242389452
-120.6381,39.63425,test,9.903757553519554E-4,28.604940829425313,0.44154811120146037
-119.59667,38.49214,test,0.0033501836716028047,88.57398804830594,0.7278624683622341
-120.13768,39.27507,test,0.002385429944617192,70.73393829788579,0.6556952034285387
-119.0995,37.01545,test,5.685347378510748E-4,17.177066459825678,0.31218939210332225
-118.35349,35.78817,test,2.840216316237309E-4,9.26734525329964,0.18483673386042312
-118.19778,35.95769,test,4.7379641612761475E-4,14.516384518564426,0.2744445665708822
-123.16048,40.35582,test,1.135812285479004E-5,0.7920994917879419,0.008986250256928362
-118.37402,35.87493,test,0.0022670401670528036,65.85224597222182,0.6441138137169382
-120.70646,39.63029,test,9.052589003339018E-4,27.382472867190927,0.4195198101717842
-120.61455,39.37404,test,1.1187914499248666E-5,0.7830844411391714,0.008852778004042404
-119.83265,38.73876,test,6.081806233432572E-4,18.372497253959025,0.32684402566450743
-119.8291,38.37971,test,0.003913810097204257,95.42796248844041,0.7575512274044166
-119.80016,37.70564,test,7.315343416754401E-6,0.540431015876687,0.0058062803461336986
-123.15895,40.36847,test,1.135812285479004E-5,0.7920994917879419,0.008986250256928362
-118.94332,37.64091,test,0.0011835642898026795,33.261510858620746,0.4858337529634311
-119.42975,37.63833,test,0.001478470298985089,42.09830326424999,0.5413546469337152
-117.67479,34.22386,test,2.159646192011863E-5,1.2854927646670096,0.016949262592782673
-120.37177,38.98468,test,3.776343375616796E-4,11.500856615890111,0.23164612098004703
-123.67456,41.56637,test,4.0363391984748025E-6,0.31116993966728024,0.003212052983865714
-120.08197,38.03093,test,4.184061666064811E-5,1.884771968648219,0.03232365541180117
-116.71792,33.59168,test,2.0050285968689303E-7,0.016005330095663017,1.6004544773184768E-4
-119.80208,38.52895,test,0.003730370107600785,93.82953070839642,0.7486258436082474
-120.48449,39.97283,test,1.4427704474302922E-4,4.808150405066511,0.1032864258026145
-119.78583,37.70701,test,1.0501542103460186E-5,0.7457146401304249,0.008314180486768045
-119.79245,37.76995,test,3.729214715104354E-4,11.367139850764982,0.22941841804973012
-119.91271,38.47164,test,0.002357226460335567,69.54305135616744,0.6530051485763565
-120.32117,39.11414,test,0.0013878292165404342,39.019902465131764,0.5256101144670002
-120.84148,41.00721,test,6.845076191772356E-6,0.5115162568050265,0.00543505198903655
-119.21235,37.08985,test,2.958418807399719E-4,9.604123678799736,0.1910594516065018
-120.28157,39.95611,test,6.597008418778331E-4,19.906705023291064,0.3449799730283406
-118.18064,36.02118,test,0.0014828463503430657,42.551831910693195,0.5420883719844184
-119.48907,37.51335,test,0.001888243573183716,53.777274614158934,0.601192524997143
-117.21184,34.22499,test,3.471774074300866E-5,1.6707191457584794,0.026969335729077084
-120.03553,38.49822,test,0.0016847195915944513,48.36601897920354,0.5735594210004454
-119.34356,38.13291,test,0.002407436854822557,71.07814623988452,0.6577654319405805
-119.98403,38.51228,test,0.00173770735917152,50.15509495761146,0.5811159138445041
-120.14015,39.63656,test,0.0012279487372356276,35.431042770563074,0.49503377731867043
-119.89773,39.15893,test,0.003896423334096824,95.25300854228071,0.7567325458528585
-118.8069,37.25363,test,6.406323306833925E-4,19.535801703451703,0.3383826075284554
-118.23658,35.7843,test,3.482839374489971E-4,10.786665537838546,0.21755910119729063
-120.13056,39.4064,test,1.889978956935216E-4,6.331907379353361,0.13110428628475648
-119.01542,36.8943,test,9.676257158674329E-5,3.498031678006984,0.07171055461050317
-120.16067,38.9816,test,0.001904579290413378,54.29241672058056,0.6032560232534252
-119.52841,37.63987,test,0.002263632797331055,65.75021684233778,0.6437689444961255
-120.51888,39.82084,test,9.880726149200275E-5,3.5477345812224184,0.07311507791582589
-118.74867,36.67674,test,0.002538951119438207,75.7339451837579,0.6696362695391385
-120.1165,39.38938,test,9.609018383957183E-5,3.476575124160751,0.07124775248157406
-120.60527,39.726,test,1.1077786695173876E-4,3.8213607607416,0.08125330848005255
-119.214,37.44085,test,2.7639566916143956E-4,9.099730946424302,0.18077101974034387
-120.06016,39.44602,test,3.856909024553426E-4,11.772555256415524,0.2354246586134421
