"species","longitude","latitude"
"0",0,0
"cont.albi",-121.23352,50.05599
"cont.albi",-122.38479,49.69222
"cont.albi",-115.4201,50.18953
"cont.albi",-119.86073,51.63487
"cont.albi",-117.27877,50.31412
"cont.albi",-113.74281,48.53537
"cont.albi",-115.25494,45.01751
"cont.albi",-126.2059,52.29127
"cont.albi",-118.06,51.22743
"cont.albi",-125.6005,52.55013
"cont.albi",-120.00389,53.48728
"cont.albi",-115.27719,46.46754
"cont.albi",-125.72288,51.04829
"cont.albi",-121.04184,53.97745
"cont.albi",-110.15446,43.23174
"cont.albi",-122.99064,51.18612
"cont.albi",-109.3462,44.03284
"cont.albi",-121.66236,49.65524
"cont.albi",-123.40776,50.02382
"cont.albi",-119.51728,51.20097
"cont.albi",-121.60444,53.68964
"cont.albi",-113.19031,46.44679
"cont.albi",-121.87999,50.20001
"cont.albi",-113.11853,45.37021
"cont.albi",-116.04074,48.20858
"cont.albi",-124.67206,51.21202
"cont.albi",-121.18314,53.8793
"cont.albi",-114.94213,46.34372
"cont.albi",-115.90743,49.93606
"cont.albi",-119.39179,51.93367
"cont.albi",-116.21738,51.47155
"cont.albi",-116.59241,49.65467
"cont.albi",-119.46668,37.65308
"cont.albi",-125.47379,52.99662
"cont.albi",-117.29961,50.92577
"cont.albi",-125.61908,52.8445
"cont.albi",-122.32212,50.81453
"cont.albi",-122.91372,50.34131
"cont.albi",-119.30846,51.95054
"cont.albi",-125.17039,52.66093
"cont.albi",-113.83087,44.33024
"cont.albi",-120.7957,48.16852
"cont.albi",-122.26507,51.21309
"cont.albi",-121.23468,50.37924
"cont.albi",-118.41042,50.78988
"cont.albi",-110.64176,43.90596
"cont.albi",-111.22178,46.58755
"cont.albi",-115.92554,45.13754
"cont.albi",-121.4447,49.30305
"cont.albi",-115.1555,46.58232
"cont.albi",-120.10834,52.38744
"cont.albi",-122.80024,50.1005
"cont.albi",-114.42566,46.38963
"cont.albi",-125.95153,52.95099
"cont.albi",-116.05444,50.82239
"cont.albi",-110.62238,44.23649
"cont.albi",-115.49504,49.96272
"cont.albi",-119.34689,51.62702
"cont.albi",-120.87263,47.92555
"cont.albi",-119.60918,38.37914
"cont.albi",-116.78958,52.16858
"cont.albi",-118.30031,44.25173
"cont.albi",-125.61119,51.27073
"cont.albi",-121.73759,46.76887
"cont.albi",-121.79503,45.01968
"cont.albi",-124.94466,51.92185
"cont.albi",-120.44329,53.87676
"cont.albi",-110.40224,43.20207
"cont.albi",-115.48008,51.35903
"cont.albi",-113.67055,46.38495
"cont.albi",-109.6093,43.9536
"cont.albi",-118.47829,45.06532
"cont.albi",-109.81022,44.89913
"cont.albi",-116.49907,49.22113
"cont.albi",-116.34662,52.00192
"cont.albi",-121.45082,49.40754
"cont.albi",-116.9605,51.51022
"cont.albi",-115.3631,49.84721
"cont.albi",-119.57017,53.07106
"cont.albi",-114.18553,43.65562
"cont.albi",-115.37504,45.10841
"cont.albi",-123.03483,50.34521
"cont.albi",-119.35958,51.57599
"cont.albi",-121.22514,47.54191
"cont.albi",-120.65307,53.26309
"cont.albi",-109.70546,44.55229
"cont.albi",-117.61273,50.86251
"cont.albi",-117.9841,50.59647
"cont.albi",-119.73448,53.08019
"cont.albi",-121.52299,53.85374
"cont.albi",-110.6166,47.50747
"cont.albi",-118.91226,53.36677
"cont.albi",-126.20553,53.77139
"cont.albi",-114.51457,46.15246
"cont.albi",-119.12914,51.29994
"cont.albi",-113.42343,48.30357
"cont.albi",-114.3713,49.56898
"cont.albi",-113.98807,47.43754
"cont.albi",-117.42332,45.14906
"cont.albi",-118.33954,52.10121
