Raw value,Corresponding cumulative value,Corresponding logistic value,Fractional area,Training omission,Test omission
4.3527E-14,0.000000001,0,0.929088565,0,0
1.13339E-13,0.000000003,0,0.908757314,0,0
5.17577E-13,0.00000001,0,0.88009521,0,0
1.18921E-12,0.000000025,0,0.861350788,0,0
4.5406E-12,0.0000001,0.000000001,0.832589507,0,0
1.15565E-11,0.000000251,0.000000001,0.813051671,0,0
4.42158E-11,0.000001004,0.000000005,0.781513438,0,0
1.03135E-10,0.000002509,0.000000012,0.760587127,0,0
3.03949E-10,0.000010008,0.000000037,0.721114748,0,0
6.24042E-10,0.000025003,0.000000076,0.687890509,0,0
1.0415E-9,0.000050014,0.000000126,0.657839929,0,0
1.84616E-9,0.000100003,0.000000223,0.623524745,0,0
3.88722E-9,0.000250343,0.00000047,0.569175841,0,0
7.75925E-9,0.000500066,0.000000939,0.52504215,0,0
1.45861E-8,0.00100095,0.000001765,0.479916691,0,0
3.0935E-8,0.00250022,0.000003744,0.411881385,0,0
6.33658E-8,0.005000661,0.000007669,0.357433304,0,0
1.19957E-7,0.010001836,0.000014518,0.302092631,0,0
2.57514E-7,0.025009103,0.000031166,0.221263513,0,0
5.29365E-7,0.050002233,0.000064064,0.155013389,0,0
1.48887E-6,0.100131445,0.000180163,0.09768918,0,0
5.40305E-6,0.200268979,0.000653494,0.060497868,0,0
1.31714E-5,0.300909975,0.001591576,0.048596648,0,0
2.00497E-5,0.401939031,0.002420704,0.042447684,0,0
3.0073E-5,0.502837567,0.00362648,0.038480611,0,0
3.54721E-5,0.602376298,0.004274777,0.035505306,0,0
4.10503E-5,0.702279405,0.004943688,0.032926708,0,0
4.31201E-5,0.753026542,0.00519166,0.031736586,0,0
4.60267E-5,0.802113683,0.005539673,0.030645641,0,0
5.40663E-5,0.901426853,0.006501003,0.028662105,0,0
6.29703E-5,1.00126307,0.007563535,0.026976098,0,0
7.42691E-5,1.102089535,0.008908581,0.025488446,0,0
8.69636E-5,1.20552665,0.010415423,0.024199147,0,0
9.31341E-5,1.305203103,0.011146209,0.023108202,0,0
1.05193E-4,1.403968085,0.012571314,0.022116434,0,0
1.2293E-4,1.506695795,0.014659846,0.021223842,0,0
1.44184E-4,1.759653429,0.017151005,0.019339482,0,0
1.79845E-4,2.017442971,0.021302694,0.017752653,0,0
2.23486E-4,2.256750958,0.02633576,0.016562531,0,0
2.5973E-4,2.521890194,0.030476606,0.015471586,0.011764706,0
2.83763E-4,2.764753162,0.033202975,0.014578994,0.011764706,0
3.14244E-4,3.008562311,0.036638961,0.01378558,0.011764706,0
3.79924E-4,3.285218397,0.043960216,0.012992165,0.011764706,0
4.32567E-4,3.532653772,0.049748287,0.012397104,0.011764706,0.016666667
4.80211E-4,3.763612961,0.054926776,0.01190122,0.011764706,0.016666667
5.4163E-4,4.016586482,0.061519743,0.011405336,0.011764706,0.016666667
6.6709E-4,4.273579871,0.074705285,0.011008628,0.011764706,0.016666667
7.84343E-4,4.558115449,0.086697615,0.010611921,0.011764706,0.016666667
8.72007E-4,4.809169165,0.095462519,0.010314391,0.011764706,0.016666667
1.02183E-3,5.100405286,0.110059442,0.01001686,0.011764706,0.016666667
1.18615E-3,5.334897161,0.125535989,0.009818506,0.011764706,0.016666667
1.30112E-3,5.587641765,0.136048302,0.009620153,0.011764706,0.016666667
1.60104E-3,5.888509372,0.162318777,0.009421799,0.023529412,0.016666667
1.70002E-3,6.058510964,0.170640593,0.009322622,0.023529412,0.016666667
3.01586E-3,6.537717866,0.267401681,0.009124269,0.023529412,0.016666667
4.47302E-3,6.866896864,0.351223152,0.009025092,0.023529412,0.016666667
5.41122E-3,7.078840143,0.395737741,0.009025092,0.023529412,0.033333333
6.33572E-3,7.71241256,0.434005402,0.008925915,0.023529412,0.033333333
6.33601E-3,8.346013204,0.434016345,0.008826738,0.035294118,0.033333333
6.36834E-3,8.982847288,0.435267176,0.008727561,0.035294118,0.033333333
6.81574E-3,9.664420791,0.452023617,0.008628384,0.035294118,0.033333333
7.09093E-3,10.373513482,0.461845417,0.008529208,0.035294118,0.033333333
7.20782E-3,11.094295861,0.465911812,0.008430031,0.035294118,0.033333333
7.88056E-3,11.882352356,0.488169189,0.008330854,0.047058824,0.033333333
7.97391E-3,12.679743362,0.49111176,0.008231677,0.058823529,0.033333333
8.03503E-3,13.483246812,0.493020358,0.0081325,0.058823529,0.033333333
8.04464E-3,14.287711261,0.493319126,0.008033323,0.070588235,0.033333333
8.23753E-3,15.064681387,0.499242122,0.007934147,0.082352941,0.033333333
8.2695E-3,15.939605005,0.50021063,0.00783497,0.094117647,0.05
8.3646E-3,16.77606525,0.503069245,0.007735793,0.105882353,0.05
8.47435E-3,17.62349993,0.506327638,0.007636616,0.117647059,0.05
8.55978E-3,18.403517051,0.508834642,0.007537439,0.129411765,0.05
8.60717E-3,19.341036012,0.510214679,0.007438262,0.141176471,0.066666667
8.67018E-3,20.208054289,0.512037223,0.007339086,0.141176471,0.066666667
8.68598E-3,20.33051703,0.512492033,0.007239909,0.152941176,0.066666667
8.78348E-3,21.086402768,0.515280629,0.007239909,0.152941176,0.083333333
8.93652E-3,21.980055006,0.519593672,0.007140732,0.164705882,0.083333333
8.96606E-3,22.359040527,0.520417209,0.007041555,0.176470588,0.083333333
9.00671E-3,22.880726123,0.521546226,0.007041555,0.176470588,0.116666667
9.03344E-3,23.784070377,0.522285688,0.006942378,0.188235294,0.15
9.03663E-3,24.687733495,0.522373742,0.006843201,0.2,0.15
9.04561E-3,25.59229449,0.522621516,0.006744025,0.211764706,0.15
9.0767E-3,26.499964637,0.523477517,0.006644848,0.223529412,0.15
9.27555E-3,27.427519533,0.528880347,0.006545671,0.235294118,0.15
9.28747E-3,28.356266734,0.529200415,0.006446494,0.247058824,0.15
9.37377E-3,29.293643683,0.531504118,0.006347317,0.258823529,0.15
9.39633E-3,30.233276968,0.532102732,0.00624814,0.270588235,0.15
9.43356E-3,30.649866061,0.533087074,0.006148964,0.282352941,0.15
9.46081E-3,30.954827014,0.533805033,0.006148964,0.282352941,0.166666667
9.48106E-3,31.181382959,0.534336978,0.006148964,0.282352941,0.183333333
9.49758E-3,32.131140694,0.534770059,0.006049787,0.294117647,0.2
9.51674E-3,33.082814497,0.535271435,0.00595061,0.305882353,0.2
9.62821E-3,34.045635043,0.538166905,0.005851433,0.317647059,0.2
9.69853E-3,34.52815259,0.539975201,0.005752256,0.329411765,0.2
9.77061E-3,35.022696085,0.541813929,0.005752256,0.329411765,0.216666667
9.80626E-3,36.003322409,0.542718008,0.005653079,0.341176471,0.216666667
9.8099E-3,36.984312086,0.542809947,0.005553903,0.352941176,0.216666667
9.81136E-3,37.965448444,0.542847051,0.005454726,0.364705882,0.216666667
9.97349E-3,38.962797831,0.54691144,0.005355549,0.376470588,0.216666667
1.00074E-2,39.963539928,0.547752821,0.005256372,0.388235294,0.216666667
1.00093E-2,40.964473923,0.547800317,0.005157195,0.4,0.233333333
1.00106E-2,41.965538657,0.547832671,0.005058018,0.411764706,0.233333333
1.00582E-2,42.97135827,0.549006205,0.004958842,0.423529412,0.25
1.01177E-2,43.983130792,0.550466862,0.004859665,0.435294118,0.25
1.01191E-2,44.995039514,0.55050017,0.004760488,0.447058824,0.25
1.01703E-2,46.012069486,0.551749029,0.004661311,0.458823529,0.25
1.01846E-2,47.030529043,0.552096407,0.004562134,0.470588235,0.3
1.02778E-2,48.058310219,0.554348353,0.004462957,0.482352941,0.3
1.03338E-2,49.091685573,0.555688973,0.004363781,0.494117647,0.3
1.03638E-2,50.056264,0.556405529,0.004264604,0.505882353,0.3
1.03925E-2,50.809715434,0.557087707,0.004165427,0.517647059,0.316666667
1.04064E-2,51.168931381,0.557418445,0.004165427,0.517647059,0.333333333
1.04904E-2,52.21796757,0.559399482,0.00406625,0.529411765,0.333333333
1.05827E-2,53.276235024,0.56155775,0.003967073,0.541176471,0.333333333
1.0613E-2,54.337533054,0.562261695,0.003867896,0.552941176,0.333333333
1.06208E-2,55.399612354,0.562442802,0.00376872,0.564705882,0.333333333
1.06317E-2,56.462783287,0.562695605,0.003669543,0.576470588,0.333333333
1.06848E-2,57.427494643,0.563920747,0.003570366,0.588235294,0.35
1.06905E-2,57.531836593,0.564052846,0.003570366,0.588235294,0.366666667
1.07173E-2,57.755031545,0.564667064,0.003471189,0.6,0.383333333
1.08103E-2,58.531709928,0.566791009,0.003471189,0.6,0.4
1.08413E-2,58.825620322,0.567494377,0.003372012,0.611764706,0.433333333
1.09057E-2,59.468819914,0.568945612,0.003372012,0.611764706,0.45
1.09295E-2,59.7067997,0.569480094,0.003372012,0.611764706,0.466666667
1.10201E-2,60.808812696,0.571504451,0.003272835,0.623529412,0.466666667
1.10341E-2,61.912224831,0.57181514,0.003173659,0.635294118,0.466666667
1.10432E-2,63.016541044,0.572015657,0.003074482,0.647058824,0.483333333
1.10683E-2,64.123374345,0.572572939,0.002975305,0.658823529,0.483333333
1.10685E-2,65.230224872,0.572576748,0.002876128,0.670588235,0.483333333
1.10925E-2,66.339474028,0.573106445,0.002776951,0.682352941,0.483333333
1.11133E-2,67.336831251,0.573565285,0.002677774,0.694117647,0.483333333
1.11284E-2,67.781420294,0.573897202,0.002578598,0.705882353,0.5
1.11586E-2,68.566906724,0.574560105,0.002578598,0.705882353,0.516666667
1.1279E-2,69.656894365,0.577180198,0.002479421,0.717647059,0.516666667
1.12832E-2,70.823550277,0.577272334,0.002380244,0.729411765,0.533333333
1.13557E-2,71.139351475,0.578833668,0.002281067,0.741176471,0.533333333
1.15482E-2,71.978370313,0.582926329,0.002281067,0.741176471,0.566666667
1.16281E-2,73.141183411,0.584602339,0.00218189,0.752941176,0.566666667
1.16556E-2,74.306742267,0.585174974,0.002082713,0.764705882,0.566666667
1.17243E-2,74.657662759,0.586600523,0.001983537,0.776470588,0.566666667
1.17519E-2,74.798566091,0.587170164,0.001983537,0.776470588,0.583333333
1.18883E-2,75.495569756,0.589965059,0.001983537,0.776470588,0.633333333
1.19719E-2,76.692763658,0.591660444,0.00188436,0.788235294,0.633333333
1.1984E-2,77.891167907,0.591904551,0.001785183,0.8,0.65
1.20298E-2,79.094150829,0.592825358,0.001686006,0.811764706,0.65
1.20409E-2,80.239311974,0.593047661,0.001586829,0.823529412,0.65
1.20415E-2,80.298299349,0.593059105,0.001586829,0.823529412,0.683333333
1.20555E-2,81.50384851,0.593339634,0.001487652,0.835294118,0.7
1.22031E-2,82.724161854,0.596273331,0.001388476,0.847058824,0.733333333
1.2256E-2,82.971037391,0.597313012,0.001289299,0.858823529,0.733333333
1.247E-2,83.971165153,0.601470683,0.001289299,0.858823529,0.75
1.24755E-2,84.041949113,0.601574958,0.001190122,0.870588235,0.75
1.25664E-2,85.227801487,0.603313818,0.001190122,0.870588235,0.783333333
1.26024E-2,86.488042744,0.603999189,0.001090945,0.882352941,0.783333333
1.26278E-2,86.692657778,0.604481312,0.000991768,0.894117647,0.783333333
1.2761E-2,87.764145964,0.606986955,0.000991768,0.894117647,0.85
1.28504E-2,88.369514076,0.608651345,0.000892591,0.905882353,0.85
1.29523E-2,89.059379686,0.610530948,0.000892591,0.905882353,0.866666667
1.29718E-2,90.356554754,0.61088702,0.000793415,0.917647059,0.866666667
1.29958E-2,91.6561379,0.611327795,0.000694238,0.917647059,0.866666667
1.30804E-2,92.428353834,0.612867416,0.000595061,0.929411765,0.866666667
1.31397E-2,92.970106725,0.613940286,0.000595061,0.929411765,0.9
1.34589E-2,93.902948734,0.619614402,0.000495884,0.941176471,0.916666667
1.36053E-2,94.330637744,0.622160477,0.000495884,0.941176471,0.933333333
1.37051E-2,94.783517135,0.623876913,0.000396707,0.952941176,0.933333333
1.39119E-2,95.721824131,0.627383982,0.000396707,0.952941176,0.95
1.39299E-2,97.114819122,0.62768765,0.00029753,0.964705882,0.95
1.43563E-2,98.550448665,0.634705417,0.000198354,0.976470588,0.966666667
1.44955E-2,100,0.636940035,0.000099177,0.988235294,0.966666667
1.44955E-2,100,0.636940035,0.000099177,1,1
