Raw value,Corresponding cumulative value,Corresponding logistic value,Fractional area,Training omission,Test omission
7.02352E-13,0.000000001,0,0.997233748,0,0
1.16484E-12,0.000000003,0,0.995554238,0,0
3.39815E-12,0.00000001,0.000000001,0.992392808,0,0
5.76492E-12,0.000000025,0.000000001,0.989132582,0,0
1.38574E-11,0.000000101,0.000000004,0.981229006,0,0
2.56056E-11,0.000000251,0.000000007,0.973523019,0,0
7.04569E-11,0.000001002,0.000000018,0.956925509,0,0
1.26647E-10,0.000002502,0.000000033,0.94141474,0,0
3.53402E-10,0.000010031,0.000000091,0.90802213,0,0
7.21849E-10,0.000025013,0.000000186,0.879569255,0,0
1.22668E-9,0.000050099,0.000000315,0.853586248,0,0
2.07579E-9,0.000100067,0.000000534,0.823849042,0,0
4.01151E-9,0.000250124,0.000001031,0.774155305,0,0
7.43574E-9,0.000500184,0.000001912,0.729500099,0,0
1.42986E-8,0.001000668,0.000003676,0.682177435,0,0
3.19835E-8,0.00250003,0.000008222,0.615589804,0,0
6.04311E-8,0.005005206,0.000015535,0.560956333,0,0
1.12592E-7,0.010006122,0.000028943,0.501383126,0,0
2.59458E-7,0.025008468,0.000066695,0.418296779,0,0
4.74379E-7,0.05003029,0.000121934,0.349041691,0,0
9.87377E-7,0.100008112,0.000253761,0.277415531,0,0
1.97964E-6,0.200125473,0.000508649,0.20727129,0,0
3.43678E-6,0.300055855,0.000882716,0.169531713,0,0
5.15296E-6,0.400495107,0.001322923,0.146413752,0,0
6.94557E-6,0.500375082,0.001782322,0.130013831,0,0
8.70213E-6,0.600811532,0.00223207,0.117269314,0,0
1.02905E-5,0.700453785,0.002638397,0.106994665,0,0
1.1245E-5,0.751062294,0.002882418,0.102351314,0,0
1.22567E-5,0.800601668,0.003140955,0.098201936,0,0
1.42077E-5,0.90117078,0.003639091,0.090693539,0,0
1.61821E-5,1.000233105,0.004142721,0.084173088,0,0
1.84877E-5,1.101449845,0.004730172,0.078442995,0,0
2.13865E-5,1.201241289,0.005467777,0.07350326,0,0
2.41577E-5,1.301773799,0.006171907,0.069156293,0,0
2.76419E-5,1.400242561,0.007055801,0.065402094,0,0
3.10136E-5,1.503041958,0.007909624,0.06194428,0,0
4.13154E-5,1.751385634,0.010509373,0.055127445,0,0
5.21123E-5,2.003869609,0.013219455,0.049891326,0,0
6.66879E-5,2.256593912,0.016854573,0.045643154,0,0
8.14153E-5,2.505017543,0.020500447,0.042382928,0,0
9.70911E-5,2.759014224,0.024351493,0.039517882,0,0
1.08633E-4,3.005904487,0.02716767,0.037146809,0,0
1.22745E-4,3.259944991,0.030588969,0.034973325,0.008196721,0
1.4244E-4,3.510500199,0.035323646,0.033096226,0.008196721,0
1.6642E-4,3.75725484,0.041026447,0.031515511,0.008196721,0
1.90778E-4,4.00717732,0.04675075,0.030132385,0.008196721,0
2.32332E-4,4.265258821,0.056359743,0.028946848,0.008196721,0
2.52285E-4,4.509217058,0.060905167,0.027958901,0.008196721,0
2.70304E-4,4.770717205,0.064972613,0.026970954,0.008196721,0
3.14254E-4,5.003179772,0.074747169,0.026180597,0.008196721,0
3.7175E-4,5.276396218,0.087229877,0.025390239,0.008196721,0
4.07972E-4,5.510919308,0.094922573,0.024797471,0.008196721,0
4.46283E-4,5.764276604,0.102918843,0.024204703,0.008196721,0
4.89345E-4,6.048232391,0.111739936,0.023611934,0.008196721,0
5.21042E-4,6.2512293,0.11812279,0.023216756,0.008196721,0
5.62801E-4,6.525401123,0.126393254,0.022722782,0.008196721,0
5.93242E-4,6.755834311,0.132325041,0.022327603,0.016393443,0
6.47867E-4,7.004424961,0.142769811,0.021932424,0.016393443,0
6.73594E-4,7.269553139,0.147602352,0.021537246,0.016393443,0
7.09597E-4,7.54745649,0.15427453,0.021142067,0.016393443,0
7.59942E-4,7.771197458,0.163431157,0.020845683,0.016393443,0
8.13792E-4,8.01200472,0.173008497,0.020549299,0.016393443,0
8.99817E-4,8.280990129,0.187861372,0.020252914,0.016393443,0
9.68442E-4,8.56188217,0.199332661,0.01995653,0.016393443,0
9.97859E-4,8.758719868,0.204151501,0.019758941,0.016393443,0
1.0695E-3,9.073528977,0.215647222,0.019462557,0.016393443,0
1.07772E-3,9.28892945,0.216945747,0.019264967,0.016393443,0
1.12568E-3,9.512345976,0.224432731,0.019067378,0.016393443,0
1.24309E-3,9.870006659,0.242172827,0.018770994,0.016393443,0
1.31509E-3,10.130182093,0.252655541,0.018573404,0.016393443,0
1.32352E-3,10.262533859,0.253863798,0.01847461,0.016393443,0
1.34445E-3,10.531355343,0.256847229,0.01827702,0.024590164,0
1.35822E-3,10.80263919,0.25879682,0.018079431,0.024590164,0
1.39356E-3,11.080890055,0.263755577,0.017881842,0.024590164,0
1.47449E-3,11.368236225,0.274862333,0.017684252,0.024590164,0
1.48384E-3,11.516619957,0.276123646,0.017585457,0.032786885,0
1.49137E-3,11.814469069,0.277136424,0.017387868,0.032786885,0
1.51407E-3,12.116453889,0.280173563,0.017190279,0.049180328,0
1.51791E-3,12.268244474,0.280683915,0.017091484,0.057377049,0
1.57663E-3,12.578721631,0.288411195,0.016893894,0.073770492,0
1.62869E-3,12.899865758,0.295123187,0.016696305,0.073770492,0
1.66525E-3,13.066390296,0.299762124,0.01659751,0.073770492,0
1.73071E-3,13.4081569,0.307917625,0.016399921,0.073770492,0
1.78448E-3,13.586604971,0.314475968,0.016301126,0.073770492,0
1.78878E-3,13.76548257,0.314994483,0.016202332,0.081967213,0
1.80503E-3,14.125579537,0.316949726,0.016004742,0.081967213,0
1.91923E-3,14.31750291,0.330377685,0.015905947,0.090163934,0
1.9478E-3,14.512283387,0.333654924,0.015807153,0.090163934,0
2.00855E-3,14.909042743,0.340517025,0.015609563,0.090163934,0
2.16562E-3,15.125604779,0.357622888,0.015510769,0.090163934,0
2.20229E-3,15.345833569,0.361489165,0.015411974,0.090163934,0
2.22155E-3,15.567988651,0.363501687,0.015313179,0.098360656,0
2.24432E-3,15.792420694,0.365864274,0.015214385,0.098360656,0
2.24757E-3,16.01717754,0.366199864,0.01511559,0.106557377,0
2.37681E-3,16.482159208,0.379271192,0.014918,0.106557377,0
2.38734E-3,16.720893264,0.380312193,0.014819206,0.106557377,0
2.43314E-3,16.96420762,0.384801045,0.014720411,0.114754098,0
2.56476E-3,17.220683228,0.397345,0.014621616,0.114754098,0
2.56981E-3,17.477664539,0.397816787,0.014522822,0.12295082,0
2.59467E-3,17.737132002,0.400125499,0.014424027,0.131147541,0
2.62595E-3,17.99972716,0.403004941,0.014325232,0.131147541,0
2.63255E-3,18.262982192,0.403608913,0.014226437,0.131147541,0
2.67898E-3,18.530880632,0.407824627,0.014127643,0.131147541,0
2.77148E-3,18.808028766,0.416047211,0.014028848,0.139344262,0
2.79646E-3,19.087674356,0.41822834,0.013930053,0.139344262,0
2.84301E-3,19.371975416,0.422250952,0.013831259,0.139344262,0
2.87243E-3,19.659218215,0.42476424,0.013732464,0.139344262,0
2.90195E-3,19.949413228,0.427264589,0.013633669,0.147540984,0
2.97679E-3,20.247091889,0.433506468,0.013534875,0.147540984,0
3.03849E-3,20.550941123,0.438551722,0.01343608,0.147540984,0
3.09139E-3,20.860080522,0.442806121,0.013337285,0.155737705,0
3.11892E-3,21.171972327,0.444994232,0.01323849,0.163934426,0
3.12009E-3,21.483981084,0.445086826,0.013139696,0.163934426,0
3.12623E-3,21.796603679,0.445572312,0.013040901,0.172131148,0
3.14734E-3,22.111337649,0.447235736,0.012942106,0.180327869,0
3.18241E-3,22.429578808,0.449976888,0.012843312,0.18852459,0
3.25292E-3,22.754870654,0.455406115,0.012744517,0.196721311,0
3.27412E-3,23.082282425,0.457017622,0.012645722,0.196721311,0
3.3106E-3,23.413342854,0.459769006,0.012546927,0.204918033,0
3.37409E-3,23.750751617,0.464490284,0.012448133,0.213114754,0
3.38998E-3,24.089749843,0.465659484,0.012349338,0.221311475,0
3.43256E-3,24.433005688,0.468766355,0.012250543,0.229508197,0
3.44166E-3,24.777171263,0.469425526,0.012151749,0.237704918,0
3.47236E-3,25.124407091,0.471638136,0.012052954,0.245901639,0
3.47246E-3,25.471653097,0.47164544,0.011954159,0.254098361,0
3.49417E-3,25.821070403,0.47319906,0.011855365,0.262295082,0
3.57796E-3,26.178866256,0.47910943,0.01175657,0.262295082,0
3.57844E-3,26.536710569,0.479143229,0.011657775,0.262295082,0
3.75164E-3,26.911874993,0.490948703,0.01155898,0.262295082,0
3.7569E-3,27.287564832,0.491298471,0.011460186,0.262295082,0
3.7872E-3,27.666284637,0.493306174,0.011361391,0.270491803,0
3.79062E-3,28.045346762,0.493532005,0.011262596,0.270491803,0
3.81587E-3,28.426933541,0.495191337,0.011163802,0.278688525,0
3.82383E-3,28.809317031,0.495712723,0.011065007,0.278688525,0
3.84095E-3,29.193411624,0.496828873,0.010966212,0.286885246,0
3.8756E-3,29.580971269,0.499074057,0.010867418,0.286885246,0
3.88679E-3,29.969649819,0.49979478,0.010768623,0.286885246,0
3.90677E-3,30.360326556,0.501076729,0.010669828,0.295081967,0
3.91133E-3,30.751459987,0.501368802,0.010571033,0.303278689,0
3.96851E-3,31.14831065,0.504996461,0.010472239,0.31147541,0
3.97865E-3,31.54617522,0.505634295,0.010373444,0.319672131,0
4.15592E-3,31.961767256,0.516526618,0.010274649,0.327868852,0
4.24397E-3,32.386164414,0.52176029,0.010175855,0.336065574,0
4.2483E-3,32.81099474,0.522014837,0.01007706,0.336065574,0
4.25841E-3,33.23683578,0.522607723,0.009978265,0.336065574,0
4.33145E-3,33.669980539,0.526848763,0.00987947,0.336065574,0
4.38307E-3,34.108287839,0.529801317,0.009780676,0.344262295,0
4.44429E-3,34.552716494,0.533254835,0.009681881,0.352459016,0
4.59112E-3,35.011828881,0.541335814,0.009583086,0.360655738,0
4.62961E-3,35.474789959,0.543407812,0.009484292,0.360655738,0
4.71601E-3,35.946391219,0.547991875,0.009385497,0.360655738,0
4.79154E-3,36.425545628,0.551924462,0.009286702,0.368852459,0
4.89047E-3,36.914592215,0.556972549,0.009187908,0.37704918,0
4.93401E-3,37.407993697,0.559159017,0.009089113,0.37704918,0
4.93799E-3,37.901792263,0.559357309,0.008990318,0.385245902,0
4.95204E-3,38.39699647,0.56005781,0.008891523,0.393442623,0
5.00458E-3,38.897454273,0.562656342,0.008792729,0.401639344,0
5.02486E-3,39.399940131,0.563651265,0.008693934,0.409836066,0
5.03537E-3,39.903476964,0.564165073,0.008595139,0.409836066,0
5.0394E-3,40.407416586,0.564361671,0.008496345,0.409836066,0
5.11319E-3,40.918735461,0.567932287,0.00839755,0.418032787,0
5.15879E-3,41.434614471,0.570109696,0.008298755,0.418032787,0
5.16877E-3,41.951491781,0.570583448,0.00819996,0.426229508,0
5.18777E-3,42.470268473,0.571481938,0.008101166,0.426229508,0
5.21548E-3,42.991816736,0.572786285,0.008002371,0.426229508,0
5.22353E-3,43.514169801,0.573163552,0.007903576,0.426229508,0
5.31072E-3,44.045241351,0.577208212,0.007804782,0.43442623,0
5.38148E-3,44.583389545,0.580435262,0.007705987,0.442622951,0
5.44179E-3,45.127568863,0.58314691,0.007607192,0.450819672,0
5.52845E-3,45.680413733,0.586982224,0.007508398,0.450819672,0
5.52941E-3,46.23335473,0.587024373,0.007409603,0.459016393,0
5.56132E-3,46.789486412,0.588418547,0.007310808,0.467213115,0
5.5714E-3,47.346626763,0.588857331,0.007212013,0.475409836,0
5.58863E-3,47.905489824,0.58960457,0.007113219,0.483606557,0
5.61527E-3,48.467016465,0.59075459,0.007014424,0.491803279,0
5.61559E-3,49.028575754,0.590768645,0.006915629,0.491803279,0
5.67169E-3,49.595745155,0.593169725,0.006816835,0.5,0
5.74419E-3,50.170163862,0.596230953,0.00671804,0.508196721,0
5.78389E-3,50.748553025,0.597888147,0.006619245,0.516393443,0
5.89724E-3,51.338276632,0.602544951,0.006520451,0.524590164,0
5.97924E-3,51.936200674,0.605847446,0.006421656,0.532786885,0
6.12883E-3,52.549084167,0.611732681,0.006322861,0.540983607,0
6.17342E-3,53.166426062,0.613452827,0.006224066,0.540983607,0
6.191E-3,53.785525823,0.614126868,0.006125272,0.549180328,0
6.23705E-3,54.409231033,0.615881695,0.006026477,0.557377049,0
6.25577E-3,55.03480754,0.616590169,0.005927682,0.56557377,0
6.33539E-3,55.668346824,0.619575887,0.005828888,0.573770492,0
6.34978E-3,56.303325032,0.620110471,0.005730093,0.581967213,0
6.37832E-3,56.941156923,0.62116623,0.005631298,0.590163934,0
6.40975E-3,57.582131971,0.622322313,0.005532503,0.598360656,0
6.45632E-3,58.22776414,0.624022332,0.005433709,0.606557377,0
6.49711E-3,58.8774751,0.625498717,0.005334914,0.614754098,0
6.55065E-3,59.532539709,0.627419051,0.005236119,0.62295082,0
6.59629E-3,60.192168584,0.629040752,0.005137325,0.631147541,0
6.64317E-3,60.856485461,0.630691785,0.00503853,0.639344262,0
6.65546E-3,61.522031563,0.631122268,0.004939735,0.647540984,0
6.77683E-3,62.19971481,0.635319514,0.004840941,0.655737705,0
6.77693E-3,62.877407787,0.635322841,0.004742146,0.655737705,0
6.78557E-3,63.555964673,0.635617952,0.004643351,0.663934426,0
6.80026E-3,64.23599062,0.636118689,0.004544556,0.672131148,0
6.86362E-3,64.922352237,0.63826256,0.004445762,0.680327869,0
6.90108E-3,65.612460417,0.639518482,0.004346967,0.680327869,0
6.91363E-3,66.303822962,0.639937023,0.004248172,0.680327869,0
6.96184E-3,67.000007204,0.64153686,0.004149378,0.68852459,0
6.97015E-3,67.697022327,0.641811111,0.004050583,0.696721311,0
6.98364E-3,68.395385927,0.642255315,0.003951788,0.704918033,0
7.02042E-3,69.097428112,0.643461498,0.003852993,0.713114754,0
7.03726E-3,69.801154129,0.644010906,0.003754199,0.713114754,0
7.04763E-3,70.505917231,0.644348448,0.003655404,0.721311475,0
7.05253E-3,71.211169803,0.644507535,0.003556609,0.729508197,0
7.06002E-3,71.917171461,0.644750726,0.003457815,0.737704918,0
7.08123E-3,72.625294283,0.645437563,0.00335902,0.737704918,0
7.23603E-3,73.34889708,0.650370706,0.003260225,0.745901639,0
7.42162E-3,74.091058768,0.656107061,0.003161431,0.754098361,0
7.50504E-3,74.841563015,0.658624781,0.003062636,0.762295082,0
7.50949E-3,75.592511821,0.658757911,0.002963841,0.770491803,0
7.56291E-3,76.348802457,0.660349525,0.002865046,0.770491803,0
7.60812E-3,77.10961422,0.661685053,0.002766252,0.778688525,0
7.62074E-3,77.871688441,0.662056106,0.002667457,0.786885246,0
7.68097E-3,78.639785001,0.663815006,0.002568662,0.795081967,0
7.70319E-3,79.410104237,0.664459549,0.002469868,0.803278689,0
7.72967E-3,80.183071537,0.66522423,0.002371073,0.81147541,0
7.76848E-3,80.959919327,0.666338524,0.002272278,0.819672131,0
7.77378E-3,81.737297728,0.666490314,0.002173484,0.827868852,0
7.80132E-3,82.517429688,0.667275803,0.002074689,0.836065574,0
7.8131E-3,83.298739482,0.667610667,0.001975894,0.844262295,0
7.90779E-3,84.089518427,0.670278498,0.001877099,0.844262295,0
7.98421E-3,84.887939525,0.672400565,0.001778305,0.852459016,0
8.02686E-3,85.690625821,0.673573087,0.00167951,0.860655738,0
8.1333E-3,86.503955824,0.676462809,0.001580715,0.868852459,0
8.15509E-3,87.319464664,0.677048057,0.001481921,0.87704918,0
8.15551E-3,88.135016137,0.677059487,0.001383126,0.885245902,0
8.19449E-3,88.954465298,0.67810109,0.001284331,0.893442623,0
8.26394E-3,89.780859517,0.679940502,0.001185536,0.901639344,0
8.38742E-3,90.619601413,0.683159418,0.001086742,0.909836066,0
8.418E-3,91.461401742,0.683946741,0.000987947,0.918032787,0
8.59898E-3,92.321299548,0.688526601,0.000889152,0.926229508,0
8.8473E-3,93.206029076,0.694598875,0.000790358,0.93442623,0
8.98132E-3,94.10416112,0.69777893,0.000691563,0.942622951,0
9.19447E-3,95.023608072,0.702702191,0.000592768,0.950819672,0
9.32117E-3,95.955724684,0.705553316,0.000493974,0.959016393,0
9.65108E-3,96.9208331,0.712727293,0.000395179,0.967213115,0
9.79049E-3,97.899882062,0.715654634,0.000296384,0.975409836,0
9.82874E-3,98.882756158,0.716447462,0.000197589,0.983606557,0
1.11724E-2,100,0.741742795,0.000098795,0.991803279,0
1.11724E-2,100,0.741742795,0,0.991803279,0
