Fri Mar 17 12:23:55 EDT 2017
MaxEnt version 3.3.3k
Checking header of /Users/aph82/Desktop/bio_2-5m_bil/bio10.bil
Checking header of /Users/aph82/Desktop/bio_2-5m_bil/bio11.bil
Checking header of /Users/aph82/Desktop/bio_2-5m_bil/bio12.bil
Checking header of /Users/aph82/Desktop/bio_2-5m_bil/bio13.bil
Checking header of /Users/aph82/Desktop/bio_2-5m_bil/bio14.bil
Checking header of /Users/aph82/Desktop/bio_2-5m_bil/bio15.bil
Checking header of /Users/aph82/Desktop/bio_2-5m_bil/bio16.bil
Checking header of /Users/aph82/Desktop/bio_2-5m_bil/bio17.bil
Checking header of /Users/aph82/Desktop/bio_2-5m_bil/bio18.bil
Checking header of /Users/aph82/Desktop/bio_2-5m_bil/bio19.bil
Checking header of /Users/aph82/Desktop/bio_2-5m_bil/bio2.bil
Checking header of /Users/aph82/Desktop/bio_2-5m_bil/bio3.bil
Checking header of /Users/aph82/Desktop/bio_2-5m_bil/bio4.bil
Checking header of /Users/aph82/Desktop/bio_2-5m_bil/bio5.bil
Checking header of /Users/aph82/Desktop/bio_2-5m_bil/bio6.bil
Checking header of /Users/aph82/Desktop/bio_2-5m_bil/bio7.bil
Checking header of /Users/aph82/Desktop/bio_2-5m_bil/bio8.bil
Checking header of /Users/aph82/Desktop/bio_2-5m_bil/bio9.bil
Reading samples from P.balfoForMaxent.csv
Read samples: max memory 1908932608, total allocated 128974848, free 99575288, used 29399560, increment 13599352
Extractor: max memory 1908932608, total allocated 128974848, free 97654664, used 31320184, increment 1920624
Extracting random background and sample data
Time since start: 311.504
9024587 points with values for all grids
Adding samples to background in feature space
Command line used: 
Command line to repeat: java density.MaxEnt nowarnings noprefixes "outputdirectory=/Users/aph82/Desktop/Maxent Related/Pinus balfouriana/GT/P.balfo_gt_maxent_wo_MAT" "samplesfile=/Users/aph82/Desktop/Maxent Related/Pinus balfouriana/GT/P.balfoForMaxent.csv" environmentallayers=/Users/aph82/Desktop/bio_2-5m_bil adjustsampleradius=-7 -N bio1
Species: Pinus_balfouriana
Layers: bio10 bio11 bio12 bio13 bio14 bio15 bio16 bio17 bio18 bio19 bio2 bio3 bio4 bio5 bio6 bio7 bio8 bio9
Layertypes: Continuous Continuous Continuous Continuous Continuous Continuous Continuous Continuous Continuous Continuous Continuous Continuous Continuous Continuous Continuous Continuous Continuous Continuous
outputdirectory: /Users/aph82/Desktop/Maxent Related/Pinus balfouriana/GT/P.balfo_gt_maxent_wo_MAT
samplesfile: /Users/aph82/Desktop/Maxent Related/Pinus balfouriana/GT/P.balfoForMaxent.csv
environmentallayers: /Users/aph82/Desktop/bio_2-5m_bil
adjustsampleradius: -7

getSamples: max memory 1908932608, total allocated 121634816, free 39218488, used 82416328, increment 51096144
Making features
makeFeatures: max memory 1908932608, total allocated 117964800, free 33592208, used 84372592, increment 1956264
Pinus_balfouriana: 
Regularization values: linear/quadratic/product: 1.000, categorical: 0.515, threshold: 1.910, hinge: 0.500
9 samples
Density: max memory 1908932608, total allocated 117964800, free 33000512, used 84964288, increment 591696
linearPredictor: max memory 1908932608, total allocated 117964800, free 32918328, used 85046472, increment 82184
FeaturedSpace: max memory 1908932608, total allocated 117964800, free 32918328, used 85046472, increment 0
Sequential: max memory 1908932608, total allocated 117964800, free 32903984, used 85060816, increment 14344
Initial loss: 9.211239967219019
460: time = 0.367000 loss = 4.304010
Resulting gain: 4.907229989876062
Projecting...
Writing file /Users/aph82/Desktop/Maxent Related/Pinus balfouriana/GT/P.balfo_gt_maxent_wo_MAT/Pinus_balfouriana.asc
Time since start: 638.652
Writing /Users/aph82/Desktop/Maxent Related/Pinus balfouriana/GT/P.balfo_gt_maxent_wo_MAT/plots/Pinus_balfouriana.png
Time since start: 643.715
Ending
