X,Y,Test or train,Raw prediction,Cumulative prediction,Logistic prediction
-118.11811,36.2387,train,0.01815267248046614,37.36754909561514,0.5733444840970874
-118.13361,36.26822,train,0.0199102173255497,41.22950114749494,0.5957830943455996
-118.12209,36.26144,train,0.021925570832234908,43.42200765033882,0.6187734929222674
-118.1318,36.46677,train,0.024878136676383014,45.90990762357701,0.6480962173301247
-118.17618,36.42748,train,0.035661216900084364,60.88543649933363,0.7252701070932853
-118.26086,36.57108,train,0.08518645900743632,99.99996309280306,0.8631300880377779
-118.36187,36.77113,train,0.04104413542186491,69.00918937455592,0.7523788377630652
-118.56702,36.45329,train,0.057758114406466395,83.90886742391388,0.810452925601605
-118.56252,36.46024,train,0.04872290895868709,78.13305563790006,0.7829330458239552
