Raw value,Corresponding cumulative value,Corresponding logistic value,Fractional area,Training omission,Test omission
1.00118E-12,0.000000001,0,0.997917493,0,0
1.26421E-12,0.000000003,0,0.996529155,0,0
2.48106E-12,0.00000001,0,0.992661642,0,0
4.53467E-12,0.000000025,0.000000001,0.988298294,0,0
1.42179E-11,0.000000101,0.000000002,0.9798691,0,0
2.76852E-11,0.00000025,0.000000004,0.972629909,0,0
6.75256E-11,0.000001003,0.000000011,0.956564855,0,0
1.13929E-10,0.000002505,0.000000019,0.940103134,0,0
3.09904E-10,0.000010006,0.00000005,0.902717176,0,0
5.44861E-10,0.000025043,0.000000089,0.867612059,0,0
9.29743E-10,0.000050063,0.000000151,0.834093614,0,0
1.6919E-9,0.000100138,0.000000275,0.795021817,0,0
3.99831E-9,0.000250112,0.00000065,0.740777469,0,0
7.85945E-9,0.00050023,0.000001277,0.696945656,0,0
1.58954E-8,0.001000875,0.000002582,0.653113844,0,0
3.94502E-8,0.002500434,0.000006409,0.595795319,0,0
7.19163E-8,0.005003354,0.000011683,0.549980167,0,0
1.50663E-7,0.01001093,0.000024475,0.503570012,0,0
3.42928E-7,0.025010558,0.000055706,0.440400635,0,0
6.10403E-7,0.050004399,0.000099151,0.387742959,0,0
1.02304E-6,0.100039899,0.000166168,0.326259421,0,0
1.82425E-6,0.200055682,0.000296266,0.253768346,0,0
2.75407E-6,0.300030801,0.000447205,0.209639032,0,0
3.80278E-6,0.400324838,0.000617388,0.178599762,0,0
4.93235E-6,0.500291814,0.000800629,0.155791353,0,0
6.34473E-6,0.600323054,0.001029654,0.137941293,0,0
7.54372E-6,0.700141318,0.001223994,0.123661246,0,0
8.24252E-6,0.750406329,0.001337225,0.117314558,0,0
9.1256E-6,0.800035999,0.001480278,0.111662039,0,0
1.07102E-5,0.900570985,0.001736873,0.101547005,0,0
1.27244E-5,1.001054731,0.002062838,0.093018643,0,0
1.49263E-5,1.100539577,0.002418942,0.08587862,0,0
1.71632E-5,1.200136501,0.00278044,0.079730266,0,0
1.92127E-5,1.301449716,0.003111435,0.074176914,0,0
2.13266E-5,1.400944299,0.003452585,0.069317731,0,0
2.46126E-5,1.502184384,0.003982444,0.064954383,0,0
3.17127E-5,1.751400065,0.005125395,0.056029353,0,0
3.95754E-5,2.00158417,0.006388033,0.048988497,0,0
4.9403E-5,2.253040346,0.007961728,0.043335978,0,0
5.87689E-5,2.500324902,0.009456849,0.038774296,0,0
7.46243E-5,2.756296711,0.011977681,0.03500595,0,0
9.34351E-5,3.001668371,0.014951776,0.032130107,0,0
1.07921E-4,3.257441809,0.0172299,0.029650932,0,0
1.2111E-4,3.510470256,0.019294926,0.027469258,0,0
1.3615E-4,3.755095998,0.021639268,0.025585085,0,0
1.55914E-4,4.00120994,0.024702865,0.023899246,0,0
1.7676E-4,4.252389915,0.027913516,0.022411741,0,0
2.05258E-4,4.501748496,0.03226861,0.02112257,0,0
2.24507E-4,4.763990188,0.035188283,0.019932566,0,0
2.4198E-4,5.023315336,0.037823291,0.018841729,0,0
2.64514E-4,5.252563714,0.041200478,0.017949226,0,0
2.89342E-4,5.504594794,0.044894016,0.017056724,0.011764706,0
3.64368E-4,5.750139501,0.055884409,0.016362555,0.011764706,0
4.14838E-4,6.022820404,0.063136434,0.015668386,0.011764706,0
4.79716E-4,6.285526032,0.072296781,0.015073384,0.011764706,0
5.2316E-4,6.542339679,0.078331271,0.014577549,0.011764706,0
6.32234E-4,6.781916354,0.093141429,0.014180881,0.011764706,0
6.96163E-4,7.053742409,0.101602557,0.013784213,0.011764706,0
7.19222E-4,7.265728435,0.104615965,0.013486712,0.011764706,0
8.47719E-4,7.580888405,0.121044294,0.013090044,0.011764706,0
8.80388E-4,7.755380234,0.125125343,0.01289171,0.011764706,0
9.86733E-4,8.037195038,0.1381516,0.012594209,0.011764706,0
1.05639E-3,8.344506945,0.14647594,0.012296708,0.011764706,0
1.08627E-3,8.561626954,0.149997454,0.012098374,0.011764706,0
1.1319E-3,8.78550222,0.155319869,0.01190004,0.011764706,0
1.22771E-3,9.021530656,0.166280809,0.011701706,0.011764706,0
1.3293E-3,9.280753941,0.177596157,0.011503372,0.011764706,0
1.41142E-3,9.555014039,0.186521496,0.011305038,0.011764706,0
1.64852E-3,9.870655625,0.211235561,0.011106704,0.023529412,0
1.72987E-3,10.043642938,0.219373039,0.011007537,0.023529412,0
2.00378E-3,10.435311781,0.245578231,0.010809203,0.035294118,0
2.04806E-3,10.640117326,0.249649775,0.010710036,0.035294118,0
2.09311E-3,10.849428022,0.253747893,0.010610869,0.035294118,0
2.1017E-3,11.059598412,0.254524834,0.010511702,0.047058824,0
2.21596E-3,11.281194348,0.264699044,0.010412535,0.047058824,0
2.33754E-3,11.514948604,0.275225139,0.010313368,0.047058824,0
2.36344E-3,11.75129299,0.277428729,0.010214201,0.058823529,0
2.43028E-3,12.236902219,0.28305342,0.010015867,0.058823529,0
2.60043E-3,12.49694511,0.296985247,0.0099167,0.058823529,0
2.71312E-3,12.768257382,0.305918313,0.009817533,0.070588235,0
2.74765E-3,13.043022104,0.308609766,0.009718366,0.070588235,0
3.04357E-3,13.347379448,0.330850806,0.009619199,0.070588235,0
3.22079E-3,13.669457999,0.343497531,0.009520032,0.070588235,0
3.32004E-3,14.001462465,0.350374475,0.009420865,0.070588235,0
3.56233E-3,14.357695736,0.366570876,0.009321698,0.070588235,0
3.68543E-3,14.726238975,0.374494278,0.009222531,0.070588235,0
3.93091E-3,15.119329498,0.389716971,0.009123364,0.070588235,0
3.96744E-3,15.516073053,0.391919246,0.009024197,0.070588235,0
4.09655E-3,15.925728017,0.399577283,0.00892503,0.070588235,0
4.11913E-3,16.337640838,0.400896696,0.008825863,0.070588235,0
4.18902E-3,16.756542777,0.404944384,0.008726696,0.070588235,0
4.32303E-3,17.188845394,0.412554259,0.008627529,0.070588235,0
4.54474E-3,17.643319793,0.424726436,0.008528362,0.082352941,0
4.58325E-3,18.101645162,0.426789365,0.008429195,0.094117647,0
4.62303E-3,18.563948254,0.428904717,0.008330028,0.105882353,0
4.65269E-3,19.029217555,0.430472012,0.008230861,0.117647059,0
4.80105E-3,19.509322811,0.438183717,0.008131694,0.117647059,0
4.87698E-3,19.997020472,0.442050007,0.008032527,0.129411765,0
4.94261E-3,20.491281136,0.445349466,0.00793336,0.141176471,0
5.25377E-3,21.016658129,0.460476155,0.007834193,0.152941176,0
5.54076E-3,21.570734037,0.473714181,0.007735026,0.164705882,0
5.81437E-3,22.152170767,0.485743907,0.007635859,0.164705882,0
5.85663E-3,22.737834111,0.487553355,0.007536692,0.176470588,0
6.35363E-3,23.37319669,0.507912797,0.007437525,0.176470588,0
6.50344E-3,24.023540309,0.513736261,0.007338358,0.188235294,0
6.53694E-3,24.677234057,0.515019723,0.007239191,0.188235294,0
6.89255E-3,25.366488712,0.528237125,0.007140024,0.2,0
6.92223E-3,26.05871185,0.529307956,0.007040857,0.211764706,0
6.97828E-3,26.756539841,0.531316614,0.00694169,0.223529412,0
7.22094E-3,27.478633452,0.539818697,0.006842523,0.235294118,0
7.35949E-3,28.214582818,0.544536483,0.006743356,0.247058824,0
7.53842E-3,28.968424503,0.55048745,0.006644189,0.258823529,0
7.61633E-3,29.730057823,0.55303061,0.006545022,0.270588235,0
7.82811E-3,30.51286875,0.559799702,0.006445855,0.282352941,0
7.84792E-3,31.297661149,0.560422575,0.006346688,0.294117647,0
8.15346E-3,32.113006753,0.569808549,0.006247521,0.305882353,0
8.19669E-3,32.932675976,0.571104493,0.006148354,0.317647059,0
8.20901E-3,33.753576509,0.571472134,0.006049187,0.329411765,0
8.24326E-3,34.577902471,0.572491579,0.00595002,0.341176471,0
8.25726E-3,35.403628172,0.572906763,0.005850853,0.352941176,0
8.30657E-3,36.234285616,0.574363187,0.005751686,0.364705882,0
8.35341E-3,37.069626213,0.575737033,0.005652519,0.376470588,0
8.52704E-3,37.922330664,0.580754392,0.005553352,0.388235294,0
8.55579E-3,38.777909789,0.581573614,0.005454185,0.4,0
8.56066E-3,39.633975308,0.58171191,0.005355018,0.411764706,0
8.60976E-3,40.494951256,0.58310298,0.005255851,0.423529412,0
8.7315E-3,41.368101473,0.586512238,0.005156684,0.423529412,0
8.97568E-3,42.265669652,0.593184831,0.005057517,0.435294118,0
9.04583E-3,43.170252848,0.595062157,0.00495835,0.447058824,0
9.10779E-3,44.081032016,0.596705943,0.004859183,0.447058824,0
9.1628E-3,44.997312472,0.598154284,0.004760016,0.458823529,0
9.16553E-3,45.913865922,0.598225886,0.004660849,0.470588235,0
9.34247E-3,46.848112522,0.602812666,0.004561682,0.482352941,0
9.4177E-3,47.789882321,0.604731404,0.004462515,0.494117647,0
9.43248E-3,48.733129973,0.605106143,0.004363348,0.505882353,0
9.46813E-3,49.679942536,0.606007181,0.004264181,0.517647059,0
9.48018E-3,50.627960958,0.606311034,0.004165014,0.529411765,0
1.00741E-2,51.635370616,0.620717704,0.004065847,0.541176471,0
1.00913E-2,52.644499044,0.621118949,0.00396668,0.552941176,0
1.01381E-2,53.658306499,0.622206971,0.003867513,0.564705882,0
1.02286E-2,54.681161683,0.624293229,0.003768346,0.576470588,0
1.04889E-2,55.730050801,0.630169702,0.003669179,0.588235294,0
1.06327E-2,56.79331994,0.633337474,0.003570012,0.6,0
1.08034E-2,57.873656844,0.637027609,0.003470845,0.611764706,0
1.08132E-2,58.954980914,0.637238768,0.003371678,0.611764706,0
1.08708E-2,60.042062256,0.638465397,0.003272511,0.623529412,0
1.08755E-2,61.129613302,0.638565105,0.003173344,0.635294118,0
1.12512E-2,62.254735767,0.646366399,0.003074177,0.647058824,0
1.12549E-2,63.380223768,0.646440644,0.00297501,0.658823529,0
1.13454E-2,64.514759213,0.648268429,0.002875843,0.670588235,0
1.14804E-2,65.662801969,0.650962308,0.002776676,0.682352941,0
1.15365E-2,66.816449629,0.652068066,0.002677509,0.694117647,0
1.15571E-2,67.972156851,0.652472627,0.002578342,0.705882353,0
1.15866E-2,69.130815308,0.653050702,0.002479175,0.717647059,0
1.16047E-2,70.291289687,0.653405442,0.002380008,0.729411765,0
1.17469E-2,71.465975038,0.656156702,0.002280841,0.741176471,0
1.18406E-2,72.650038366,0.65794849,0.002181674,0.752941176,0
1.18851E-2,73.83854723,0.658791361,0.002082507,0.764705882,0
1.19149E-2,75.030034723,0.659353787,0.00198334,0.776470588,0
1.20167E-2,76.231703174,0.661262239,0.001884173,0.788235294,0
1.20818E-2,77.439881328,0.662471336,0.001785006,0.8,0
1.21884E-2,78.658718614,0.664432607,0.001685839,0.811764706,0
1.22159E-2,79.880310091,0.664935676,0.001586672,0.823529412,0
1.24863E-2,81.128936492,0.669794852,0.001487505,0.835294118,0
1.26139E-2,82.390330636,0.672041023,0.001388338,0.847058824,0
1.26583E-2,83.65616108,0.672814345,0.001289171,0.858823529,0
1.28753E-2,84.943696019,0.676545834,0.001190004,0.870588235,0
1.28786E-2,86.231560232,0.676601788,0.001090837,0.882352941,0
1.29153E-2,87.523089337,0.677223267,0.00099167,0.894117647,0
1.31028E-2,88.833369329,0.680365964,0.000892503,0.905882353,0
1.32968E-2,90.163052829,0.683554255,0.000793336,0.917647059,0
1.33278E-2,91.495835738,0.684057653,0.000694169,0.929411765,0
1.3571E-2,92.852936151,0.687952346,0.000595002,0.941176471,0
1.3631E-2,94.216034645,0.688898281,0.000495835,0.952941176,0
1.40532E-2,95.621350575,0.695397383,0.000396668,0.952941176,0
1.41664E-2,97.037990234,0.69709467,0.000297501,0.964705882,0
1.42816E-2,98.466146414,0.698801564,0.000198334,0.976470588,0
1.53385E-2,100,0.713612955,0.000099167,0.988235294,0
1.53385E-2,100,0.713612955,0.000099167,1,0
