Predictor variable,Categorical,Sample average
Annual Mean Temperature,false,82.69411764705882
Annual Precipitation,false,826.1294117647059
Isothermality,false,45.10588235294118
Max Temperature of Warmest Month,false,261.61176470588236
Mean Diurnal Range,false,143.04705882352943
Mean Temperature of Coldest Quarter,false,12.717647058823529
Mean Temperature of Driest Quarter,false,143.31764705882352
Mean Temperature of Warmest Quarter,false,164.94117647058823
Mean Temperature of Wettest Quarter,false,33.576470588235296
Min Temperature of Coldest Month,false,-52.10588235294118
Precipitation Seasonality,false,70.5764705882353
Precipitation of Coldest Quarter,false,386.4117647058824
Precipitation of Driest Month,false,7.635294117647059
Precipitation of Driest Quarter,false,40.16470588235294
Precipitation of Warmest Quarter,false,64.29411764705883
Precipitation of Wettest Month,false,144.71764705882353
Precipitation of Wettest Quarter,false,402.83529411764704
Temperature Annual Range,false,313.7176470588235
Temperature Seasonality,false,6107.576470588236
