Predictor variable,Categorical,Sample average
bio1,false,50.79746835443038
bio10,false,129.44303797468353
bio11,false,-13.708860759493671
bio12,false,805.7594936708861
bio13,false,136.26582278481013
bio14,false,10.443037974683545
bio15,false,66.9746835443038
bio16,false,381.1392405063291
bio17,false,49.59493670886076
bio18,false,58.89873417721519
bio19,false,365.9493670886076
bio2,false,131.0
bio3,false,43.64556962025316
bio4,false,5792.303797468355
bio5,false,225.0759493670886
bio6,false,-70.48101265822785
bio7,false,295.55696202531647
bio8,false,-9.430379746835444
bio9,false,121.36708860759494
