Raw value,Corresponding cumulative value,Corresponding logistic value,Fractional area,Training omission,Test omission
2.00625E-12,0.000000001,0.000000001,0.999401795,0,0
2.5247E-12,0.000000003,0.000000001,0.998703888,0,0
6.38121E-12,0.00000001,0.000000003,0.996909272,0,0
1.14638E-11,0.000000026,0.000000006,0.995214357,0,0
2.60026E-11,0.000000102,0.000000014,0.99112662,0,0
4.86219E-11,0.000000252,0.000000026,0.987038883,0,0
1.38589E-10,0.000001005,0.000000073,0.978664008,0,0
2.56876E-10,0.000002519,0.000000135,0.97108674,0,0
5.1078E-10,0.000010001,0.000000269,0.951645065,0,0
8.7648E-10,0.000025037,0.000000462,0.929511466,0,0
1.31604E-9,0.000050015,0.000000693,0.906879362,0,0
2.05253E-9,0.0001001,0.000001081,0.876470588,0,0
4.40399E-9,0.000250343,0.000002319,0.828215354,0,0
7.24473E-9,0.000500471,0.000003815,0.784346959,0,0
1.26622E-8,0.001000803,0.000006668,0.733599202,0,0
2.73007E-8,0.002500196,0.000014376,0.656131605,0,0
4.71752E-8,0.005002952,0.000024842,0.587537388,0,0
9.27712E-8,0.010000494,0.000048851,0.513060818,0,0
2.31806E-7,0.025013502,0.000122054,0.41774676,0,0
4.43775E-7,0.050016699,0.000233637,0.341774676,0,0
1.01061E-6,0.10006058,0.000531904,0.268594217,0,0
2.62109E-6,0.200015076,0.001378363,0.207278166,0,0
4.71215E-6,0.300212064,0.002475276,0.178763709,0,0.027272727
7.31029E-6,0.400620211,0.003834837,0.161714855,0,0.040909091
1.01867E-5,0.500012785,0.005335717,0.150149551,0,0.05
1.27835E-5,0.600157928,0.006686772,0.141475573,0,0.05
1.56947E-5,0.701160318,0.00819706,0.13449651,0,0.059090909
1.76108E-5,0.751265402,0.009188655,0.131505484,0,0.059090909
1.9014E-5,0.800870508,0.009913498,0.128813559,0,0.059090909
2.21064E-5,0.901650952,0.011507254,0.123928215,0,0.072727273
2.53051E-5,1.00146238,0.013150419,0.119740778,0,0.077272727
2.88505E-5,1.100641226,0.014965316,0.116051844,0,0.077272727
3.25826E-5,1.201072197,0.016868543,0.112861416,0,0.095454545
3.53524E-5,1.302952154,0.018276317,0.109870389,0,0.104545455
3.89139E-5,1.403586003,0.020080582,0.107178465,0,0.104545455
4.2599E-5,1.501115352,0.021940439,0.104785643,0,0.104545455
5.14322E-5,1.753877767,0.026369988,0.099401795,0,0.131818182
6.15134E-5,2.003313033,0.031376553,0.095014955,0,0.159090909
6.88265E-5,2.252074319,0.034976351,0.091226321,0,0.168181818
7.7708E-5,2.502263101,0.039312295,0.087836491,0,0.186363636
8.63081E-5,2.756190344,0.043473926,0.084745763,0,0.195454545
9.66132E-5,3.003159175,0.048413382,0.082053838,0,0.209090909
1.04752E-4,3.255827719,0.0522784,0.079561316,0,0.222727273
1.1315E-4,3.509444982,0.056234116,0.077268195,0,0.240909091
1.20101E-4,3.754362041,0.059483289,0.075174477,0,0.254545455
1.29087E-4,4.004562491,0.063650489,0.073180459,0,0.268181818
1.37172E-4,4.256777355,0.06736827,0.071286142,0,0.268181818
1.47429E-4,4.501551032,0.07204317,0.069591226,0,0.277272727
1.61201E-4,4.764051153,0.078246435,0.067896311,0,0.286363636
1.71029E-4,5.013720042,0.082622604,0.066400798,0,0.304545455
1.80911E-4,5.26282733,0.086981006,0.065004985,0,0.309090909
1.90655E-4,5.504618107,0.09123861,0.063708873,0,0.309090909
2.00201E-4,5.758110642,0.095371142,0.062412762,0,0.309090909
2.10521E-4,6.0040784,0.099797001,0.061216351,0,0.322727273
2.17598E-4,6.260314405,0.102806808,0.06001994,0,0.327272727
2.29408E-4,6.507203668,0.107784938,0.05892323,0,0.336363636
2.36968E-4,6.762696116,0.110943106,0.05782652,0,0.354545455
2.43245E-4,7.003366611,0.113547908,0.056829511,0.026315789,0.359090909
2.5125E-4,7.251110777,0.116848044,0.055832502,0.026315789,0.359090909
2.69056E-4,7.509671893,0.124101465,0.054835494,0.026315789,0.363636364
2.77828E-4,7.756728425,0.127631061,0.053938185,0.026315789,0.363636364
2.88453E-4,8.012952841,0.131868753,0.053040877,0.026315789,0.363636364
2.96682E-4,8.27627612,0.13512224,0.052143569,0.026315789,0.363636364
3.06711E-4,8.517399019,0.139054761,0.051345962,0.026315789,0.363636364
3.16003E-4,8.767521468,0.142666579,0.050548355,0.026315789,0.368181818
3.32687E-4,9.027289037,0.149075985,0.049750748,0.026315789,0.372727273
3.47459E-4,9.265194343,0.154671399,0.049052841,0.026315789,0.372727273
3.5648E-4,9.511981149,0.15805236,0.048354935,0.026315789,0.377272727
3.62415E-4,9.764566542,0.160261974,0.047657029,0.026315789,0.377272727
3.72029E-4,10.023046007,0.163817,0.046959123,0.026315789,0.381818182
3.83196E-4,10.250358455,0.167908462,0.046360917,0.026315789,0.381818182
3.94642E-4,10.523437448,0.172061016,0.045663011,0.026315789,0.4
4.08781E-4,10.764438074,0.177133592,0.045064806,0.026315789,0.4
4.21503E-4,11.012477888,0.181644889,0.0444666,0.026315789,0.4
4.30008E-4,11.268073144,0.184633327,0.043868395,0.026315789,0.4
4.39197E-4,11.530407639,0.187837864,0.043270189,0.052631579,0.404545455
4.46797E-4,11.753101314,0.19046892,0.042771685,0.052631579,0.413636364
4.57966E-4,12.025522742,0.194305293,0.04217348,0.052631579,0.431818182
4.74704E-4,12.261483514,0.199986524,0.041674975,0.078947368,0.431818182
4.84824E-4,12.501640129,0.203382889,0.041176471,0.105263158,0.436363636
4.98315E-4,12.797404139,0.207866072,0.040578265,0.105263158,0.436363636
5.22868E-4,13.051815836,0.215896727,0.040079761,0.105263158,0.436363636
5.38704E-4,13.26377099,0.220990463,0.039680957,0.105263158,0.440909091
5.49184E-4,13.511374546,0.224325348,0.039182453,0.105263158,0.445454545
5.68522E-4,13.76162651,0.230404229,0.038783649,0.105263158,0.454545455
5.83398E-4,14.051873843,0.235016304,0.038285145,0.105263158,0.454545455
5.99059E-4,14.289263489,0.239812292,0.037886341,0.105263158,0.459090909
6.17422E-4,14.532700271,0.245359512,0.037487537,0.105263158,0.459090909
6.28894E-4,14.782379552,0.248784136,0.037088734,0.105263158,0.459090909
6.71528E-4,15.044241493,0.261243745,0.03668993,0.105263158,0.459090909
6.91428E-4,15.308562163,0.26691893,0.036291127,0.105263158,0.463636364
7.03201E-4,15.528754446,0.270235756,0.035992024,0.105263158,0.468181818
7.21668E-4,15.816306469,0.275378214,0.03559322,0.105263158,0.472727273
7.30178E-4,16.034669215,0.277723744,0.035294118,0.105263158,0.477272727
7.44108E-4,16.256363583,0.281530309,0.034995015,0.105263158,0.481818182
7.55826E-4,16.556397637,0.284701544,0.034596211,0.105263158,0.481818182
7.79526E-4,16.786218497,0.291030681,0.034297109,0.105263158,0.481818182
8.06796E-4,17.024147226,0.298176098,0.033998006,0.105263158,0.481818182
8.15368E-4,17.267961057,0.300392491,0.033698903,0.105263158,0.481818182
8.24689E-4,17.515036261,0.302786532,0.033399801,0.105263158,0.486363636
8.29253E-4,17.76304859,0.303952889,0.033100698,0.105263158,0.490909091
8.40682E-4,18.013366625,0.306856542,0.032801595,0.105263158,0.490909091
8.53351E-4,18.268915322,0.310047116,0.032502493,0.105263158,0.490909091
8.57023E-4,18.525517587,0.310966551,0.03220339,0.131578947,0.490909091
8.77981E-4,18.785264433,0.316166716,0.031904287,0.131578947,0.5
8.88291E-4,19.050855883,0.318696035,0.031605184,0.131578947,0.5
8.99272E-4,19.3190339,0.321369831,0.031306082,0.131578947,0.513636364
9.07874E-4,19.590063928,0.32344958,0.031006979,0.131578947,0.513636364
9.13542E-4,19.772513566,0.324812964,0.030807577,0.131578947,0.513636364
9.17949E-4,20.047836081,0.325869268,0.030508475,0.157894737,0.513636364
9.25307E-4,20.32497394,0.327625485,0.030209372,0.157894737,0.518181818
9.29679E-4,20.510865556,0.32866482,0.03000997,0.157894737,0.518181818
9.4163E-4,20.793020556,0.331489179,0.029710867,0.157894737,0.522727273
9.64297E-4,21.081336074,0.336781476,0.029411765,0.157894737,0.531818182
9.86024E-4,21.277435555,0.341776191,0.029212363,0.157894737,0.545454545
9.96378E-4,21.574970689,0.344130032,0.02891326,0.157894737,0.554545455
1.00321E-3,21.775107685,0.345674774,0.028713858,0.157894737,0.554545455
1.0116E-3,22.077660227,0.347561065,0.028414756,0.157894737,0.554545455
1.01576E-3,22.280680706,0.348490987,0.028215354,0.184210526,0.554545455
1.03368E-3,22.590051989,0.352473089,0.027916251,0.184210526,0.559090909
1.046E-3,22.79542864,0.355180853,0.027716849,0.184210526,0.563636364
1.05623E-3,23.009056953,0.357413603,0.027517448,0.184210526,0.572727273
1.06324E-3,23.327366379,0.358933335,0.027218345,0.184210526,0.572727273
1.07796E-3,23.542365761,0.362104204,0.027018943,0.184210526,0.572727273
1.09117E-3,23.760271732,0.36492153,0.026819541,0.184210526,0.581818182
1.09676E-3,24.088272162,0.366106123,0.026520439,0.184210526,0.581818182
1.1332E-3,24.314819877,0.37372523,0.026321037,0.184210526,0.590909091
1.13752E-3,24.542081592,0.374616552,0.026121635,0.184210526,0.595454545
1.15364E-3,24.771364832,0.377918729,0.025922233,0.184210526,0.595454545
1.16112E-3,25.003026867,0.37943848,0.025722832,0.210526316,0.595454545
1.18054E-3,25.262097747,0.383351676,0.025423729,0.210526316,0.595454545
1.2207E-3,25.584828071,0.39129159,0.025224327,0.210526316,0.609090909
1.23289E-3,25.845315516,0.393660102,0.025024925,0.210526316,0.613636364
1.24404E-3,26.094099623,0.395811775,0.024825523,0.210526316,0.622727273
1.26329E-3,26.346537689,0.399489704,0.024626122,0.210526316,0.631818182
1.27434E-3,26.601017238,0.401579666,0.02442672,0.210526316,0.631818182
1.27931E-3,26.856510074,0.402515758,0.024227318,0.210526316,0.631818182
1.28161E-3,27.11275572,0.402947803,0.024027916,0.210526316,0.631818182
1.29782E-3,27.325714896,0.405974468,0.023828514,0.210526316,0.631818182
1.31307E-3,27.502947723,0.408795496,0.023728814,0.210526316,0.645454545
1.32572E-3,27.767954735,0.411115708,0.023529412,0.210526316,0.65
1.33734E-3,28.03467518,0.41322986,0.02333001,0.210526316,0.65
1.38951E-3,28.310471085,0.422537772,0.023130608,0.210526316,0.659090909
1.39908E-3,28.589864628,0.424213682,0.022931206,0.210526316,0.659090909
1.42623E-3,28.87267883,0.42891568,0.022731805,0.210526316,0.663636364
1.42919E-3,29.01559757,0.429422355,0.022632104,0.210526316,0.663636364
1.44967E-3,29.303682754,0.432911891,0.022432702,0.210526316,0.663636364
1.45547E-3,29.59430483,0.433892535,0.0222333,0.210526316,0.663636364
1.47446E-3,29.88909974,0.437079384,0.022033898,0.210526316,0.663636364
1.4764E-3,30.03673993,0.437403547,0.021934197,0.210526316,0.668181818
1.49506E-3,30.334229364,0.440496639,0.021734796,0.236842105,0.668181818
1.51464E-3,30.635576572,0.443706034,0.021535394,0.236842105,0.668181818
1.51627E-3,30.787203737,0.443971324,0.021435693,0.236842105,0.668181818
1.54137E-3,31.095384616,0.448028329,0.021236291,0.236842105,0.672727273
1.54904E-3,31.250288693,0.449255688,0.02113659,0.236842105,0.672727273
1.55589E-3,31.561377865,0.450347212,0.020937188,0.236842105,0.672727273
1.57725E-3,31.87538618,0.453724887,0.020737787,0.236842105,0.672727273
1.60504E-3,32.035889855,0.458056877,0.020638086,0.236842105,0.672727273
1.62212E-3,32.358804909,0.46068655,0.020438684,0.236842105,0.672727273
1.62479E-3,32.521284002,0.461095001,0.020338983,0.236842105,0.672727273
1.62873E-3,32.846839689,0.46169665,0.020139581,0.236842105,0.677272727
1.63354E-3,33.01019401,0.462430209,0.02003988,0.236842105,0.677272727
1.64941E-3,33.33929641,0.464834203,0.019840479,0.236842105,0.677272727
1.65312E-3,33.504608348,0.465392844,0.019740778,0.236842105,0.681818182
1.70122E-3,33.796795974,0.472535078,0.019541376,0.236842105,0.686363636
1.72154E-3,34.013999228,0.475495148,0.019441675,0.236842105,0.690909091
1.72883E-3,34.359213453,0.476549827,0.019242273,0.236842105,0.690909091
1.731E-3,34.53231363,0.476863023,0.019142572,0.236842105,0.690909091
1.74716E-3,34.880352533,0.479181323,0.01894317,0.236842105,0.690909091
1.74914E-3,35.055266764,0.479464361,0.01884347,0.236842105,0.690909091
1.75964E-3,35.406259276,0.480958592,0.018644068,0.236842105,0.690909091
1.76436E-3,35.582695219,0.481626612,0.018544367,0.263157895,0.690909091
1.78452E-3,35.761146804,0.484463202,0.018444666,0.263157895,0.695454545
1.82743E-3,36.116144333,0.490400096,0.018245264,0.263157895,0.695454545
1.83738E-3,36.294845312,0.491757259,0.018145563,0.263157895,0.704545455
1.84506E-3,36.676843435,0.492799481,0.017946162,0.263157895,0.709090909
1.84785E-3,36.861628023,0.493176979,0.017846461,0.263157895,0.713636364
1.85301E-3,37.046928859,0.493874332,0.01774676,0.263157895,0.713636364
1.89683E-3,37.426091535,0.499716854,0.017547358,0.263157895,0.713636364
1.90443E-3,37.616534196,0.500716655,0.017447657,0.263157895,0.718181818
1.90591E-3,37.807125216,0.500911333,0.017347956,0.263157895,0.718181818
1.90742E-3,38.188561632,0.501109086,0.017148554,0.263157895,0.718181818
1.92642E-3,38.381203983,0.503587646,0.017048853,0.263157895,0.718181818
1.95008E-3,38.576211935,0.506638559,0.016949153,0.263157895,0.718181818
1.95489E-3,38.771700657,0.50725403,0.016849452,0.263157895,0.718181818
1.97977E-3,39.167370835,0.51041532,0.01665005,0.263157895,0.718181818
1.98277E-3,39.365647366,0.510792858,0.016550349,0.263157895,0.718181818
1.98722E-3,39.564369327,0.51135358,0.016450648,0.263157895,0.718181818
1.9885E-3,39.763219437,0.51151466,0.016350947,0.263157895,0.718181818
2.00559E-3,40.164082757,0.513652155,0.016151545,0.289473684,0.718181818
2.00729E-3,40.364811818,0.513864321,0.016051844,0.289473684,0.718181818
2.01397E-3,40.566209114,0.514694522,0.015952144,0.289473684,0.722727273
2.03513E-3,40.769721945,0.517304215,0.015852443,0.289473684,0.731818182
2.05099E-3,41.179312063,0.519242173,0.015653041,0.289473684,0.731818182
2.06192E-3,41.385504018,0.520569139,0.01555334,0.289473684,0.731818182
2.06814E-3,41.592317883,0.521320726,0.015453639,0.289473684,0.736363636
2.08389E-3,41.800706433,0.523213257,0.015353938,0.315789474,0.736363636
2.09008E-3,42.009714606,0.523953853,0.015254237,0.315789474,0.740909091
2.12245E-3,42.38094296,0.527785739,0.015054835,0.315789474,0.740909091
2.13397E-3,42.646239396,0.529134017,0.014955135,0.315789474,0.745454545
2.14065E-3,42.860304412,0.529913046,0.014855434,0.342105263,0.745454545
2.15453E-3,43.075757028,0.531522254,0.014755733,0.342105263,0.745454545
2.15807E-3,43.291563868,0.531931286,0.014656032,0.342105263,0.745454545
2.16738E-3,43.508301727,0.533002961,0.014556331,0.342105263,0.745454545
2.18621E-3,43.809073208,0.535156163,0.014356929,0.342105263,0.75
2.22815E-3,44.169463274,0.539879529,0.014257228,0.368421053,0.759090909
2.23817E-3,44.393279828,0.540993333,0.014157527,0.368421053,0.759090909
2.24685E-3,44.61796449,0.541954464,0.014057827,0.368421053,0.768181818
2.24694E-3,44.842658758,0.541965076,0.013958126,0.368421053,0.768181818
2.25923E-3,45.068581847,0.543318648,0.013858425,0.368421053,0.772727273
2.26522E-3,45.295103991,0.543975623,0.013758724,0.368421053,0.772727273
2.27291E-3,45.522394977,0.544816036,0.013659023,0.394736842,0.772727273
2.31287E-3,45.75368224,0.549134904,0.013559322,0.394736842,0.777272727
2.32015E-3,46.217428886,0.549912683,0.01335992,0.394736842,0.786363636
2.33839E-3,46.451267583,0.551849688,0.013260219,0.394736842,0.790909091
2.34874E-3,46.686141645,0.552942038,0.013160518,0.394736842,0.790909091
2.3573E-3,46.921871749,0.553841182,0.013060818,0.394736842,0.790909091
2.36498E-3,47.158369687,0.554644604,0.012961117,0.394736842,0.790909091
2.36611E-3,47.394981106,0.5547631,0.012861416,0.394736842,0.790909091
2.39018E-3,47.633998719,0.557260858,0.012761715,0.394736842,0.790909091
2.39366E-3,47.873365007,0.557620479,0.012662014,0.394736842,0.790909091
2.41399E-3,48.114763681,0.559705093,0.012562313,0.394736842,0.790909091
2.42137E-3,48.356900467,0.560457318,0.012462612,0.394736842,0.790909091
2.43555E-3,48.600455438,0.561895429,0.012362911,0.394736842,0.790909091
2.43659E-3,48.844114705,0.562000818,0.01226321,0.394736842,0.790909091
2.43828E-3,49.087942961,0.562171473,0.012163509,0.394736842,0.795454545
2.46965E-3,49.33490818,0.56531537,0.012063809,0.394736842,0.795454545
2.4742E-3,49.582327952,0.565767187,0.011964108,0.394736842,0.795454545
2.51925E-3,49.834252463,0.570194549,0.011864407,0.421052632,0.8
2.55201E-3,50.012228817,0.573358501,0.011764706,0.421052632,0.804545455
2.63339E-3,50.352139483,0.581018653,0.011665005,0.421052632,0.809090909
2.65085E-3,50.619380718,0.582626733,0.011565304,0.421052632,0.818181818
2.65277E-3,50.88465728,0.582802437,0.011465603,0.421052632,0.818181818
2.65632E-3,51.150289615,0.583128272,0.011365902,0.421052632,0.818181818
2.68336E-3,51.418625298,0.585587608,0.011266201,0.421052632,0.822727273
2.69294E-3,51.687919444,0.586452604,0.0111665,0.421052632,0.822727273
2.73434E-3,51.961353146,0.590147375,0.0110668,0.421052632,0.827272727
2.78323E-3,52.239676543,0.594427522,0.010967099,0.421052632,0.827272727
2.78793E-3,52.518469724,0.59483404,0.010867398,0.421052632,0.827272727
2.79609E-3,52.798078412,0.595537792,0.010767697,0.421052632,0.831818182
2.79705E-3,53.077783104,0.595620478,0.010667996,0.421052632,0.831818182
2.802E-3,53.357983277,0.596046693,0.010568295,0.421052632,0.831818182
2.81358E-3,53.639341441,0.597039305,0.010468594,0.421052632,0.831818182
2.81691E-3,53.921031999,0.597323328,0.010368893,0.421052632,0.831818182
2.8258E-3,54.203612166,0.598081511,0.010269192,0.421052632,0.831818182
2.87079E-3,54.490690917,0.601872191,0.010169492,0.421052632,0.831818182
2.88E-3,54.778690548,0.60263936,0.010069791,0.447368421,0.831818182
2.90107E-3,55.068797938,0.604384219,0.00997009,0.447368421,0.831818182
2.92263E-3,55.361060883,0.606152865,0.009870389,0.447368421,0.836363636
2.93869E-3,55.654929672,0.607460226,0.009770688,0.473684211,0.836363636
2.94335E-3,55.949264617,0.607838112,0.009670987,0.473684211,0.836363636
2.96023E-3,56.245287244,0.609200156,0.009571286,0.473684211,0.836363636
2.96821E-3,56.542107763,0.609840807,0.009471585,0.473684211,0.840909091
2.98544E-3,56.840652121,0.61121778,0.009371884,0.5,0.840909091
2.99615E-3,57.1402669,0.612067934,0.009272183,0.5,0.845454545
3.04153E-3,57.444420144,0.615631567,0.009172483,0.5,0.845454545
3.06195E-3,57.547333576,0.617213286,0.009072782,0.5,0.845454545
3.10309E-3,57.754728925,0.620361604,0.009072782,0.5,0.85
3.1155E-3,58.066278993,0.621301364,0.008973081,0.5,0.85
3.13589E-3,58.379867788,0.622834798,0.00887338,0.5,0.85
3.15405E-3,58.695273171,0.624190725,0.008773679,0.5,0.85
3.18013E-3,59.013286143,0.626120112,0.008673978,0.5,0.85
3.18466E-3,59.331752012,0.626453199,0.008574277,0.5,0.85
3.19157E-3,59.650909263,0.626960539,0.008474576,0.5,0.85
3.19161E-3,59.970070045,0.626963126,0.008374875,0.526315789,0.85
3.19902E-3,60.128023393,0.627505718,0.008275174,0.526315789,0.85
3.20666E-3,60.290736206,0.628063013,0.008275174,0.526315789,0.854545455
3.21272E-3,60.612008665,0.628504166,0.008175474,0.526315789,0.854545455
3.24845E-3,60.936853771,0.631082587,0.008075773,0.526315789,0.854545455
3.26825E-3,61.263679075,0.632496363,0.007976072,0.526315789,0.854545455
3.27169E-3,61.590848499,0.632740944,0.007876371,0.526315789,0.854545455
3.31181E-3,61.922029319,0.635568199,0.00777667,0.526315789,0.854545455
3.32985E-3,62.013422385,0.63682545,0.007676969,0.526315789,0.859090909
3.37849E-3,62.259878498,0.640172989,0.007676969,0.526315789,0.868181818
3.40179E-3,62.600057215,0.641754328,0.007577268,0.526315789,0.868181818
3.43245E-3,62.943301989,0.643814569,0.007477567,0.526315789,0.868181818
3.44671E-3,63.287973301,0.644765078,0.007377866,0.526315789,0.872727273
3.4773E-3,63.635703208,0.646786031,0.007278166,0.526315789,0.872727273
3.51207E-3,63.778807997,0.649055969,0.007178465,0.526315789,0.886363636
3.56591E-3,64.348684076,0.652513089,0.007078764,0.526315789,0.9
3.58694E-3,64.707378424,0.653845548,0.006979063,0.526315789,0.9
3.61742E-3,65.069120813,0.655758196,0.006879362,0.552631579,0.9
3.66899E-3,65.43601996,0.658946382,0.006779661,0.552631579,0.9
3.71355E-3,65.807375272,0.661654237,0.00667996,0.578947368,0.9
3.73555E-3,66.180930268,0.662975118,0.006580259,0.578947368,0.9
3.74113E-3,66.555043063,0.663308432,0.006480558,0.578947368,0.9
3.74672E-3,66.929715342,0.66364209,0.006380857,0.578947368,0.9
3.77262E-3,67.306977777,0.665178199,0.006281157,0.578947368,0.9
3.78385E-3,67.685362969,0.665839707,0.006181456,0.578947368,0.9
3.78429E-3,68.063791621,0.665865261,0.006081755,0.578947368,0.9
3.81723E-3,68.445514624,0.667790938,0.005982054,0.578947368,0.9
3.84818E-3,68.830332869,0.669580115,0.005882353,0.605263158,0.9
3.98407E-3,69.228739398,0.677211949,0.005782652,0.605263158,0.9
4.01914E-3,69.630653029,0.679124807,0.005682951,0.605263158,0.9
4.04659E-3,70.035312231,0.680606559,0.00558325,0.605263158,0.9
4.0771E-3,70.443022372,0.682237143,0.005483549,0.631578947,0.9
4.09564E-3,70.852586038,0.683219662,0.005383848,0.631578947,0.9
4.11084E-3,71.210584954,0.684021063,0.005284148,0.657894737,0.9
4.1131E-3,71.263896495,0.684140057,0.005284148,0.657894737,0.904545455
4.19011E-3,71.682907132,0.688134384,0.005184447,0.657894737,0.913636364
4.21392E-3,72.104298966,0.689349215,0.005084746,0.657894737,0.913636364
4.22014E-3,72.526312617,0.689664895,0.004985045,0.684210526,0.913636364
4.29727E-3,72.870380369,0.693528089,0.004885344,0.684210526,0.913636364
4.31881E-3,73.389884961,0.694589757,0.004785643,0.684210526,0.918181818
4.32007E-3,73.821891568,0.69465146,0.004685942,0.710526316,0.918181818
4.34558E-3,74.25644937,0.695898953,0.004586241,0.710526316,0.918181818
4.39971E-3,74.6964204,0.698512464,0.00448654,0.736842105,0.918181818
4.41228E-3,75.137648641,0.699113031,0.004386839,0.736842105,0.918181818
4.43744E-3,75.581392719,0.700307685,0.004287139,0.736842105,0.918181818
4.45134E-3,76.026526439,0.700963503,0.004187438,0.736842105,0.918181818
4.54416E-3,76.480942285,0.705271491,0.004087737,0.736842105,0.927272727
4.54499E-3,76.935440828,0.705309315,0.003988036,0.736842105,0.927272727
4.54729E-3,77.390169982,0.705414738,0.003888335,0.736842105,0.927272727
4.55899E-3,77.846069279,0.705948509,0.003788634,0.736842105,0.927272727
4.57473E-3,78.303541893,0.706663148,0.003688933,0.736842105,0.927272727
4.60383E-3,78.763924706,0.707975918,0.003589232,0.736842105,0.927272727
4.61793E-3,79.225717623,0.708607789,0.003489531,0.736842105,0.927272727
4.66255E-3,79.691972901,0.710589488,0.003389831,0.736842105,0.927272727
4.68519E-3,80.138878713,0.711584453,0.00329013,0.736842105,0.931818182
4.7259E-3,80.363716685,0.713356986,0.003190429,0.736842105,0.940909091
4.76191E-3,80.548345012,0.714906594,0.003190429,0.736842105,0.95
4.80811E-3,81.119362978,0.7168701,0.003090728,0.736842105,0.954545455
4.90236E-3,81.609598535,0.720793587,0.002991027,0.763157895,0.954545455
4.97782E-3,82.107380714,0.723857607,0.002891326,0.763157895,0.959090909
5.09049E-3,82.616430172,0.728309124,0.002791625,0.789473684,0.959090909
5.33243E-3,83.149673384,0.737398948,0.002691924,0.789473684,0.963636364
5.40685E-3,83.690358667,0.74007393,0.002592223,0.789473684,0.963636364
5.54818E-3,84.245176291,0.745006505,0.002492522,0.815789474,0.963636364
5.56148E-3,84.801324585,0.74546132,0.002392822,0.815789474,0.963636364
5.5679E-3,85.358114208,0.745679943,0.002293121,0.815789474,0.963636364
5.72475E-3,85.93058881,0.750912301,0.00219342,0.815789474,0.963636364
5.75392E-3,86.04975248,0.751861742,0.002093719,0.815789474,0.963636364
5.8684E-3,86.51742878,0.755519053,0.002093719,0.815789474,0.968181818
5.89441E-3,87.106869664,0.756334968,0.001994018,0.815789474,0.968181818
5.95416E-3,87.70228568,0.758188917,0.001894317,0.842105263,0.968181818
5.99251E-3,88.30153655,0.759363994,0.001794616,0.842105263,0.968181818
6.01878E-3,88.903414313,0.760162358,0.001694915,0.842105263,0.968181818
6.07236E-3,89.510649941,0.761774407,0.001595214,0.842105263,0.968181818
6.13921E-3,90.124570865,0.763755711,0.001495513,0.868421053,0.968181818
6.14395E-3,90.738965671,0.763894904,0.001395813,0.868421053,0.968181818
6.28825E-3,91.367790391,0.768056237,0.001296112,0.894736842,0.968181818
6.32578E-3,91.800085279,0.769114715,0.001196411,0.894736842,0.968181818
6.34332E-3,92.002122664,0.769606099,0.001196411,0.894736842,0.972727273
6.41498E-3,92.643620488,0.771591796,0.00109671,0.894736842,0.972727273
6.55354E-3,93.298974782,0.775336162,0.000997009,0.894736842,0.972727273
6.77985E-3,93.97695977,0.781194441,0.000897308,0.894736842,0.977272727
6.81181E-3,94.658140695,0.781997226,0.000797607,0.921052632,0.977272727
6.84347E-3,95.342487349,0.782786637,0.000697906,0.921052632,0.977272727
7.08495E-3,96.050982059,0.788625156,0.000598205,0.921052632,0.977272727
7.14751E-3,96.765732605,0.790086859,0.000498504,0.947368421,0.977272727
7.43145E-3,97.508877561,0.79647495,0.000398804,0.973684211,0.977272727
7.98109E-3,98.30698643,0.807797278,0.000299103,0.973684211,0.981818182
8.34488E-3,99.141474081,0.814622935,0.000199402,1,0.981818182
8.38042E-3,99.268418002,0.815263923,0.000099701,1,0.986363636
8.58526E-3,100,0.818873263,0.000099701,1,0.995454545
8.84317E-3,100,0.823222038,0,1,0.995454545
