Raw value,Corresponding cumulative value,Corresponding logistic value,Fractional area,Training omission,Test omission
3.76922E-14,0.000000001,0,0.701768408,0,0
9.52161E-14,0.000000003,0,0.676990708,0,0
4.31854E-13,0.00000001,0,0.64172245,0,0
1.01493E-12,0.000000025,0,0.619942052,0,0
3.20719E-12,0.0000001,0,0.581077031,0,0
7.56821E-12,0.00000025,0.000000001,0.551004096,0,0
2.82924E-11,0.000001001,0.000000002,0.504545909,0,0
6.69148E-11,0.000002505,0.000000005,0.471775402,0,0
3.09231E-10,0.00001002,0.000000023,0.424218204,0,0
7.73241E-10,0.000025076,0.000000057,0.394445,0,0
1.61262E-9,0.000050014,0.000000119,0.372664602,0,0
3.25183E-9,0.000100024,0.000000241,0.351583575,0,0
7.72739E-9,0.000250144,0.000000572,0.322509741,0,0
1.48801E-8,0.000500254,0.000001102,0.299830153,0,0
2.76887E-8,0.00100041,0.00000205,0.276151464,0,0
6.09438E-8,0.00250589,0.000004513,0.241282845,0,0
1.2064E-7,0.00500756,0.000008933,0.212308922,0,0
2.29778E-7,0.010017096,0.000017015,0.183235088,0,0
6.27768E-7,0.025041394,0.000046484,0.143470876,0,0
1.38227E-6,0.050125614,0.000102347,0.117394345,0,0
3.42229E-6,0.10021701,0.000253357,0.095114397,0,0
8.62525E-6,0.200342462,0.000638294,0.076231392,0,0
1.51504E-5,0.301391487,0.001120636,0.067439305,0,0
2.18911E-5,0.400267849,0.001618418,0.06194425,0,0
2.89425E-5,0.500234724,0.002138612,0.058047757,0,0
3.57679E-5,0.602852751,0.002641626,0.054850634,0,0
4.0388E-5,0.701685773,0.002981823,0.052252972,0,0
4.57646E-5,0.753526891,0.003377433,0.051054051,0,0
4.75672E-5,0.800213888,0.00351,0.050054951,0,0
5.28664E-5,0.900530094,0.003899503,0.048056749,0,0
5.87914E-5,1.002426319,0.004334647,0.046258367,0,0
6.54673E-5,1.101590274,0.004824479,0.044659806,0,0
7.46972E-5,1.202182477,0.005500917,0.043261065,0,0
8.62712E-5,1.305739387,0.006347848,0.041962234,0,0
9.63997E-5,1.407398473,0.007087824,0.040863223,0,0
1.00858E-4,1.506230095,0.00741318,0.039864122,0,0
1.23348E-4,1.754006755,0.009051283,0.037666101,0,0
1.44813E-4,2.010986054,0.01060965,0.035767809,0,0
1.73263E-4,2.26472708,0.01266766,0.034169248,0,0
1.91214E-4,2.501194135,0.01396177,0.032870417,0,0
2.0682E-4,2.760067732,0.015084082,0.031571586,0,0
2.25412E-4,3.000696158,0.01641778,0.030472575,0,0
2.4454E-4,3.259275763,0.017786171,0.029373564,0,0
2.55059E-4,3.508915151,0.018537035,0.028374463,0,0
2.67076E-4,3.770421246,0.019393476,0.027375362,0,0
2.79E-4,4.015813612,0.020241827,0.026476171,0,0
2.88399E-4,4.271773033,0.020909465,0.025576981,0,0
3.04873E-4,4.509150687,0.022077494,0.0247777,0,0
3.1856E-4,4.759966876,0.023045772,0.023978419,0,0
3.36543E-4,5.020777337,0.024315147,0.023179139,0,0
3.41813E-4,5.258577888,0.024686471,0.022479768,0,0
3.70675E-4,5.511336624,0.026715274,0.021780398,0,0
3.7954E-4,5.773939584,0.027336683,0.021081027,0,0
3.98078E-4,6.008224063,0.028633711,0.020481567,0,0
4.07546E-4,6.289784282,0.029294763,0.019782196,0,0
4.18071E-4,6.538584447,0.030028583,0.019182736,0,0
4.35369E-4,6.751227594,0.031232293,0.018683185,0,0
4.51472E-4,7.016087204,0.03235008,0.018083725,0,0
4.69049E-4,7.294375984,0.03356731,0.017484264,0,0
4.74938E-4,7.530528668,0.033974374,0.016984714,0,0
4.86954E-4,7.771519308,0.034804065,0.016485163,0,0
4.9672E-4,8.018324412,0.035477294,0.015985613,0,0
5.18874E-4,8.271170037,0.037001028,0.015486063,0,0
5.38678E-4,8.537360241,0.038359131,0.014986512,0,0
5.5225E-4,8.756406981,0.039287622,0.014586872,0,0
5.65069E-4,9.037752469,0.040162898,0.014087321,0,0
5.81849E-4,9.268138554,0.041306308,0.013687681,0,0
5.9733E-4,9.505752868,0.042358763,0.013288041,0,0
6.21588E-4,9.811068861,0.044003305,0.01278849,0,0
6.59484E-4,10.004992324,0.04656109,0.01248876,0,0
6.73231E-4,10.273145433,0.047485622,0.01208912,0,0
7.09086E-4,10.55202156,0.049888417,0.011689479,0,0
7.32429E-4,10.769042069,0.051446281,0.011389749,0,0
7.50119E-4,11.066799724,0.052623393,0.010990109,0,0
7.80426E-4,11.296637484,0.054633417,0.010690379,0,0
8.05645E-4,11.534769743,0.056299446,0.010390648,0,0
8.21682E-4,11.780217578,0.057355874,0.010090918,0,0
8.55542E-4,12.033578464,0.059578599,0.009791188,0,0
8.74009E-4,12.294623949,0.060786397,0.009491458,0,0
8.86514E-4,12.559639952,0.061602538,0.009191727,0,0
9.19943E-4,12.831603155,0.063777353,0.008891997,0,0
9.49822E-4,13.018953106,0.065712642,0.008692177,0,0
9.90367E-4,13.311766131,0.068326093,0.008392447,0,0
1.01796E-3,13.514512118,0.070096134,0.008192627,0,0
1.05312E-3,13.826669623,0.072342074,0.007892896,0,0
1.08499E-3,14.043101274,0.074368891,0.007693076,0,0
1.10804E-3,14.262670421,0.075828919,0.007493256,0,0
1.14003E-3,14.598841141,0.07784775,0.007193526,0,0
1.18979E-3,14.836617015,0.080970572,0.006993706,0,0
1.22589E-3,15.080111424,0.0832228,0.006793886,0,0
1.27368E-3,15.332590898,0.086187169,0.006594065,0,0
1.44569E-3,15.621220749,0.096701598,0.006394245,0,0
1.4566E-3,15.766880283,0.097359842,0.006294335,0,0
1.4899E-3,16.063257531,0.099364843,0.006094515,0,0
1.63412E-3,16.379177469,0.107945132,0.005894695,0,0
1.83877E-3,16.56305472,0.119843429,0.005794785,0,0
1.96267E-3,16.945641777,0.126893872,0.005594965,0,0
2.00863E-3,17.146505081,0.129480767,0.005495054,0,0
2.1517E-3,17.361675269,0.137435785,0.005395144,0,0
2.17002E-3,17.578676988,0.138443681,0.005295234,0,0
2.18666E-3,17.797343043,0.139357528,0.005195324,0,0
2.20421E-3,18.017764105,0.140319064,0.005095414,0,0
2.39176E-3,18.481693265,0.150461798,0.004895594,0,0
2.4724E-3,18.728933555,0.154750017,0.004795684,0,0
2.55264E-3,18.984197763,0.158973857,0.004695774,0,0
2.65443E-3,19.249640913,0.164271754,0.004595864,0,0
2.6726E-3,19.516901044,0.165210436,0.004495954,0,0
2.91841E-3,19.808741869,0.177705114,0.004396044,0,0
2.99865E-3,20.108607285,0.181703525,0.004296133,0,0
3.01493E-3,20.410100747,0.182509991,0.004196223,0,0
3.15467E-3,20.725567884,0.18936714,0.004096313,0,0
3.25894E-3,21.051461895,0.194409328,0.003996403,0,0
3.42173E-3,21.393635119,0.20215736,0.003896493,0,0
3.42723E-3,21.736358516,0.20241661,0.003796583,0,0
3.48249E-3,22.084607039,0.205010823,0.003696673,0,0
3.61523E-3,22.446130061,0.211175159,0.003596763,0,0
3.64773E-3,22.810902661,0.212669641,0.003496853,0,0
3.94777E-3,23.205679673,0.226205752,0.003396943,0,0
4.01829E-3,23.607508397,0.229319766,0.003297033,0,0
4.02178E-3,24.009686049,0.229473201,0.003197123,0,0
4.11575E-3,24.421260803,0.233582553,0.003097213,0,0
4.67142E-3,24.888402506,0.257013464,0.002997302,0,0
5.12387E-3,25.400789129,0.275059402,0.002897392,0,0
5.33415E-3,25.934204277,0.28315157,0.002797482,0,0
5.47945E-3,26.482149422,0.28863825,0.002697572,0,0
6.80933E-3,27.163082863,0.335209213,0.002597662,0,0
7.99266E-3,27.962348383,0.371803182,0.002497752,0,0
8.57538E-3,28.819886122,0.388382381,0.002397842,0,0
9.73067E-3,29.792952862,0.418793191,0.002297932,0,0
1.02185E-2,30.814807697,0.430746188,0.002198022,0,0
1.0916E-2,31.906406609,0.447003981,0.002098112,0,0
1.1324E-2,33.038802191,0.456090543,0.001998202,0,0
1.20099E-2,34.239791849,0.47071334,0.001898292,0,0
1.30145E-2,35.541245896,0.49076488,0.001798381,0,0
1.82816E-2,37.369402242,0.575146694,0.001698471,0,0
1.8766E-2,39.246003315,0.581524652,0.001598561,0.111111111,0
2.00606E-2,41.252064476,0.59766525,0.001498651,0.111111111,0
2.20806E-2,43.460120917,0.6205035,0.001398741,0.222222222,0
2.50555E-2,45.965669371,0.649781939,0.001298831,0.333333333,0
2.67226E-2,48.637926472,0.664295697,0.001198921,0.444444444,0
2.72775E-2,51.365680665,0.668864051,0.001099011,0.444444444,0
2.97869E-2,54.344372891,0.688058359,0.000999101,0.444444444,0
3.06164E-2,57.406015498,0.693923097,0.000899191,0.444444444,0
3.56787E-2,60.973887453,0.725426846,0.000799281,0.444444444,0
3.99688E-2,64.970767085,0.747455471,0.000699371,0.555555556,0
4.08746E-2,69.058230601,0.751662329,0.00059946,0.555555556,0
4.31812E-2,73.376352679,0.761767406,0.00049955,0.666666667,0
4.85479E-2,78.231137926,0.782371132,0.00039964,0.666666667,0
5.75078E-2,83.981921261,0.809830511,0.00029973,0.777777778,0
7.59686E-2,91.578777139,0.849067714,0.00019982,0.888888889,0
8.42122E-2,100,0.861800824,0.00009991,0.888888889,0
8.42122E-2,100,0.861800824,0,0.888888889,0
