X,Y,Test or train,Raw prediction,Cumulative prediction,Logistic prediction
-118.11811,36.2387,train,0.00237969853522428,31.45692053019305,0.40544216605058214
-118.13361,36.26822,train,0.00292809584006674,34.44168674399565,0.4562468835630806
-118.12209,36.26144,train,0.0034429387142264575,36.33900817703104,0.49662800532861184
-118.1318,36.46677,train,0.004099590623599786,39.795066100144744,0.5401815511092013
-118.17618,36.42748,train,0.0066329127346651424,52.14496289619363,0.6552574865239912
-118.26086,36.57108,train,0.031347838494963906,96.66149834299802,0.8998295165040493
-118.36187,36.77113,train,0.010454525323633989,64.67060875797117,0.7497391107098011
-118.56702,36.45329,train,0.007690370848200542,57.19041507909441,0.6878647055526521
-118.56252,36.46024,train,0.006758922881377992,52.82084780022708,0.6594962108702367
-123.0053,41.00259,test,8.92714234133452E-5,7.113135183165749,0.024943371940682805
-118.20371,36.41124,test,0.0037720422108956757,37.440323569934336,0.5194409411683191
-118.46711,36.36415,test,0.010179687070887499,63.624860085291424,0.7447073339438411
-118.31136,36.49873,test,0.01048692685004452,64.89835285492659,0.7503192821178168
-118.34137,36.45847,test,0.005129209221639634,43.53187613139318,0.5951117095865015
-118.2573,36.46635,test,0.012478395350427898,71.95352389245113,0.7814583449522925
-118.36959,36.41474,test,0.0022208693588261857,30.28869659878919,0.3889055910752866
-118.48147,36.35305,test,0.010179687070887499,63.624860085291424,0.7447073339438411
-118.3958,36.48,test,0.0010320719790820727,22.009866655485332,0.22824541804609744
-123.03039,40.20314,test,2.827834642970743E-5,3.7843490351081472,0.008038255358046701
-118.35094,36.40895,test,0.0022208693588261857,30.28869659878919,0.3889055910752866
-118.45021,36.52422,test,0.023014290184807624,85.55334767321845,0.8683332851803254
-118.26512,36.36316,test,0.0015483590320314194,27.28414014461658,0.307332920762279
-123.08234,41.46492,test,5.495980557905688E-5,5.49161359901887,0.015504992840232263
-118.67509,36.60694,test,0.002342912938139709,30.987580532272997,0.40169235545730153
-118.55312,36.43119,test,0.007690370848200542,57.19041507909441,0.6878647055526521
-122.92271,41.05849,test,3.435189227203026E-5,4.224523015462813,0.009747860798411478
-118.36849,36.57387,test,0.013413536255333229,72.63720001705356,0.7935487713666489
-123.03244,41.04647,test,4.344565398102113E-6,0.7994780544554356,0.0012434228832099257
-118.29607,36.3531,test,0.0015663136844370849,27.355049008043284,0.30979268775408525
-118.43616,36.81549,test,0.014882769536700985,76.9880420964176,0.8100585357476296
-122.95302,41.03993,test,7.721575852232503E-5,6.518686591807139,0.021647812943412646
-118.17992,36.39194,test,0.0037720422108956757,37.440323569934336,0.5194409411683191
-123.09622,41.55203,test,2.022231564465709E-4,10.799361325918444,0.05477459021391773
-118.54559,36.43986,test,0.007690370848200542,57.19041507909441,0.6878647055526521
-118.49429,36.35947,test,0.010179687070887499,63.624860085291424,0.7447073339438411
-118.5857,36.35225,test,0.004744688341381722,42.531742929159115,0.5762046407318991
-118.28539,36.55004,test,0.031347838494963906,96.66149834299802,0.8998295165040493
-118.15849,36.34155,test,0.004494124411565407,41.13567432721806,0.5629042564119493
-118.28272,36.37997,test,0.0022919821551343742,30.533059924831612,0.3964218621027575
-118.53211,36.45327,test,0.0070707249232235675,54.23170947203303,0.6695497697801841
-122.99317,40.99217,test,5.785698879567992E-5,5.643945060253329,0.016309002080481815
-122.98002,41.03591,test,1.3157677528222677E-4,8.816890990445769,0.0363344375698364
-122.95209,41.03902,test,7.721575852232503E-5,6.518686591807139,0.021647812943412646
-118.25481,36.34132,test,0.0015483590320314194,27.28414014461658,0.307332920762279
-123.16042,41.56838,test,5.915860159900894E-5,5.712258787863055,0.016669790637537464
-118.2424,36.39402,test,0.0036316052588857986,36.913040635564045,0.5099639815429488
-123.04155,40.17735,test,2.827834642970743E-5,3.7843490351081472,0.008038255358046701
-118.43368,36.58908,test,0.006307577666938387,47.62270365525237,0.6438097230854518
-118.20841,36.43219,test,0.00903068032601641,59.73667286093918,0.721278878267287
-118.47958,36.34777,test,0.010179687070887499,63.624860085291424,0.7447073339438411
-118.14769,36.30889,test,0.001861051402865965,29.203263692620947,0.34781172577975317
-122.91243,39.99808,test,1.623123117350512E-5,2.608246372008289,0.004629659207049563
-123.06125,41.03501,test,1.6033726849696054E-4,9.816312385601814,0.04392766286283437
-123.11866,41.56733,test,2.022231564465709E-4,10.799361325918444,0.05477459021391773
-118.2616,36.25992,test,0.0016457465855547265,28.067265367874278,0.32046853656937524
-118.58062,36.38036,test,0.01163840061576555,71.33953983308643,0.769323713011642
-118.22781,36.25978,test,0.0019075684282910247,29.276895375412344,0.353432699091773
-122.95784,41.01681,test,7.721575852232503E-5,6.518686591807139,0.021647812943412646
-118.18017,36.28193,test,0.001088853974556676,22.759492868322287,0.23781652697774983
-118.27245,36.33329,test,0.008199440135770904,58.38150074426376,0.7014583997630274
-118.18295,36.34479,test,0.001172371962034753,23.388012701232256,0.25147057079275775
-118.36379,36.55591,test,0.013413536255333229,72.63720001705356,0.7935487713666489
-118.48405,36.40009,test,0.006479383703504655,50.82030034980685,0.649948269897061
-118.24646,36.33484,test,0.0011512811971649344,23.169836238388033,0.24806890125385092
-118.47714,36.39763,test,0.006479383703504655,50.82030034980685,0.649948269897061
-118.34105,36.50113,test,0.013787860425051384,74.06647491872175,0.7980216088082526
-118.3042,36.30986,test,0.003603886494249752,36.829745090884565,0.5080491239731306
-118.44293,36.53453,test,0.023014290184807624,85.55334767321845,0.8683332851803254
-118.26542,36.52204,test,0.0259704821238234,89.66714648718587,0.8815454296617214
