"species","longitude","latitude"
"Pinus contorta",-119.82936,39.29756
"Pinus contorta",-118.4882,36.07128
"Pinus contorta",-118.85672,37.56967
"Pinus contorta",-120.24594,38.49692
"Pinus contorta",-118.68688,37.08567
"Pinus contorta",-119.25617,37.39338
"Pinus contorta",-118.61161,36.72052
"Pinus contorta",-120.07958,38.13425
"Pinus contorta",-119.95475,39.35841
"Pinus contorta",-119.22264,37.74847
"Pinus contorta",-118.79404,37.25471
"Pinus contorta",-120.41256,39.08396
"Pinus contorta",-119.32053,37.63371
"Pinus contorta",-118.43522,36.51143
"Pinus contorta",-119.85973,39.47044
"Pinus contorta",-119.79676,39.08506
"Pinus contorta",-120.04387,38.91653
"Pinus contorta",-120.05517,38.94096
"Pinus contorta",-120.02557,39.26998
"Pinus contorta",-119.69695,37.95503
"Pinus contorta",-120.00754,38.03484
"Pinus contorta",-118.2136,36.28371
"Pinus contorta",-118.17615,36.25367
"Pinus contorta",-118.78275,36.8847
"Pinus contorta",-119.43443,38.99827
"Pinus contorta",-118.57076,37.12769
"Pinus contorta",-118.28194,37.62059
"Pinus contorta",-119.05484,37.08473
"Pinus contorta",-120.19378,39.35422
"Pinus contorta",-119.27351,37.97541
"Pinus contorta",-120.25689,39.60356
"Pinus contorta",-118.36943,36.08997
"Pinus contorta",-120.04675,38.61278
"Pinus contorta",-120.16405,38.72316
"Pinus contorta",-120.28042,38.60548
"Pinus contorta",-118.71187,36.64249
"Pinus contorta",-118.55676,37.15315
"Pinus contorta",-119.17513,37.69875
"Pinus contorta",-119.48313,39.02491
"Pinus contorta",-120.08068,38.85194
"Pinus contorta",-118.4162,36.57631
"Pinus contorta",-120.40146,38.73913
"Pinus contorta",-119.79226,38.41144
"Pinus contorta",-118.69474,37.46215
"Pinus contorta",-119.92046,39.10146
"Pinus contorta",-118.74942,37.29429
"Pinus contorta",-119.60055,37.59969
"Pinus contorta",-120.10588,39.2472
"Pinus contorta",-119.09757,37.32213
"Pinus contorta",-118.36255,36.2438
"Pinus contorta",-120.3385,38.89991
"Pinus contorta",-120.40215,39.45029
"Pinus contorta",-118.7436,37.11709
"Pinus contorta",-119.53054,37.92928
"Pinus contorta",-118.28718,36.09398
"Pinus contorta",-120.08205,38.70372
"Pinus contorta",-119.4337,38.25871
