Predictor variable,Categorical,Sample average
bio1,false,58.5
bio10,false,140.92105263157896
bio11,false,-12.026315789473685
bio12,false,756.7894736842105
bio13,false,131.3421052631579
bio14,false,11.421052631578947
bio15,false,67.02631578947368
bio16,false,357.3421052631579
bio17,false,44.473684210526315
bio18,false,49.13157894736842
bio19,false,354.94736842105266
bio2,false,141.23684210526315
bio3,false,44.18421052631579
bio4,false,6144.105263157895
bio5,false,239.89473684210526
bio6,false,-75.84210526315789
bio7,false,315.7368421052632
bio8,false,-9.368421052631579
bio9,false,138.1578947368421
