Raw value,Corresponding cumulative value,Corresponding logistic value,Fractional area,Training omission,Test omission
1.52506E-11,0.000000002,0.000000003,0.99990099,0,0
3.45024E-11,0.000000006,0.000000006,0.99980198,0,0
4.03833E-11,0.000000013,0.000000008,0.99960396,0,0
6.38257E-11,0.000000026,0.000000012,0.999405941,0,0
1.20993E-10,0.000000111,0.000000023,0.998514851,0,0
1.7351E-10,0.000000265,0.000000032,0.997524752,0,0
2.48058E-10,0.000001024,0.000000046,0.993960396,0,0
3.61488E-10,0.000002505,0.000000067,0.989207921,0,0
7.31948E-10,0.000010031,0.000000136,0.975148515,0,0
1.45765E-9,0.000025139,0.000000271,0.960990099,0,0
2.31413E-9,0.000050209,0.000000431,0.947623762,0,0
3.42083E-9,0.000100069,0.000000637,0.93029703,0,0
6.6962E-9,0.000250375,0.000001246,0.89960396,0,0
1.05561E-8,0.000500729,0.000001965,0.870693069,0,0
1.75487E-8,0.00100076,0.000003266,0.834455446,0,0
3.68341E-8,0.002502489,0.000006855,0.777326733,0,0
6.39413E-8,0.005001197,0.0000119,0.726534653,0,0
1.18493E-7,0.010006707,0.000022052,0.67019802,0,0
2.47998E-7,0.025023918,0.000046152,0.586831683,0,0
4.15806E-7,0.050039773,0.000077379,0.511287129,0,0
6.74335E-7,0.100016269,0.000125483,0.41950495,0,0
1.21048E-6,0.200081155,0.000225229,0.309207921,0,0
2.00151E-6,0.300153544,0.000372359,0.245247525,0,0
2.8259E-6,0.400262785,0.000525647,0.203861386,0,0
3.75736E-6,0.500012476,0.000698785,0.173465347,0,0
4.63575E-6,0.600157277,0.000862006,0.14970297,0,0
5.62467E-6,0.700294882,0.0010457,0.13049505,0,0
6.23021E-6,0.75016299,0.001158149,0.122178218,0,0
6.89826E-6,0.800513564,0.001282174,0.114554455,0,0
8.4773E-6,0.900400022,0.001575207,0.101584158,0,0
1.00798E-5,1.000191201,0.001872412,0.090891089,0,0
1.2051E-5,1.100264457,0.002237763,0.081881188,0,0
1.47653E-5,1.200154207,0.002740406,0.074455446,0,0
1.77694E-5,1.300346186,0.003296124,0.068316832,0,0
2.17397E-5,1.401989106,0.004029625,0.063168317,0,0
2.50426E-5,1.501855714,0.004639013,0.058910891,0,0
3.37738E-5,1.753334514,0.006246305,0.05029703,0,0
4.44228E-5,2.001626594,0.008199644,0.043960396,0,0
6.16172E-5,2.256051571,0.011337444,0.039207921,0,0
7.25192E-5,2.500381361,0.013316679,0.035643564,0.01,0
8.57198E-5,2.752031348,0.015702626,0.032475248,0.01,0
9.87488E-5,3.009474477,0.018046273,0.02970297,0.01,0
1.2418E-4,3.259608979,0.022588804,0.027524752,0.01,0
1.53716E-4,3.50684705,0.027812136,0.025742574,0.01,0
1.71484E-4,3.764447228,0.03092758,0.024158416,0.01,0
1.94069E-4,4.004025835,0.03485872,0.022871287,0.01,0
2.05509E-4,4.265096264,0.036837944,0.021584158,0.01,0
2.30964E-4,4.505077133,0.041212753,0.02049505,0.01,0
2.77399E-4,4.761137075,0.049091681,0.01950495,0.01,0
3.08211E-4,5.025618973,0.0542488,0.018613861,0.02,0
3.45423E-4,5.251930279,0.060402839,0.017920792,0.02,0
4.00518E-4,5.518198691,0.069368872,0.017227723,0.02,0
4.90187E-4,5.787538654,0.083600933,0.016633663,0.02,0
5.43168E-4,6.048153332,0.091807332,0.016138614,0.02,0
6.15434E-4,6.283009202,0.102766575,0.015742574,0.02,0
6.4211E-4,6.537708145,0.106745461,0.015346535,0.02,0
6.71928E-4,6.800368455,0.111151499,0.014950495,0.02,0
7.0123E-4,7.009378885,0.115439108,0.014653465,0.02,0
8.34024E-4,7.252644168,0.134362932,0.014356436,0.02,0
1.09672E-3,7.566368066,0.169510333,0.014059406,0.02,0
1.123E-3,7.789302754,0.172869797,0.013861386,0.02,0
1.14951E-3,8.017651651,0.176231173,0.013663366,0.02,0
1.21992E-3,8.260479155,0.185028607,0.013465347,0.02,0
1.32884E-3,8.517206699,0.198272726,0.013267327,0.02,0
1.44541E-3,8.795249902,0.211978842,0.013069307,0.03,0
1.59178E-3,9.110999788,0.228539605,0.012871287,0.04,0
1.59388E-3,9.270387298,0.228771617,0.012772277,0.04,0
1.72936E-3,9.604247088,0.243482734,0.012574257,0.04,0
1.83545E-3,9.787791999,0.254616689,0.012475248,0.05,0
2.06667E-3,10.195236519,0.27778211,0.012277228,0.05,0
2.07484E-3,10.402720282,0.278574084,0.012178218,0.06,0
2.08203E-3,10.610923522,0.279270302,0.012079208,0.06,0
2.17768E-3,10.828691267,0.288399571,0.011980198,0.06,0
2.1892E-3,11.047611515,0.28948404,0.011881188,0.06,0
2.38798E-3,11.286409744,0.30768175,0.011782178,0.06,0
2.49213E-3,11.535622592,0.316848826,0.011683168,0.06,0
2.65496E-3,11.801118995,0.330705161,0.011584158,0.06,0
2.71432E-3,12.072550998,0.335617239,0.011485149,0.06,0
2.83112E-3,12.355662515,0.345075241,0.011386139,0.07,0
3.1338E-3,12.669042951,0.36837816,0.011287129,0.07,0
3.38451E-3,13.007493482,0.386459119,0.011188119,0.08,0
3.52381E-3,13.359874414,0.396065544,0.011089109,0.08,0
3.98998E-3,13.758872671,0.42613409,0.010990099,0.08,0
4.25393E-3,14.184265248,0.441867508,0.010891089,0.08,0
4.30002E-3,14.614267132,0.444527013,0.010792079,0.09,0
4.33491E-3,15.04775826,0.446523462,0.010693069,0.1,0
4.34854E-3,15.482611854,0.447299137,0.010594059,0.1,0
4.51735E-3,15.934347022,0.456732823,0.01049505,0.1,0
4.64427E-3,16.398774503,0.463616094,0.01039604,0.11,0
4.65174E-3,16.863948266,0.46401539,0.01029703,0.12,0
4.97438E-3,17.36138578,0.480727354,0.01019802,0.13,0
5.12527E-3,17.873913269,0.488191096,0.01009901,0.14,0
5.18121E-3,18.392034042,0.490903409,0.01,0.14,0
5.18225E-3,18.910259173,0.490953742,0.00990099,0.15,0
5.37668E-3,19.447926824,0.500160468,0.00980198,0.15,0
5.43904E-3,19.991830534,0.503043333,0.00970297,0.16,0
5.5298E-3,20.544810618,0.507180317,0.00960396,0.17,0
5.53572E-3,21.098382792,0.507447797,0.00950495,0.18,0
5.57617E-3,21.655999853,0.509267366,0.009405941,0.19,0
5.75323E-3,22.231322421,0.517076387,0.009306931,0.2,0
5.76249E-3,22.807570972,0.517477959,0.009207921,0.21,0
5.8168E-3,23.389251075,0.519820084,0.009108911,0.22,0
5.81704E-3,23.970954922,0.519830272,0.009009901,0.23,0
5.83502E-3,24.554456461,0.520600417,0.008910891,0.23,0
5.84518E-3,25.138974956,0.521034996,0.008811881,0.24,0
5.89193E-3,25.728167968,0.523022478,0.008712871,0.25,0
5.99545E-3,26.327712747,0.527365606,0.008613861,0.26,0
6.02248E-3,26.929960541,0.528486675,0.008514851,0.27,0
6.03865E-3,27.533825572,0.529154882,0.008415842,0.28,0
6.04177E-3,28.138002451,0.529283513,0.008316832,0.28,0
6.20709E-3,28.758711798,0.536003626,0.008217822,0.29,0
6.26303E-3,29.385014555,0.538234001,0.008118812,0.3,0
6.40107E-3,30.025122046,0.543647959,0.008019802,0.3,0
6.46094E-3,30.671216377,0.545956618,0.007920792,0.3,0
6.48279E-3,31.31949515,0.546793182,0.007821782,0.31,0
6.52371E-3,31.971866011,0.548352039,0.007722772,0.32,0
6.66881E-3,32.638746965,0.553794187,0.007623762,0.32,0
6.68166E-3,33.306913182,0.554269921,0.007524752,0.32,0
6.68509E-3,33.975421854,0.554396508,0.007425743,0.33,0
6.79126E-3,34.654547541,0.558285681,0.007326733,0.33,0
6.86969E-3,35.341516822,0.561115585,0.007227723,0.34,0
6.95452E-3,36.0369687,0.564135504,0.007128713,0.35,0
6.97223E-3,36.73419129,0.564760666,0.007029703,0.36,0
6.98047E-3,37.432238539,0.565051205,0.006930693,0.37,0
7.01431E-3,38.133669173,0.566239173,0.006831683,0.38,0
7.08041E-3,38.841710241,0.568541591,0.006732673,0.39,0
7.0831E-3,39.550020255,0.568634748,0.006633663,0.4,0
7.09786E-3,40.259805986,0.569145187,0.006534653,0.41,0
7.14289E-3,40.974094594,0.570695258,0.006435644,0.42,0
7.28685E-3,41.70277983,0.575577171,0.006336634,0.43,0
7.30229E-3,42.433009172,0.576094194,0.006237624,0.44,0
7.31192E-3,43.164201497,0.576415999,0.006138614,0.45,0
7.39698E-3,43.903899135,0.579237187,0.006039604,0.46,0
7.40547E-3,44.644446237,0.579516889,0.005940594,0.47,0
7.44549E-3,45.388995462,0.580829677,0.005841584,0.48,0
7.54923E-3,46.143918017,0.584194512,0.005742574,0.49,0
7.59473E-3,46.903390933,0.585653543,0.005643564,0.49,0
7.6107E-3,47.664461315,0.58616333,0.005544554,0.5,0
7.69008E-3,48.433469297,0.588677908,0.005445545,0.51,0
7.74633E-3,49.20810233,0.590441464,0.005346535,0.52,0
7.74737E-3,49.98283957,0.590473993,0.005247525,0.52,0
7.97831E-3,50.780670698,0.597557482,0.005148515,0.53,0
8.03075E-3,51.583745286,0.599131785,0.005049505,0.54,0
8.15712E-3,52.399457464,0.602875967,0.004950495,0.55,0
8.20986E-3,53.220443512,0.60441787,0.004851485,0.56,0
8.22415E-3,54.042858092,0.604833466,0.004752475,0.57,0
8.37065E-3,54.879922842,0.609045711,0.004653465,0.58,0
8.40893E-3,55.720816178,0.610131755,0.004554455,0.59,0
8.48766E-3,56.569582564,0.612346224,0.004455446,0.6,0
8.49646E-3,57.419228089,0.612591942,0.004356436,0.61,0
8.57372E-3,58.276599688,0.614738034,0.004257426,0.62,0
8.58511E-3,59.135110545,0.615052479,0.004158416,0.63,0
8.6279E-3,59.997900451,0.616228963,0.004059406,0.64,0
8.64388E-3,60.862288805,0.616666598,0.003960396,0.64,0
8.65107E-3,61.7273958,0.616863028,0.003861386,0.65,0
8.69816E-3,62.597212235,0.618145318,0.003762376,0.66,0
8.72272E-3,63.469484702,0.618810649,0.003663366,0.67,0
8.79687E-3,64.349171282,0.620805118,0.003564356,0.68,0
8.88901E-3,65.238072608,0.623255073,0.003465347,0.69,0
8.91551E-3,66.129623667,0.623953716,0.003366337,0.7,0
8.91812E-3,67.021435597,0.624022359,0.003267327,0.71,0
8.92255E-3,67.913690894,0.624138964,0.003168317,0.71,0
9.02911E-3,68.816601594,0.626919729,0.003069307,0.72,0
9.06424E-3,69.723025148,0.62782749,0.002970297,0.73,0
9.1396E-3,70.636985632,0.629760289,0.002871287,0.74,0
9.20163E-3,71.5571487,0.631335909,0.002772277,0.75,0
9.3266E-3,72.489808731,0.634470083,0.002673267,0.76,0
9.38032E-3,73.427841198,0.635801142,0.002574257,0.77,0
9.61209E-3,74.389049749,0.641433793,0.002475248,0.78,0
9.61802E-3,75.350851919,0.641575778,0.002376238,0.79,0
9.62016E-3,76.312868132,0.641626946,0.002277228,0.8,0
9.63023E-3,77.275891086,0.641867416,0.002178218,0.81,0
9.67425E-3,78.243316513,0.642915212,0.002079208,0.81,0
9.79069E-3,79.222385169,0.645656998,0.001980198,0.81,0
9.80988E-3,80.203372889,0.646104868,0.001881188,0.82,0
9.86957E-3,81.190330228,0.647490847,0.001782178,0.83,0
9.95474E-3,82.185804451,0.649449541,0.001683168,0.84,0
1.0015E-2,83.187301352,0.650821535,0.001584158,0.84,0
1.00901E-2,84.196308246,0.652517376,0.001485149,0.85,0
1.01213E-2,85.20843617,0.653217304,0.001386139,0.86,0
1.04617E-2,86.254605553,0.660672339,0.001287129,0.87,0
1.06341E-2,87.318018303,0.664327628,0.001188119,0.88,0
1.06746E-2,88.38548077,0.665174706,0.001089109,0.89,0
1.09293E-2,89.478406163,0.670404359,0.000990099,0.9,0
1.10525E-2,90.583655559,0.672877272,0.000891089,0.91,0
1.11462E-2,91.698273578,0.674732478,0.000792079,0.92,0
1.13126E-2,92.829529626,0.677975843,0.000693069,0.93,0
1.15222E-2,93.981753498,0.681972268,0.000594059,0.94,0
1.16671E-2,95.148465074,0.684676141,0.00049505,0.95,0
1.17688E-2,96.325340531,0.68654577,0.00039604,0.96,0
1.20531E-2,97.530649557,0.691660231,0.00029703,0.97,0
1.22571E-2,98.756358666,0.695228038,0.00019802,0.98,0
1.24364E-2,100,0.698296736,0.00009901,0.99,0
