Raw value,Corresponding cumulative value,Corresponding logistic value,Fractional area,Training omission,Test omission
1.96979E-13,0.000000001,0,0.978617106,0,0
4.38889E-13,0.000000003,0,0.973421263,0,0
1.3731E-12,0.00000001,0.000000001,0.965027978,0,0
3.05499E-12,0.000000025,0.000000003,0.958033573,0,0
9.47211E-12,0.0000001,0.000000008,0.945543565,0,0
2.03273E-11,0.000000251,0.000000017,0.934952038,0,0
5.42485E-11,0.000001002,0.000000045,0.914368505,0,0
1.2078E-10,0.000002506,0.000000101,0.896482814,0,0
4.60949E-10,0.000010029,0.000000385,0.868105516,0,0
1.19939E-9,0.000025115,0.000001003,0.848920863,0,0
2.21105E-9,0.000050105,0.000001848,0.833633094,0,0
4.15449E-9,0.000100179,0.000003473,0.817645883,0,0
1.03544E-8,0.000250357,0.000008655,0.795263789,0,0
2.26491E-8,0.000501804,0.000018931,0.779976019,0,0
4.67325E-8,0.001002721,0.000039061,0.764588329,0,0
1.00354E-7,0.002505212,0.000083875,0.743904876,0,0
1.70339E-7,0.005008481,0.00014236,0.725119904,0,0
2.94816E-7,0.010027009,0.000246365,0.70333733,0,0
5.34413E-7,0.025046025,0.000446497,0.666966427,0,0
8.8519E-7,0.050030531,0.000739351,0.631494804,0,0
1.53037E-6,0.100062899,0.001277544,0.589928058,0,0.05
2.63572E-6,0.200178752,0.002198261,0.540567546,0,0.05
3.50902E-6,0.300325848,0.002924482,0.507494005,0,0.066666667
4.31762E-6,0.400357686,0.003595968,0.482014388,0,0.066666667
5.22586E-6,0.500204528,0.004349105,0.461031175,0,0.083333333
6.0727E-6,0.600481312,0.005050314,0.443245404,0,0.083333333
7.16288E-6,0.700315569,0.005951554,0.428157474,0,0.166666667
7.65556E-6,0.750629006,0.006358317,0.42136291,0,0.166666667
8.11493E-6,0.800173082,0.006737279,0.415067946,0,0.166666667
9.10098E-6,0.900862187,0.007549743,0.403377298,0,0.166666667
9.90214E-6,1.000726662,0.008208897,0.392885691,0,0.2
1.07276E-5,1.100282823,0.008887116,0.383293365,0,0.2
1.15251E-5,1.200389826,0.009541531,0.37430056,0,0.216666667
1.22706E-5,1.300376078,0.010152405,0.365907274,0,0.216666667
1.3075E-5,1.400303132,0.010810786,0.358013589,0,0.216666667
1.39741E-5,1.500533011,0.011545606,0.350619504,0,0.233333333
1.62827E-5,1.750175563,0.013427361,0.334132694,0,0.266666667
1.81292E-5,2.00178654,0.014927316,0.319544365,0,0.266666667
1.98005E-5,2.250587213,0.016281022,0.306354916,0,0.266666667
2.13973E-5,2.502012296,0.017570986,0.294164668,0,0.266666667
2.26662E-5,2.75133605,0.018593544,0.282873701,0,0.266666667
2.41948E-5,3.001636941,0.019822643,0.272182254,0,0.266666667
2.55578E-5,3.25070044,0.020916006,0.262190248,0,0.266666667
2.70639E-5,3.500318441,0.022121282,0.252697842,0,0.266666667
2.85336E-5,3.750562151,0.023294577,0.243705036,0,0.266666667
3.04308E-5,4.00206414,0.024805046,0.235211831,0,0.266666667
3.26141E-5,4.250911086,0.026537478,0.227318145,0,0.266666667
3.45291E-5,4.503170081,0.028051972,0.219824141,0,0.266666667
3.64075E-5,4.75183536,0.029532948,0.212829736,0,0.266666667
3.8368E-5,5.003228297,0.031073884,0.206135092,0,0.266666667
4.01685E-5,5.250231509,0.032484732,0.199840128,0,0.266666667
4.20032E-5,5.500792339,0.033918077,0.193745004,0,0.266666667
4.36588E-5,5.754020149,0.035207988,0.18784972,0,0.266666667
4.47075E-5,6.001339407,0.036023207,0.182254197,0,0.266666667
4.68422E-5,6.253597755,0.037678468,0.176758593,0,0.266666667
4.85458E-5,6.502377869,0.038995334,0.17156275,0,0.266666667
5.06279E-5,6.750677928,0.040599911,0.166566747,0,0.266666667
5.24581E-5,7.003027436,0.042005956,0.161670663,0,0.266666667
5.48553E-5,7.250422827,0.043841337,0.157074341,0,0.266666667
5.68307E-5,7.502040242,0.045348555,0.152577938,0,0.266666667
5.8722E-5,7.750187572,0.046787079,0.148281375,0,0.266666667
6.05073E-5,8.000433014,0.048141101,0.144084732,0,0.266666667
6.26211E-5,8.252978153,0.049739177,0.13998801,0,0.266666667
6.51309E-5,8.502566565,0.051629801,0.136091127,0,0.266666667
6.86252E-5,8.751258989,0.054249457,0.132394085,0,0.266666667
7.19193E-5,9.004928831,0.056705874,0.128796962,0,0.266666667
7.45235E-5,9.254586787,0.058638801,0.12539968,0,0.266666667
7.72033E-5,9.505279525,0.060619524,0.122102318,0,0.266666667
8.14476E-5,9.751174869,0.06373972,0.119004796,0,0.266666667
8.44918E-5,10.007613514,0.065964947,0.115907274,0,0.266666667
8.74196E-5,10.257026445,0.068095073,0.113009592,0.083333333,0.266666667
9.04415E-5,10.506378511,0.070283575,0.110211831,0.083333333,0.266666667
9.35324E-5,10.754234462,0.07251133,0.107513989,0.083333333,0.266666667
9.73587E-5,11.002626005,0.075254519,0.104916067,0.083333333,0.266666667
1.01162E-4,11.251460776,0.077964831,0.102418066,0.083333333,0.266666667
1.03816E-4,11.507749844,0.079847518,0.099920064,0.083333333,0.266666667
1.08489E-4,11.752328405,0.083142225,0.097621902,0.083333333,0.266666667
1.11442E-4,12.005038489,0.08521251,0.095323741,0.083333333,0.266666667
1.15347E-4,12.254811177,0.087936312,0.0931255,0.083333333,0.266666667
1.19474E-4,12.501292437,0.090796502,0.091027178,0.083333333,0.266666667
1.22988E-4,12.756057774,0.093218183,0.088928857,0.083333333,0.266666667
1.27544E-4,13.006659677,0.096338935,0.086930456,0.083333333,0.266666667
1.33615E-4,13.255055127,0.100464015,0.085031974,0.083333333,0.266666667
1.38065E-4,13.513671291,0.103463778,0.083133493,0.083333333,0.266666667
1.42533E-4,13.751739166,0.106455362,0.081434852,0.083333333,0.266666667
1.48128E-4,14.013927052,0.11017361,0.079636291,0.083333333,0.266666667
1.52575E-4,14.25399217,0.113107157,0.07803757,0.083333333,0.266666667
1.57469E-4,14.502841687,0.11631322,0.076438849,0.083333333,0.266666667
1.63714E-4,14.75929519,0.120370797,0.074840128,0.083333333,0.266666667
1.66315E-4,15.006378036,0.122049549,0.073341327,0.083333333,0.266666667
1.69071E-4,15.258004209,0.123821451,0.071842526,0.083333333,0.266666667
1.73152E-4,15.515357928,0.126432576,0.070343725,0.083333333,0.266666667
1.80555E-4,15.763908064,0.131129437,0.068944844,0.083333333,0.266666667
1.84935E-4,16.001594691,0.133884225,0.067645883,0.083333333,0.266666667
1.90163E-4,16.263664528,0.137150198,0.066247002,0.083333333,0.266666667
1.94825E-4,16.513464493,0.140041431,0.064948042,0.083333333,0.266666667
2.00235E-4,16.769943699,0.143372663,0.063649081,0.083333333,0.266666667
2.04455E-4,17.013172527,0.145953406,0.06245004,0.083333333,0.266666667
2.10359E-4,17.262260408,0.149538067,0.061250999,0.083333333,0.266666667
2.18607E-4,17.519561958,0.154495256,0.060051958,0.083333333,0.266666667
2.22627E-4,17.762700407,0.156890631,0.058952838,0.083333333,0.266666667
2.32043E-4,18.013557401,0.162448437,0.057853717,0.083333333,0.266666667
2.39009E-4,18.273246767,0.166512944,0.056754596,0.083333333,0.266666667
2.45682E-4,18.515053514,0.170370135,0.055755396,0.083333333,0.266666667
2.50298E-4,18.763468312,0.173016909,0.054756195,0.083333333,0.266666667
2.59298E-4,19.018714927,0.178129939,0.053756994,0.083333333,0.266666667
2.67088E-4,19.256015141,0.182504967,0.052857714,0.083333333,0.266666667
2.77451E-4,19.502360078,0.188253045,0.051958433,0.083333333,0.266666667
2.84724E-4,19.756140932,0.192239528,0.051059153,0.083333333,0.266666667
2.90987E-4,20.015072955,0.195640646,0.050159872,0.083333333,0.266666667
2.97093E-4,20.251262194,0.198929336,0.049360512,0.083333333,0.266666667
3.09171E-4,20.524412897,0.205355547,0.048461231,0.083333333,0.266666667
3.16222E-4,20.775068632,0.209060136,0.047661871,0.083333333,0.266666667
3.20287E-4,21.02943753,0.211179929,0.04686251,0.083333333,0.266666667
3.25741E-4,21.256123559,0.214006305,0.04616307,0.083333333,0.266666667
3.317E-4,21.518867001,0.217071601,0.045363709,0.083333333,0.266666667
3.415E-4,21.755324955,0.222060898,0.044664269,0.083333333,0.266666667
3.50172E-4,22.032428988,0.226422979,0.043864908,0.083333333,0.266666667
3.52698E-4,22.278717294,0.227684392,0.043165468,0.083333333,0.266666667
3.64497E-4,22.530948112,0.233522702,0.042466027,0.083333333,0.266666667
3.73322E-4,22.752354072,0.237831603,0.041866507,0.083333333,0.266666667
3.8581E-4,23.018128113,0.243847369,0.041167066,0.083333333,0.266666667
3.96809E-4,23.253526,0.249067854,0.040567546,0.083333333,0.266666667
4.09411E-4,23.537483962,0.254961139,0.039868106,0.083333333,0.266666667
4.23153E-4,23.787675076,0.261282815,0.039268585,0.083333333,0.266666667
4.26221E-4,24.042267975,0.26267987,0.038669065,0.083333333,0.266666667
4.32081E-4,24.257356012,0.265333084,0.038169464,0.083333333,0.266666667
4.44265E-4,24.520262991,0.270788968,0.037569944,0.083333333,0.266666667
4.59561E-4,24.792338959,0.277524563,0.036970424,0.083333333,0.266666667
4.65864E-4,25.023976237,0.280264015,0.036470823,0.083333333,0.266666667
4.77075E-4,25.261079471,0.28508592,0.035971223,0.083333333,0.266666667
4.88911E-4,25.503416596,0.290107,0.035471623,0.083333333,0.266666667
5.02798E-4,25.752404139,0.295908768,0.034972022,0.083333333,0.266666667
5.19202E-4,26.008551964,0.3026411,0.034472422,0.083333333,0.266666667
5.36623E-4,26.274385916,0.309651352,0.033972822,0.083333333,0.266666667
5.50289E-4,26.54696194,0.315052866,0.033473221,0.083333333,0.266666667
5.65646E-4,26.771129328,0.321022323,0.033073541,0.083333333,0.266666667
5.76984E-4,27.001053472,0.325363539,0.032673861,0.083333333,0.266666667
5.87199E-4,27.291945087,0.329227274,0.032174261,0.083333333,0.266666667
6.06059E-4,27.531464067,0.336246305,0.03177458,0.083333333,0.266666667
6.23508E-4,27.778159331,0.342610302,0.0313749,0.083333333,0.266666667
6.33457E-4,28.029198649,0.34618445,0.03097522,0.083333333,0.266666667
6.35354E-4,28.283061225,0.346861792,0.03057554,0.083333333,0.266666667
6.39627E-4,28.538402599,0.348381605,0.030175859,0.083333333,0.266666667
6.47181E-4,28.795496656,0.351051804,0.029776179,0.083333333,0.266666667
6.50877E-4,29.055319139,0.35235033,0.029376499,0.083333333,0.266666667
6.58428E-4,29.25260273,0.354986695,0.029076739,0.083333333,0.266666667
6.7685E-4,29.519893333,0.361330251,0.028677058,0.083333333,0.266666667
6.86219E-4,29.793266638,0.364508702,0.028277378,0.083333333,0.266666667
6.9258E-4,30.000586267,0.366648641,0.027977618,0.083333333,0.266666667
7.21849E-4,30.284338441,0.376312429,0.027577938,0.083333333,0.266666667
7.26312E-4,30.501822502,0.377760458,0.027278177,0.083333333,0.266666667
7.41849E-4,30.796271875,0.38274839,0.026878497,0.083333333,0.266666667
7.56486E-4,31.021599012,0.387374757,0.026578737,0.083333333,0.266666667
7.69502E-4,31.326498421,0.391430827,0.026179057,0.083333333,0.266666667
7.83373E-4,31.561137248,0.395694881,0.025879297,0.083333333,0.266666667
8.09987E-4,31.799585716,0.403710674,0.025579536,0.083333333,0.266666667
8.2008E-4,32.04433519,0.4066953,0.025279776,0.083333333,0.266666667
8.28712E-4,32.291748911,0.409224348,0.024980016,0.083333333,0.266666667
8.51102E-4,32.544769205,0.415684746,0.024680256,0.083333333,0.266666667
8.78845E-4,32.807679012,0.423496399,0.024380496,0.083333333,0.266666667
8.89205E-4,33.073311108,0.426360277,0.024080735,0.083333333,0.266666667
9.27168E-4,33.258151982,0.436615348,0.023880895,0.083333333,0.266666667
9.4588E-4,33.540405252,0.441536249,0.023581135,0.083333333,0.266666667
9.6929E-4,33.827665296,0.447573155,0.023281375,0.083333333,0.266666667
9.74806E-4,34.022612509,0.448976552,0.023081535,0.083333333,0.266666667
1.04419E-3,34.329688839,0.466040865,0.022781775,0.083333333,0.266666667
1.07659E-3,34.542080798,0.473652196,0.022581934,0.083333333,0.266666667
1.13379E-3,34.768780382,0.486572674,0.022382094,0.083333333,0.266666667
1.18291E-3,35.115401977,0.497171655,0.022082334,0.083333333,0.266666667
1.2152E-3,35.355645028,0.503905528,0.021882494,0.083333333,0.266666667
1.23959E-3,35.601205219,0.50887221,0.021682654,0.083333333,0.266666667
1.24231E-3,35.849441734,0.509419833,0.021482814,0.083333333,0.266666667
1.25299E-3,36.099368823,0.511558701,0.021282974,0.083333333,0.266666667
1.26632E-3,36.351674593,0.514202929,0.021083133,0.083333333,0.266666667
1.2701E-3,36.605377974,0.514946443,0.020883293,0.083333333,0.266666667
1.28427E-3,36.861764595,0.517718277,0.020683453,0.083333333,0.266666667
1.29997E-3,37.121378969,0.520750541,0.020483613,0.083333333,0.266666667
1.3073E-3,37.252109343,0.52215471,0.020383693,0.083333333,0.266666667
1.33373E-3,37.518193874,0.527145415,0.020183853,0.083333333,0.266666667
1.33807E-3,37.785712092,0.527955133,0.019984013,0.083333333,0.266666667
1.35488E-3,38.055142419,0.531065688,0.019784173,0.083333333,0.266666667
1.36714E-3,38.327909441,0.533308837,0.019584333,0.083333333,0.266666667
1.37296E-3,38.601991948,0.534366238,0.019384492,0.083333333,0.266666667
1.38438E-3,38.878709716,0.536426863,0.019184652,0.083333333,0.266666667
1.39248E-3,39.017957304,0.537875672,0.019084732,0.083333333,0.266666667
1.40966E-3,39.298350357,0.540922271,0.018884892,0.083333333,0.266666667
1.44165E-3,39.584017296,0.54649078,0.018685052,0.083333333,0.266666667
1.4566E-3,39.875241405,0.54904491,0.018485212,0.083333333,0.266666667
1.46319E-3,40.021560279,0.550162735,0.018385292,0.083333333,0.266666667
1.48566E-3,40.317349885,0.553931283,0.018185452,0.083333333,0.266666667
1.51162E-3,40.619480665,0.558207657,0.017985612,0.083333333,0.266666667
1.51856E-3,40.771336323,0.559336663,0.017885691,0.083333333,0.266666667
1.54211E-3,41.079138308,0.563126971,0.017685851,0.083333333,0.266666667
1.57075E-3,41.392155303,0.567647825,0.017486011,0.083333333,0.266666667
1.57235E-3,41.549390138,0.567898052,0.017386091,0.083333333,0.266666667
1.58461E-3,41.865948765,0.56980301,0.017186251,0.083333333,0.266666667
1.59302E-3,42.025250866,0.571100438,0.017086331,0.083333333,0.266666667
1.63134E-3,42.348932982,0.57691308,0.016886491,0.083333333,0.266666667
1.64398E-3,42.513331179,0.578795665,0.016786571,0.083333333,0.266666667
1.65402E-3,42.843873325,0.580279499,0.016586731,0.083333333,0.266666667
1.6842E-3,43.012293557,0.584676789,0.016486811,0.083333333,0.266666667
1.72319E-3,43.355322795,0.590222377,0.01628697,0.083333333,0.266666667
1.72963E-3,43.528285677,0.591124739,0.01618705,0.083333333,0.266666667
1.73983E-3,43.875784984,0.592545895,0.01598721,0.083333333,0.266666667
1.7465E-3,44.050435273,0.593469182,0.01588729,0.083333333,0.266666667
1.79696E-3,44.409463285,0.600321681,0.01568745,0.083333333,0.266666667
1.8103E-3,44.590492953,0.602094735,0.01558753,0.083333333,0.266666667
1.82893E-3,44.773385606,0.604545047,0.01548761,0.166666667,0.266666667
1.86892E-3,45.143474766,0.609704754,0.01528777,0.166666667,0.266666667
1.88268E-3,45.331742548,0.611448555,0.01518785,0.166666667,0.266666667
1.95624E-3,45.527366767,0.620515184,0.01508793,0.166666667,0.266666667
1.96985E-3,45.920476234,0.622146465,0.01488809,0.25,0.266666667
1.9742E-3,46.117896551,0.622664928,0.014788169,0.25,0.266666667
1.98167E-3,46.31606394,0.623551942,0.014688249,0.25,0.266666667
2.00387E-3,46.516450444,0.62616232,0.014588329,0.25,0.266666667
2.02174E-3,46.919057776,0.628238977,0.014388489,0.25,0.266666667
2.02339E-3,47.121397041,0.628429617,0.014288569,0.25,0.266666667
2.03594E-3,47.324991349,0.629872354,0.014188649,0.25,0.266666667
2.05305E-3,47.530296615,0.631821232,0.014088729,0.25,0.266666667
2.05801E-3,47.941691969,0.632381777,0.013888889,0.25,0.266666667
2.06625E-3,48.148316943,0.633310492,0.013788969,0.25,0.266666667
2.07882E-3,48.356199284,0.634718238,0.013689049,0.25,0.266666667
2.12236E-3,48.568435569,0.63951048,0.013589129,0.25,0.266666667
2.16997E-3,48.785432575,0.644608574,0.013489209,0.25,0.266666667
2.18901E-3,49.0043336,0.646607381,0.013389289,0.333333333,0.266666667
2.23543E-3,49.449492892,0.651387078,0.013189448,0.333333333,0.266666667
2.28712E-3,49.678204542,0.656560068,0.013089528,0.333333333,0.266666667
2.28744E-3,49.906948535,0.656591952,0.012989608,0.333333333,0.266666667
2.30294E-3,50.137242234,0.658112773,0.012889688,0.333333333,0.266666667
2.31895E-3,50.369137281,0.659670187,0.012789768,0.333333333,0.266666667
2.34671E-3,50.603808026,0.662336381,0.012689848,0.333333333,0.266666667
2.36964E-3,50.840771992,0.664507822,0.012589928,0.333333333,0.266666667
2.36969E-3,51.077741467,0.664513005,0.012490008,0.333333333,0.266666667
2.37666E-3,51.31540759,0.665167118,0.012390088,0.333333333,0.3
2.38439E-3,51.553846207,0.665889469,0.012290168,0.333333333,0.3
2.41735E-3,51.795581131,0.66893711,0.012190248,0.333333333,0.3
2.4495E-3,52.040530842,0.671856298,0.012090328,0.333333333,0.3
2.45074E-3,52.285604769,0.67196806,0.011990408,0.333333333,0.3
2.45811E-3,52.531415811,0.672629706,0.011890488,0.333333333,0.3
2.46284E-3,52.777699851,0.673052873,0.011790568,0.333333333,0.3
2.46827E-3,53.024526801,0.67353724,0.011690647,0.333333333,0.3
2.47139E-3,53.271666242,0.673815384,0.011590727,0.333333333,0.3
2.48295E-3,53.519961283,0.674839865,0.011490807,0.333333333,0.3
2.49869E-3,53.769829999,0.676224679,0.011390887,0.333333333,0.3
2.52647E-3,54.022477171,0.678641102,0.011290967,0.333333333,0.316666667
2.52971E-3,54.275448326,0.678920524,0.011191047,0.416666667,0.333333333
2.54161E-3,54.529609812,0.679942977,0.011091127,0.416666667,0.333333333
2.54834E-3,54.784443884,0.680517829,0.010991207,0.416666667,0.333333333
2.5675E-3,55.041193436,0.682143717,0.010891287,0.416666667,0.35
2.58346E-3,55.29953962,0.683486369,0.010791367,0.416666667,0.35
2.60494E-3,55.560034002,0.685275052,0.010691447,0.416666667,0.366666667
2.60982E-3,55.821015633,0.685677947,0.010591527,0.416666667,0.383333333
2.63562E-3,56.084577541,0.687794442,0.010491607,0.416666667,0.383333333
2.67175E-3,56.351752841,0.6907109,0.010391687,0.416666667,0.383333333
2.67677E-3,56.592472804,0.691111418,0.010291767,0.416666667,0.383333333
2.69434E-3,56.888919824,0.692506313,0.010191847,0.416666667,0.4
2.69666E-3,57.158585816,0.692689678,0.010091926,0.416666667,0.4
2.69695E-3,57.428281075,0.692712779,0.009992006,0.416666667,0.4
2.70108E-3,57.698389205,0.6930383,0.009892086,0.416666667,0.4
2.70475E-3,57.968864326,0.693327069,0.009792166,0.416666667,0.4
2.72434E-3,58.09044249,0.694859419,0.009692246,0.416666667,0.4
2.75517E-3,58.519286202,0.697240041,0.009592326,0.416666667,0.416666667
2.81947E-3,58.801233625,0.702087983,0.009492406,0.416666667,0.416666667
2.82194E-3,59.083427754,0.702270888,0.009392486,0.416666667,0.433333333
2.82496E-3,59.365924159,0.702494685,0.009292566,0.416666667,0.433333333
2.83001E-3,59.648925517,0.70286779,0.009192646,0.416666667,0.433333333
2.83143E-3,59.932068285,0.702972108,0.009092726,0.416666667,0.433333333
2.83527E-3,60.21559532,0.703255215,0.008992806,0.416666667,0.45
2.85367E-3,60.500962277,0.704603318,0.008892886,0.416666667,0.45
2.86032E-3,60.786994139,0.705087485,0.008792966,0.416666667,0.45
2.8987E-3,61.076864379,0.707851748,0.008693046,0.416666667,0.45
2.90467E-3,61.367331302,0.708276812,0.008593125,0.416666667,0.45
2.91691E-3,61.659022236,0.709144909,0.008493205,0.5,0.45
2.91978E-3,61.951000192,0.709347725,0.008393285,0.5,0.45
2.93592E-3,62.244592131,0.71048295,0.008293365,0.5,0.45
2.93629E-3,62.538221431,0.710509124,0.008193445,0.5,0.45
2.94807E-3,62.833028173,0.711331573,0.008093525,0.5,0.466666667
2.97366E-3,63.130394595,0.7131035,0.007993605,0.5,0.466666667
3.00794E-3,63.431188133,0.715442121,0.007893685,0.5,0.466666667
3.08406E-3,63.739594475,0.720503021,0.007793765,0.5,0.5
3.14185E-3,64.053779085,0.724225772,0.007693845,0.5,0.5
3.14185E-3,64.3679642,0.724226093,0.007593925,0.5,0.5
3.14414E-3,64.682378476,0.724371689,0.007494005,0.5,0.533333333
3.16395E-3,64.998773134,0.725623547,0.007394085,0.583333333,0.533333333
3.1687E-3,65.315643005,0.725922253,0.007294165,0.583333333,0.533333333
3.20566E-3,65.63620857,0.728223258,0.007194245,0.666666667,0.533333333
3.21406E-3,65.957614611,0.728741171,0.007094325,0.666666667,0.533333333
3.21609E-3,66.279223169,0.72886567,0.006994404,0.666666667,0.533333333
3.25079E-3,66.604301993,0.730981423,0.006894484,0.666666667,0.55
3.27132E-3,66.931433767,0.732217593,0.006794564,0.666666667,0.55
3.29594E-3,67.261028097,0.733685499,0.006694644,0.666666667,0.566666667
3.30735E-3,67.59176317,0.734360044,0.006594724,0.666666667,0.566666667
3.33691E-3,67.925453964,0.736092032,0.006494804,0.666666667,0.566666667
3.35027E-3,68.260481388,0.736867873,0.006394884,0.666666667,0.566666667
3.35062E-3,68.595543311,0.736887838,0.006294964,0.666666667,0.566666667
3.36964E-3,68.932507515,0.73798401,0.006195044,0.666666667,0.566666667
3.37571E-3,69.270078695,0.738331855,0.006095124,0.666666667,0.566666667
3.38247E-3,69.608325496,0.738717954,0.005995204,0.666666667,0.583333333
3.39145E-3,69.947470457,0.739229468,0.005895284,0.666666667,0.583333333
3.40513E-3,70.287983003,0.74000449,0.005795364,0.666666667,0.583333333
3.41146E-3,70.629129203,0.740362028,0.005695444,0.666666667,0.583333333
3.44701E-3,70.973830503,0.742349887,0.005595524,0.666666667,0.583333333
3.48048E-3,71.321878715,0.744193719,0.005495604,0.666666667,0.583333333
3.49981E-3,71.671859398,0.745246359,0.005395683,0.666666667,0.583333333
3.54435E-3,72.026294658,0.74764013,0.005295763,0.666666667,0.583333333
3.55478E-3,72.381772728,0.748194024,0.005195843,0.666666667,0.583333333
3.61432E-3,72.743204483,0.751310365,0.005095923,0.666666667,0.583333333
3.61922E-3,73.105126932,0.751563772,0.004996003,0.666666667,0.583333333
3.66873E-3,73.471999501,0.754091553,0.004896083,0.75,0.583333333
3.68365E-3,73.840364116,0.754843409,0.004796163,0.75,0.583333333
3.68506E-3,74.208870052,0.754914384,0.004696243,0.833333333,0.583333333
3.75564E-3,74.584433712,0.758407407,0.004596323,0.833333333,0.583333333
3.76952E-3,74.961385618,0.759082795,0.004496403,0.833333333,0.616666667
3.82715E-3,75.344100158,0.761846434,0.004396483,0.833333333,0.616666667
3.94158E-3,75.738257694,0.767150484,0.004296563,0.833333333,0.616666667
4.03931E-3,76.142188352,0.771496947,0.004196643,0.833333333,0.616666667
4.09309E-3,76.551497594,0.773820479,0.004096723,0.833333333,0.616666667
4.12586E-3,76.964083753,0.775213075,0.003996803,0.833333333,0.633333333
4.1373E-3,77.37781398,0.775695241,0.003896882,0.916666667,0.65
4.21335E-3,77.799149291,0.778848558,0.003796962,0.916666667,0.65
4.30602E-3,78.229751508,0.782573103,0.003697042,0.916666667,0.65
4.31157E-3,78.660908149,0.782791963,0.003597122,0.916666667,0.65
4.35272E-3,79.096179885,0.784402737,0.003497202,0.916666667,0.65
4.37366E-3,79.533545685,0.785213279,0.003397282,0.916666667,0.666666667
4.4268E-3,79.976226028,0.787243261,0.003297362,0.916666667,0.666666667
4.46037E-3,80.422263514,0.788505922,0.003197442,0.916666667,0.666666667
4.48279E-3,80.87054202,0.789340487,0.003097522,1,0.683333333
4.50812E-3,81.321354463,0.790276238,0.002997602,1,0.683333333
4.56451E-3,81.777805593,0.792328991,0.002897682,1,0.7
4.6133E-3,82.239136049,0.794073143,0.002797762,1,0.7
4.7344E-3,82.60800256,0.798277626,0.002697842,1,0.716666667
4.8846E-3,83.204584851,0.803260295,0.002597922,1,0.733333333
5.06781E-3,83.470174393,0.809014476,0.002498002,1,0.733333333
5.24652E-3,83.729237027,0.814311955,0.002498002,1,0.75
5.24705E-3,84.25394207,0.81432719,0.002398082,1,0.75
5.2762E-3,84.781561733,0.815163282,0.002298161,1,0.783333333
5.28244E-3,85.309805892,0.815341447,0.002198241,1,0.783333333
5.31776E-3,85.841581675,0.816342571,0.002098321,1,0.8
5.3902E-3,86.224493255,0.81836251,0.001998401,1,0.8
5.4203E-3,86.383611943,0.819188885,0.001998401,1,0.816666667
5.47036E-3,86.930648269,0.820546599,0.001898481,1,0.833333333
5.47445E-3,87.478092771,0.820656403,0.001798561,1,0.833333333
5.57675E-3,88.035767784,0.823365313,0.001698641,1,0.833333333
5.71683E-3,88.607451272,0.826944527,0.001598721,1,0.866666667
5.7303E-3,89.180481145,0.827280907,0.001498801,1,0.866666667
5.89226E-3,89.769707622,0.831227313,0.001398881,1,0.866666667
5.9563E-3,90.365337663,0.832738284,0.001298961,1,0.866666667
6.0158E-3,90.966917749,0.834118194,0.001199041,1,0.866666667
6.40342E-3,91.607259748,0.84257882,0.001099121,1,0.866666667
6.48853E-3,92.256112752,0.844322256,0.000999201,1,0.866666667
6.78102E-3,92.934214867,0.850030184,0.000899281,1,0.883333333
7.14278E-3,93.648492408,0.856535915,0.000799361,1,0.883333333
7.16927E-3,94.365419057,0.856990216,0.00069944,1,0.883333333
7.97123E-3,95.162542083,0.869500436,0.00059952,1,0.916666667
8.03726E-3,95.966267796,0.870433599,0.0004996,1,0.916666667
8.98459E-3,96.864727078,0.882489719,0.00039968,1,0.916666667
9.2452E-3,97.789247203,0.885422628,0.00029976,1,0.983333333
1.05868E-2,98.847926998,0.898468072,0.00019984,1,0.983333333
1.15207E-2,100,0.905924484,0.00009992,1,1
