X,Y,Test or train,Raw prediction,Cumulative prediction,Logistic prediction
-109.96427,44.06466,train,0.0050268275809627555,40.1219871531307,0.5513157956794528
-122.86905,50.25889,train,0.0039640233380098195,25.787526135975103,0.4921153751868226
-125.32723,51.40771,train,0.004766032880780454,35.201491667871906,0.5381043895662736
-117.83601,49.75033,train,0.004687951495435474,33.30465482930539,0.5339962382354098
-124.55551,52.17378,train,0.005675343914763256,51.42126228600848,0.5811097160242517
-119.83388,38.72794,train,0.006222092048502721,61.55462332191295,0.6033170680308623
-119.79049,54.01391,train,0.004477997752964653,29.168357755579184,0.5225784838560779
-117.74905,49.5233,train,0.004759717269508681,34.724705218298254,0.5377747961602781
-118.97572,37.56837,train,0.004516217287435799,29.620107658332955,0.5246984176899014
-115.84763,49.27867,train,0.00411082029476366,27.001137056761458,0.501205491637487
-118.21057,51.11214,train,0.010410320939292237,93.603740967329,0.7178855051793905
-120.07625,53.35484,train,0.006142025372316961,59.699932974242955,0.6002132995203463
-109.87622,44.24775,train,0.004692916217567988,33.773448088335996,0.534259624985364
-117.88574,50.31322,train,0.002449887025614707,15.295237913953363,0.3745470433720395
-118.39579,48.72861,train,0.0032404927878149047,18.198590841711564,0.4419935568282368
-117.56218,50.54893,train,0.009948575779772949,90.55807780329803,0.7086071209796724
-114.97985,44.30683,train,0.007206779090207568,73.79462355198882,0.637890850939493
-110.00701,43.72782,train,0.004563557731372295,30.532206682956662,0.5272983043286186
-115.99429,45.13126,train,0.004956605304786587,38.61955433123223,0.5478333861589841
-117.6735,50.36765,train,0.007754355935567266,77.5967783588619,0.654630054139793
-115.42043,46.8802,train,0.0011693978449613444,9.09328676394085,0.22230023526385953
-119.56823,51.43398,train,0.005910009214088825,56.065434630029934,0.5909385805184791
-118.33194,53.255,train,0.0038643452836219067,25.390944047346416,0.4857517720465781
-119.27594,37.88404,train,0.005451971001331042,46.97954625901288,0.571304772184636
-124.3933,51.47012,train,0.004471723112780469,28.72094016597989,0.5222286381129586
-123.87133,51.53966,train,0.006935736514156708,69.55100310927665,0.6289900678847881
-124.53097,52.27952,train,0.005520494549769365,48.62900067883572,0.5743610688181015
-123.89897,51.6116,train,0.0067173577182619935,66.13468388049071,0.621493983693812
-110.81656,45.36338,train,0.0012227873383853164,9.606185347615263,0.230113991533172
-120.6261,53.91039,train,0.004468020697447992,28.273630186738202,0.5220219674403971
-124.93595,51.8178,train,0.007491964021042537,74.54458793514735,0.6468063292843126
-117.24712,50.39152,train,0.008486888603313317,84.90771857460369,0.6747442287758407
-115.91717,50.27227,train,0.01090548824038398,94.69421778051328,0.7272005824664225
-122.47376,50.99725,train,0.00930335415246476,87.6188174443426,0.6945704348126213
-119.91819,38.18257,train,0.004120243756273482,27.413247430961505,0.5017779194951378
-119.63167,53.89336,train,0.004920582605640637,37.13883151192311,0.5460259146030956
-118.38708,51.22704,train,0.007573260417057867,76.0507586468764,0.6492679735651941
-124.62219,50.85425,train,0.001875275781469648,12.334715592816641,0.31431021223684685
-110.9595,44.96059,train,0.005779653386562013,53.13952037156694,0.5855363755479708
-124.77175,52.14497,train,0.004590690899603185,31.448037898972906,0.5287756463829247
-109.69459,45.17906,train,0.00836615445245098,84.05907082755087,0.6715918768213579
-115.52933,51.10648,train,0.005365661768891355,44.271075104937566,0.567392167712508
-122.07604,50.27091,train,0.006984123880760335,70.25125168024297,0.6306110086220411
-115.90801,45.05487,train,0.005821880547277601,53.72181646279175,0.5873019109293257
-119.84725,38.47063,train,0.006683009028080038,64.79283315250377,0.6202872712559715
-114.12902,43.86754,train,0.006985620422059492,70.94801773365023,0.6306609158660904
-121.02658,54.35682,train,0.003400092683387198,19.19405973458492,0.45388197286186527
-113.91682,44.33768,train,0.00811563256033759,82.40229959776885,0.6648518430113918
-120.91171,48.09024,train,0.017375966364506362,99.9999860333316,0.809426402036055
-117.22648,51.95201,train,0.007011782351328552,71.64920699166338,0.6315312007090211
-121.76087,45.23849,train,0.005077331443025934,40.62978989956477,0.5537873655908996
-115.12547,49.73139,train,0.007161375451581019,73.07391665441857,0.6364297366888182
-121.87581,44.15039,train,0.011105369724449988,95.80461245531448,0.7307887676263913
-120.68757,52.69432,train,0.006039534780358199,58.473400396489865,0.5961686768518244
-109.44828,44.6792,train,0.0037258897277436713,22.733357803124573,0.476643276189252
-123.0864,51.28242,train,0.005439467937911328,46.43414339830373,0.570742367700868
-123.98849,51.17433,train,0.00708637883203472,72.35781144430236,0.6339903070547931
-114.91725,46.36278,train,0.004837458963381287,36.6464361138353,0.5417994533138871
-123.12214,51.04919,train,0.009817601645735906,89.56326478017436,0.7058631496246476
-114.5299,45.8259,train,0.005823936711746378,54.30312577014665,0.5873874960679595
-123.43155,41.08779,train,8.041482495039225E-4,7.881270878513729,0.16427300989229796
-120.79583,52.83244,train,0.006018936492257221,57.26723635287573,0.5953459025132437
-109.64489,42.8516,train,0.0047507281171466015,34.24886258302892,0.5373048663867559
-117.4248,51.07419,train,0.009626870279919026,88.58149355685016,0.7017735252854588
-117.46032,51.36521,train,0.011384866667871049,96.94313154532058,0.7356507566732576
-121.54553,46.95986,train,0.003093258797067116,17.55544909686755,0.43055786181448535
-113.54129,45.09868,train,0.006766395503858817,66.81136196656145,0.6232035114241404
-110.30434,44.87756,train,0.008064757626432368,80.7831868172326,0.6634491681053275
-122.09606,50.74545,train,0.007961864611351477,79.9767657993333,0.6605761085012622
-120.81434,54.53487,train,0.005534264419651578,49.7353220784584,0.5749699835030582
-126.22468,52.80475,train,0.005132589768346088,42.67875975401828,0.5564606025060708
-118.49613,50.91588,train,0.008645138312928935,85.77223300659388,0.6787855987153473
-111.27669,44.60345,train,0.0016857564991544995,11.387143381454747,0.2918148192414701
-118.47554,49.83112,train,0.0067743240839823315,67.48890318572145,0.6234784639752519
-122.20663,42.93375,train,0.0036535290243459514,22.36069502988229,0.47175334202892794
-115.15551,51.07751,train,0.0038497489757145504,25.004553049044038,0.4848065108036658
-116.11947,51.88969,train,0.00150778447299219,10.41163297425009,0.2693034826083263
-121.09973,48.06636,train,0.006474050595711474,63.47245124225132,0.6127772425652237
-120.1025,48.55609,train,0.00461752583850221,32.36996476756329,0.5302276958531851
-119.63394,38.08987,train,0.005841687127216296,54.88812957706426,0.58812486044451
-117.77136,50.60465,train,0.010064301826657738,92.56266825598073,0.7109893829366752
-117.66725,49.51031,train,0.004810693757692983,36.1627768521962,0.5404217639430128
-120.2661,51.8948,train,0.006000104247885755,56.665590477949976,0.5945907314114109
-123.38342,50.08397,train,0.0019380459769503978,13.100178112268951,0.32144907893319996
-113.86612,48.67405,train,0.005109469854244993,41.14071162785372,0.5553460353197724
-116.40082,50.98082,train,0.00998122718986169,91.55614667002015,0.7092832298387047
-109.57667,45.04774,train,0.0050007736651864546,39.6194217563874,0.5500300265767445
-119.11446,51.16274,train,0.005530914887893112,49.18265815534144,0.5748220249325903
-120.78379,52.55406,train,0.009162274494965155,86.68849931451739,0.69131918171484
-120.5682,49.30543,train,0.0068339863691480405,68.17221346496648,0.625534671686443
-118.83971,51.71302,train,0.006156945186773856,60.315599271539526,0.6007953397895283
-125.261,51.78224,train,0.007886125340201361,78.38542888519844,0.6584297153341242
-119.27576,37.61115,train,0.0031905780269156497,17.87450739836091,0.43816848166509953
-116.09616,49.61965,train,0.005119413954032572,41.65287223094243,0.55582610727557
-121.1683,52.53574,train,0.0016173482098617456,11.099050037534486,0.2833280649628523
-109.78119,44.98433,train,0.007706524102277831,76.82147513956694,0.6532297930771932
-125.74118,52.10615,train,0.004924607992061835,37.630728537547554,0.5462286088474256
-125.07634,51.5575,train,0.005288326854281185,43.73433164573959,0.5638252244592675
-118.62192,53.27029,train,0.005267895890320794,43.20556438717575,0.5628730365433446
-113.90848,47.54031,train,0.005486106872180368,48.07262411519018,0.57283277174085
