Raw value,Corresponding cumulative value,Corresponding logistic value,Fractional area,Training omission,Test omission
2.90345E-12,0.000000001,0.000000001,0.998910891,0,0
5.04118E-12,0.000000003,0.000000001,0.998514851,0,0
7.10941E-12,0.00000001,0.000000002,0.997326733,0,0
1.04519E-11,0.000000025,0.000000003,0.995643564,0,0
1.59485E-11,0.0000001,0.000000004,0.99009901,0,0
2.40536E-11,0.000000251,0.000000006,0.982673267,0,0
5.1759E-11,0.000001003,0.000000013,0.962970297,0,0
1.04422E-10,0.000002506,0.000000026,0.943564356,0,0
2.86904E-10,0.000010027,0.00000007,0.903960396,0,0
5.23054E-10,0.000025009,0.000000128,0.867227723,0,0
8.46795E-10,0.000050053,0.000000207,0.83,0,0
1.45328E-9,0.000100046,0.000000355,0.785742574,0,0
3.22939E-9,0.000250018,0.000000789,0.717821782,0,0
6.6077E-9,0.000500465,0.000001615,0.664554455,0,0
1.37705E-8,0.001000247,0.000003366,0.613861386,0,0
3.71277E-8,0.002501086,0.000009075,0.549108911,0,0
7.52977E-8,0.005001127,0.000018405,0.504356436,0,0
1.48223E-7,0.01000072,0.00003623,0.458316832,0,0
3.22088E-7,0.025019601,0.000078724,0.393267327,0,0
5.86583E-7,0.050048731,0.000143362,0.337425743,0,0
1.11276E-6,0.100049199,0.000271925,0.276039604,0,0
2.23455E-6,0.200117932,0.000545908,0.213465347,0,0
3.50319E-6,0.300143334,0.000855575,0.178316832,0,0
4.93659E-6,0.400390183,0.001205228,0.154455446,0,0
6.38063E-6,0.500084964,0.001557228,0.136831683,0,0
8.2648E-6,0.600489374,0.002016144,0.123168317,0,0
1.04069E-5,0.700927797,0.002537363,0.112475248,0,0
1.12537E-5,0.750936707,0.002743259,0.107920792,0,0
1.23122E-5,0.800423924,0.003000514,0.103762376,0,0
1.49756E-5,0.900621521,0.00364724,0.096435644,0,0
1.72019E-5,1.00024877,0.004187174,0.09029703,0,0
1.90665E-5,1.100411597,0.004638931,0.084851485,0,0
2.12191E-5,1.201196666,0.005159956,0.07990099,0,0
2.35277E-5,1.30187058,0.005718139,0.075445545,0,0
2.56779E-5,1.400934795,0.006237469,0.071485149,0,0
2.84012E-5,1.500920491,0.006894422,0.067821782,0,0
3.55012E-5,1.750825256,0.00860312,0.06,0,0
4.50074E-5,2.00449925,0.010881739,0.053762376,0,0
5.3769E-5,2.25335001,0.012972585,0.048712871,0,0
6.51078E-5,2.501823827,0.015665399,0.044554455,0,0
7.6266E-5,2.75711081,0.018300995,0.040990099,0,0
9.16869E-5,3.002912779,0.021920324,0.038118812,0,0
1.06047E-4,3.258283651,0.025266795,0.035544554,0,0
1.19674E-4,3.506327683,0.028421207,0.033366337,0,0
1.43851E-4,3.757894374,0.033967934,0.031485149,0,0
1.65421E-4,4.007711293,0.038863417,0.02990099,0,0
1.94769E-4,4.263275682,0.045444967,0.028514851,0,0
2.2225E-4,4.516222861,0.051526781,0.027326733,0,0
2.41612E-4,4.772927714,0.05576541,0.026237624,0,0
2.89842E-4,5.014349976,0.066160612,0.025346535,0,0
3.24661E-4,5.256898802,0.073524029,0.024554455,0,0
3.52101E-4,5.526483465,0.079245815,0.023762376,0,0
3.91128E-4,5.785249628,0.087263086,0.023069307,0,0
4.11633E-4,6.027775721,0.09141965,0.022475248,0,0
4.52194E-4,6.289320959,0.0995312,0.021881188,0,0
5.06188E-4,6.528172585,0.110106987,0.021386139,0,0
5.57555E-4,6.799814201,0.119940353,0.020891089,0,0
6.0521E-4,7.035338876,0.128870766,0.02049505,0,0
6.57198E-4,7.290499278,0.138408596,0.02009901,0,0
7.16814E-4,7.568396756,0.149092162,0.01970297,0,0
7.74724E-4,7.792418331,0.159219223,0.019405941,0,0
8.57028E-4,8.040952115,0.173204425,0.019108911,0.01,0
9.05554E-4,8.306951008,0.181234052,0.018811881,0.01,0
9.98371E-4,8.504060302,0.196166021,0.018613861,0.01,0
1.06786E-3,8.814173103,0.206992769,0.018316832,0.01,0
1.16771E-3,9.043623898,0.222051277,0.018118812,0.01,0
1.17568E-3,9.278131836,0.223228103,0.017920792,0.02,0
1.18732E-3,9.515307031,0.224940108,0.017722772,0.02,0
1.2852E-3,9.766105936,0.239051816,0.017524752,0.03,0
1.32965E-3,10.031358454,0.245292039,0.017326733,0.03,0
1.47912E-3,10.312685195,0.265543109,0.017128713,0.03,0
1.56823E-3,10.620286755,0.277108042,0.016930693,0.04,0
1.58204E-3,10.778490739,0.278867615,0.016831683,0.04,0
1.61735E-3,11.09906629,0.283328065,0.016633663,0.04,0
1.64546E-3,11.263612044,0.286839816,0.016534653,0.05,0
1.75779E-3,11.607966403,0.300536388,0.016336634,0.06,0
1.75812E-3,11.783778625,0.300576464,0.016237624,0.06,0
1.86961E-3,12.147327537,0.313658241,0.016039604,0.06,0
1.87528E-3,12.334855115,0.314310212,0.015940594,0.06,0
1.88606E-3,12.52346087,0.315547091,0.015841584,0.07,0
1.92997E-3,12.906470011,0.320539071,0.015643564,0.07,0
1.93805E-3,13.100274608,0.321449079,0.015544554,0.07,0
1.97755E-3,13.298029149,0.325865652,0.015445545,0.08,0
2.02062E-3,13.500091399,0.330617177,0.015346535,0.08,0
2.08789E-3,13.912897989,0.337904196,0.015148515,0.08,0
2.12885E-3,14.125783119,0.342264717,0.015049505,0.08,0
2.17964E-3,14.343747247,0.347592103,0.014950495,0.08,0
2.30499E-3,14.574245905,0.360377569,0.014851485,0.08,0
2.37341E-3,14.811586459,0.367147256,0.014752475,0.08,0
2.38674E-3,15.05026075,0.36845026,0.014653465,0.08,0
2.44989E-3,15.295249453,0.374547043,0.014554455,0.08,0
2.47388E-3,15.54263731,0.376832764,0.014455446,0.09,0
2.5756E-3,15.800196974,0.386340903,0.014356436,0.09,0
2.80083E-3,16.080280222,0.406396108,0.014257426,0.09,0
2.82113E-3,16.36239305,0.408139071,0.014158416,0.09,0
2.89822E-3,16.652214729,0.414667038,0.014059406,0.09,0
2.89929E-3,16.942143686,0.414756868,0.013960396,0.09,0
3.03986E-3,17.246130185,0.426294075,0.013861386,0.09,0
3.09326E-3,17.555456065,0.430557862,0.013762376,0.09,0
3.19058E-3,17.874513867,0.438168482,0.013663366,0.1,0
3.24049E-3,18.198563146,0.441993557,0.013564356,0.11,0
3.27344E-3,18.525906864,0.444489752,0.013465347,0.12,0
3.2808E-3,18.853986618,0.445044396,0.013366337,0.12,0
3.40009E-3,19.193995886,0.453881973,0.013267327,0.12,0
3.41444E-3,19.53544016,0.454926118,0.013168317,0.13,0
3.44384E-3,19.879824486,0.457052953,0.013069307,0.13,0
3.45194E-3,20.225018368,0.457635674,0.012970297,0.13,0
3.46389E-3,20.571407374,0.458493646,0.012871287,0.13,0
3.49478E-3,20.920885413,0.460698721,0.012772277,0.13,0
3.50355E-3,21.271240531,0.461321545,0.012673267,0.13,0
3.59298E-3,21.630538828,0.46759104,0.012574257,0.13,0
3.64879E-3,21.99541733,0.471429562,0.012475248,0.13,0
3.65353E-3,22.360770232,0.471753342,0.012376238,0.13,0
3.72589E-3,22.733359205,0.476643276,0.012277228,0.14,0
3.73853E-3,23.107212098,0.477488125,0.012178218,0.15,0
3.74409E-3,23.481620991,0.477858913,0.012079208,0.15,0
3.76365E-3,23.857986168,0.479159353,0.011980198,0.15,0
3.77183E-3,24.235169553,0.479701337,0.011881188,0.15,0
3.8449E-3,24.619659455,0.484491656,0.011782178,0.15,0
3.84975E-3,25.004634353,0.484806511,0.011683168,0.15,0
3.86435E-3,25.391068881,0.485751772,0.011584158,0.16,0
3.96402E-3,25.787471215,0.492115375,0.011485149,0.17,0
3.98826E-3,26.186297015,0.493638825,0.011386139,0.18,0
4.03745E-3,26.590042135,0.496703294,0.011287129,0.18,0
4.11082E-3,27.001124164,0.501205492,0.011188119,0.18,0
4.12024E-3,27.41314854,0.501777919,0.011089109,0.19,0
4.13595E-3,27.826743826,0.502729253,0.010990099,0.2,0
4.46802E-3,28.273545895,0.522021967,0.010891089,0.2,0
4.47172E-3,28.720718207,0.522228638,0.010792079,0.21,0
4.478E-3,29.168517982,0.522578484,0.010693069,0.22,0
4.51622E-3,29.620139711,0.524698418,0.010594059,0.23,0
4.5601E-3,30.07615013,0.527109602,0.01049505,0.24,0
4.56356E-3,30.532505903,0.527298304,0.01039604,0.24,0
4.5643E-3,30.988936303,0.527339061,0.01029703,0.25,0
4.59069E-3,31.448005393,0.528775646,0.01019802,0.25,0
4.60343E-3,31.908348466,0.529466121,0.01009901,0.26,0
4.61753E-3,32.37010105,0.530227696,0.01,0.26,0
4.65617E-3,32.835718473,0.532303321,0.00990099,0.27,0
4.68795E-3,33.304513623,0.533996238,0.00980198,0.27,0
4.69292E-3,33.773805244,0.534259625,0.00970297,0.28,0
4.75073E-3,34.248878056,0.537304866,0.00960396,0.29,0
4.75972E-3,34.724849783,0.537774796,0.00950495,0.3,0
4.76603E-3,35.201453071,0.53810439,0.009405941,0.31,0
4.80187E-3,35.681639573,0.539965502,0.009306931,0.32,0
4.81069E-3,36.162708949,0.540421764,0.009207921,0.32,0
4.83746E-3,36.646454846,0.541799453,0.009108911,0.33,0
4.92058E-3,37.138513106,0.546025915,0.009009901,0.34,0
4.92461E-3,37.630973905,0.546228609,0.008910891,0.35,0
4.93008E-3,38.123981522,0.546503663,0.008811881,0.36,0
4.95661E-3,38.619642052,0.547833386,0.008712871,0.36,0
4.99632E-3,39.11927369,0.549809319,0.008613861,0.37,0
5.00077E-3,39.619351057,0.550030027,0.008514851,0.37,0
5.02683E-3,40.122033815,0.551315796,0.008415842,0.38,0
5.07733E-3,40.629766959,0.553787366,0.008316832,0.39,0
5.10947E-3,41.140713945,0.555346035,0.008217822,0.4,0
5.11941E-3,41.65265534,0.555826107,0.008118812,0.41,0
5.12876E-3,42.165531821,0.556276595,0.008019802,0.42,0
5.13259E-3,42.678790798,0.556460603,0.007920792,0.42,0
5.2679E-3,43.205580387,0.562873037,0.007821782,0.43,0
5.28833E-3,43.734413073,0.563825224,0.007722772,0.44,0
5.36566E-3,44.27097925,0.567392168,0.007623762,0.45,0
5.37558E-3,44.808536844,0.567845228,0.007524752,0.46,0
5.38494E-3,45.34703067,0.568272199,0.007425743,0.46,0
5.43355E-3,45.890386075,0.570475839,0.007326733,0.46,0
5.43947E-3,46.434332869,0.570742368,0.007227723,0.46,0
5.45197E-3,46.979529969,0.571304772,0.007128713,0.47,0
5.48569E-3,47.528099035,0.572814207,0.007029703,0.48,0
5.48611E-3,48.076709723,0.572832772,0.006930693,0.48,0
5.52049E-3,48.628759178,0.574361069,0.006831683,0.49,0
5.53091E-3,49.181850666,0.574822025,0.006732673,0.5,0
5.53426E-3,49.735277108,0.574969984,0.006633663,0.51,0
5.58919E-3,50.294196117,0.577381604,0.006534653,0.52,0
5.59253E-3,50.853449435,0.577527506,0.006435644,0.52,0
5.67534E-3,51.420983827,0.581109716,0.006336634,0.52,0
5.68333E-3,51.989316401,0.581451785,0.006237624,0.53,0
5.72192E-3,52.561508346,0.583097906,0.006138614,0.53,0
5.77965E-3,53.139473684,0.585536376,0.006039604,0.53,0
5.82188E-3,53.721661739,0.587301911,0.005940594,0.54,0
5.82394E-3,54.30405541,0.587387496,0.005841584,0.55,0
5.84169E-3,54.888224123,0.58812486,0.005742574,0.56,0
5.86219E-3,55.474443422,0.588973414,0.005643564,0.57,0
5.91001E-3,56.065444343,0.590938581,0.005544554,0.57,0
6.0001E-3,56.665454768,0.594590731,0.005445545,0.58,0
6.01894E-3,57.267348417,0.595345903,0.005346535,0.59,0
6.02064E-3,57.869412799,0.595414227,0.005247525,0.6,0
6.03953E-3,58.473366277,0.596168677,0.005148515,0.6,0
6.12535E-3,59.08590084,0.59956059,0.005049505,0.61,0
6.14203E-3,59.700103378,0.6002133,0.004950495,0.61,0
6.15695E-3,60.315797896,0.60079534,0.004851485,0.62,0
6.16595E-3,60.932392893,0.601145808,0.004752475,0.63,0
6.22209E-3,61.554602098,0.603317068,0.004653465,0.63,0
6.28273E-3,62.182874674,0.605635642,0.004554455,0.64,0
6.42163E-3,62.825037896,0.61084647,0.004455446,0.64,0
6.47405E-3,63.472442956,0.612777243,0.004356436,0.64,0
6.52093E-3,64.124536257,0.614487945,0.004257426,0.65,0
6.68301E-3,64.79283716,0.620287271,0.004158416,0.65,0
6.70212E-3,65.463048681,0.620959443,0.004059406,0.66,0
6.71736E-3,66.134784453,0.621493984,0.003960396,0.66,0
6.7664E-3,66.811424003,0.623203511,0.003861386,0.67,0
6.77432E-3,67.488856412,0.623478464,0.003762376,0.68,0
6.83399E-3,68.172255049,0.625534672,0.003663366,0.69,0
6.85203E-3,68.857458339,0.626152213,0.003564356,0.7,0
6.93574E-3,69.551031991,0.628990068,0.003465347,0.7,0
6.98412E-3,70.249444379,0.630611009,0.003366337,0.71,0
6.98562E-3,70.948006421,0.630660916,0.003267327,0.72,0
7.01178E-3,71.649184656,0.631531201,0.003168317,0.73,0
7.08638E-3,72.357822539,0.633990307,0.003069307,0.74,0
7.16138E-3,73.073960085,0.636429737,0.002970297,0.75,0
7.20678E-3,73.794637994,0.637890851,0.002871287,0.76,0
7.49196E-3,74.543834396,0.646806329,0.002772277,0.77,0
7.49596E-3,75.293430194,0.646928073,0.002673267,0.78,0
7.57326E-3,76.050756235,0.649267974,0.002574257,0.78,0
7.70652E-3,76.821408646,0.653229793,0.002475248,0.79,0
7.75436E-3,77.596844239,0.654630054,0.002376238,0.8,0
7.88613E-3,78.385456773,0.658429715,0.002277228,0.81,0
7.95086E-3,79.180543197,0.660266042,0.002178218,0.82,0
7.96186E-3,79.976729658,0.660576109,0.002079208,0.82,0
8.06476E-3,80.78320542,0.663449168,0.001980198,0.83,0
8.07506E-3,81.590711885,0.663734291,0.001881188,0.84,0
8.11563E-3,82.402275141,0.664851843,0.001782178,0.84,0
8.20149E-3,83.222424086,0.667192677,0.001683168,0.85,0
8.36615E-3,84.059039531,0.671591877,0.001584158,0.85,0
8.48689E-3,84.907728392,0.674744229,0.001485149,0.86,0
8.64514E-3,85.772242223,0.678785599,0.001386139,0.87,0
9.16227E-3,86.688469673,0.691319182,0.001287129,0.88,0
9.30335E-3,87.618805088,0.694570435,0.001188119,0.89,0
9.62687E-3,88.581492116,0.701773525,0.001089109,0.9,0
9.8176E-3,89.56325228,0.70586315,0.000990099,0.91,0
9.94858E-3,90.558109858,0.708607121,0.000891089,0.92,0
9.98123E-3,91.556232577,0.70928323,0.000792079,0.93,0
1.00643E-2,92.56266276,0.710989383,0.000693069,0.94,0
1.04103E-2,93.603694854,0.717885505,0.000594059,0.95,0
1.09055E-2,94.694243678,0.727200582,0.00049505,0.96,0
1.11054E-2,95.80478065,0.730788768,0.00039604,0.97,0
1.13849E-2,96.943267317,0.735650757,0.00029703,0.98,0
1.31914E-2,98.262403364,0.763282631,0.00019802,0.99,0
1.7376E-2,100,0.809426402,0.00009901,0.99,0
1.7376E-2,100,0.809426402,0,0.99,0
