"species","longitude","latitude"
"0",0,0
"conc.jeff",-121.89234,40.96523
"conc.jeff",-121.49642,40.51095
"conc.jeff",-118.3042,36.43852
"conc.jeff",-120.36531,38.63222
"conc.jeff",-120.01817,38.12189
"conc.jeff",-121.40931,40.12889
"conc.jeff",-119.56272,37.67461
"conc.jeff",-119.88729,38.22504
"conc.jeff",-119.14063,37.00364
"conc.jeff",-120.92689,39.8359
"conc.jeff",-120.64457,39.09913
"conc.jeff",-120.29977,38.38482
"conc.jeff",-121.58683,40.7796
"conc.jeff",-123.33378,41.87849
"conc.jeff",-121.75348,40.76829
"conc.jeff",-120.414,39.42139
"conc.jeff",-120.76241,41.11853
"conc.jeff",-120.57317,39.89808
"conc.jeff",-123.69781,42.22424
"conc.jeff",-119.3901,37.45038
"conc.jeff",-122.5769,41.24188
"conc.jeff",-121.2571,39.76835
"conc.jeff",-122.1492,41.33497
"conc.jeff",-121.6101,41.11228
"conc.jeff",-120.41222,39.04969
"conc.jeff",-120.42102,38.50597
"conc.jeff",-119.4918,37.87179
"conc.jeff",-119.36659,38.3002
"conc.jeff",-122.55257,41.08034
"conc.jeff",-123.80759,42.56381
"conc.jeff",-120.31297,38.94127
"conc.jeff",-121.12105,40.03407
"conc.jeff",-121.3456,40.10332
"conc.jeff",-119.67999,37.63216
"conc.jeff",-121.03042,40.01934
"conc.jeff",-119.82523,38.97083
"conc.jeff",-120.24335,38.23768
"conc.jeff",-119.78639,37.64901
"conc.jeff",-119.75276,38.99778
"conc.jeff",-119.25841,37.40358
"conc.jeff",-122.57496,41.24533
"conc.jeff",-120.9312,40.28995
"conc.jeff",-120.56275,39.49155
"conc.jeff",-120.68174,40.28055
"conc.jeff",-120.67253,39.6436
"conc.jeff",-121.35301,41.37879
"conc.jeff",-118.59716,34.95108
"conc.jeff",-119.98533,38.40515
"conc.jeff",-118.24698,35.78669
"conc.jeff",-120.04736,38.42774
"conc.jeff",-121.25212,41.15942
"conc.jeff",-120.10274,38.80289
"conc.jeff",-120.18152,39.64724
"conc.jeff",-123.07865,41.95525
"conc.jeff",-120.49305,39.7752
"conc.jeff",-119.55617,37.5647
"conc.jeff",-120.06597,39.3086
"conc.jeff",-118.98524,37.29087
"conc.jeff",-122.94671,41.11904
"conc.jeff",-120.84541,39.86004
"conc.jeff",-123.30951,40.82502
"conc.jeff",-122.06019,41.04427
"conc.jeff",-123.07648,41.95677
"conc.jeff",-119.83164,38.95464
"conc.jeff",-119.26917,37.17086
"conc.jeff",-123.70452,41.69342
"conc.jeff",-120.78028,40.14513
"conc.jeff",-120.09464,39.83534
"conc.jeff",-118.8845,37.23852
"conc.jeff",-119.75674,37.88125
"conc.jeff",-121.60867,40.44666
"conc.jeff",-118.41149,36.05324
"conc.jeff",-118.96218,36.87579
"conc.jeff",-120.45678,39.55724
"conc.jeff",-119.53818,37.66363
"conc.jeff",-118.64738,36.16885
"conc.jeff",-119.23443,37.54077
"conc.jeff",-119.58814,37.77132
"conc.jeff",-121.7079,40.57789
"conc.jeff",-120.72214,40.04339
"conc.jeff",-119.76973,37.77705
"conc.jeff",-121.18591,40.33626
"conc.jeff",-120.52616,39.36565
"conc.jeff",-119.75792,39.07554
"conc.jeff",-121.54977,40.76608
"conc.jeff",-122.45899,41.23837
"conc.jeff",-120.25157,38.98903
"conc.jeff",-120.56722,39.75264
"conc.jeff",-120.83875,40.57815
"conc.jeff",-120.41418,39.73443
"conc.jeff",-123.2803,42.05078
"conc.jeff",-121.08452,40.39762
"conc.jeff",-119.94349,38.90776
"conc.jeff",-119.96344,38.83777
"conc.jeff",-123.16022,40.30247
"conc.jeff",-117.31897,34.25265
"conc.jeff",-121.54799,40.68533
"conc.jeff",-120.47511,38.71091
"conc.jeff",-120.75029,40.24471
"conc.jeff",-123.07439,40.25309
