Raw value,Corresponding cumulative value,Corresponding logistic value,Fractional area,Training omission,Test omission
1.53604E-13,0.000000001,0,0.933671945,0,0
3.05754E-13,0.000000003,0,0.927098895,0,0
1.18829E-12,0.00000001,0,0.915347077,0,0
2.41934E-12,0.000000025,0,0.906881785,0,0
6.97486E-12,0.0000001,0.000000001,0.889752017,0,0
1.28377E-11,0.000000251,0.000000001,0.874215716,0,0
3.70063E-11,0.000001002,0.000000003,0.842047605,0,0
8.01901E-11,0.000002507,0.000000006,0.815655811,0,0
2.37403E-10,0.000010015,0.000000018,0.764963649,0,0
5.30725E-10,0.000025044,0.000000041,0.723433921,0,0
8.9439E-10,0.000050035,0.00000007,0.688377652,0,0
1.5537E-9,0.000100122,0.000000121,0.646947515,0,0
3.05374E-9,0.000250265,0.000000238,0.580719052,0,0
4.99689E-9,0.000500177,0.000000389,0.518474256,0,0
9.02153E-9,0.001000233,0.000000702,0.444577233,0,0
2.70465E-8,0.002502265,0.000002104,0.347873718,0,0
6.99777E-8,0.005004133,0.000005444,0.290010955,0,0
1.59735E-7,0.01000365,0.000012428,0.244298377,0,0
4.08162E-7,0.025017743,0.000031755,0.188427447,0,0.004878049
7.95645E-7,0.050026044,0.000061899,0.144407927,0,0.004878049
1.75972E-6,0.10008026,0.000136892,0.102181058,0,0.004878049
4.1047E-6,0.200292505,0.000319253,0.065033363,0,0.009756098
7.64908E-6,0.300489028,0.000594762,0.047106862,0,0.014634146
1.36385E-5,0.401074335,0.001059978,0.037346878,0,0.014634146
2.1125E-5,0.501642246,0.001640876,0.031670152,0,0.019512195
2.98099E-5,0.602866583,0.002313908,0.027686485,0,0.024390244
3.80775E-5,0.703003696,0.002953761,0.024698735,0,0.024390244
4.35416E-5,0.75268077,0.0033762,0.023503635,0,0.024390244
5.08722E-5,0.80137672,0.003942367,0.022507718,0,0.024390244
6.08831E-5,0.902576723,0.004714509,0.020715068,0,0.029268293
7.74991E-5,1.002020648,0.005993465,0.019320785,0,0.029268293
9.22608E-5,1.104774847,0.007126936,0.018125685,0,0.029268293
1.18305E-4,1.209032123,0.009120444,0.017129768,0,0.029268293
1.29667E-4,1.308557063,0.009987633,0.016333035,0,0.034146341
1.67211E-4,1.41226304,0.012842328,0.015635893,0,0.034146341
1.74175E-4,1.515408282,0.013370003,0.015038343,0,0.034146341
2.10999E-4,1.750649379,0.016151032,0.013843243,0,0.053658537
2.60384E-4,2.000841269,0.019856162,0.012747734,0,0.058536585
3.34252E-4,2.279398008,0.025346399,0.011851409,0,0.073170732
3.80295E-4,2.527563888,0.028737507,0.011154268,0,0.073170732
4.29993E-4,2.773139314,0.032371412,0.010556717,0,0.07804878
4.97932E-4,3.002910192,0.037295395,0.010058759,0,0.082926829
6.00859E-4,3.273704128,0.044660412,0.009560801,0,0.087804878
7.38801E-4,3.538632472,0.054355971,0.009162434,0,0.102439024
8.99807E-4,3.789968943,0.065426692,0.008863659,0,0.117073171
1.00693E-3,4.001015253,0.072649632,0.008664476,0,0.126829268
1.21486E-3,4.300857685,0.086356557,0.008365701,0,0.131707317
1.45324E-3,4.63944571,0.101580311,0.008166517,0,0.136585366
1.46677E-3,4.786122536,0.102428876,0.008066926,0,0.136585366
1.51603E-3,5.087049716,0.105506307,0.007867742,0,0.136585366
1.56591E-3,5.395439396,0.108600317,0.007668559,0,0.136585366
1.66344E-3,5.561783609,0.1145894,0.007568967,0,0.136585366
1.8087E-3,5.919128561,0.123361318,0.007369784,0,0.146341463
1.94217E-3,6.113345585,0.131269649,0.007270192,0,0.146341463
2.05944E-3,6.319289327,0.138101051,0.007170601,0,0.146341463
2.07587E-3,6.526876827,0.139050046,0.007071009,0,0.146341463
2.1915E-3,6.858847923,0.145666776,0.006871826,0,0.146341463
2.28718E-3,7.192410999,0.151065794,0.006772234,0,0.16097561
2.8003E-3,7.472441244,0.178894143,0.006672642,0,0.16097561
2.87895E-3,7.760336,0.182998882,0.00657305,0,0.16097561
2.99127E-3,8.059462773,0.188790574,0.006473459,0,0.16097561
3.2918E-3,8.319599247,0.203890816,0.006373867,0,0.165853659
3.55531E-3,8.628895597,0.216676209,0.006274275,0,0.185365854
3.65604E-3,8.763264319,0.221455311,0.006274275,0,0.209756098
3.78999E-3,9.000340794,0.227721614,0.006174684,0,0.214634146
3.91896E-3,9.542659073,0.233660074,0.006075092,0,0.243902439
4.18408E-3,9.774265753,0.24558538,0.0059755,0,0.268292683
4.58196E-3,10.443410744,0.262801361,0.005875909,0,0.292682927
4.74481E-3,10.656364281,0.269623324,0.005776317,0.024390244,0.297560976
4.82637E-3,10.763023018,0.272992899,0.005776317,0.024390244,0.307317073
5.2763E-3,11.206029431,0.291035566,0.005676725,0.024390244,0.32195122
5.6263E-3,11.502176917,0.304463318,0.005676725,0.024390244,0.326829268
5.76955E-3,12.033998586,0.309813673,0.005577134,0.024390244,0.326829268
5.78603E-3,12.658984628,0.310423778,0.005477542,0.024390244,0.331707317
5.91309E-3,13.144455493,0.315092601,0.00537795,0.024390244,0.331707317
5.94153E-3,13.253137832,0.316129162,0.00537795,0.024390244,0.336585366
6.01367E-3,13.854505325,0.318744151,0.005278359,0.024390244,0.336585366
6.01663E-3,14.204515639,0.318850707,0.005178767,0.048780488,0.336585366
6.01875E-3,14.456380344,0.318927364,0.005178767,0.048780488,0.341463415
6.04619E-3,14.603445913,0.319916089,0.005079175,0.048780488,0.341463415
6.13317E-3,15.069697359,0.323031819,0.005079175,0.048780488,0.346341463
6.47392E-3,15.25313192,0.334967316,0.004979584,0.073170732,0.375609756
7.32165E-3,15.709486045,0.362911586,0.004979584,0.073170732,0.404878049
7.41973E-3,15.762281805,0.365993642,0.004979584,0.073170732,0.409756098
7.62235E-3,16.585172759,0.372267797,0.004879992,0.073170732,0.419512195
7.65983E-3,17.351155367,0.373414556,0.0047804,0.073170732,0.419512195
7.70258E-3,17.710965223,0.374717801,0.004680809,0.073170732,0.424390244
7.75194E-3,18.126349147,0.376215612,0.004680809,0.073170732,0.429268293
7.76125E-3,18.902474508,0.376497505,0.004581217,0.097560976,0.429268293
7.81677E-3,19.153202725,0.378172022,0.004481625,0.097560976,0.429268293
7.86008E-3,19.348839216,0.379472369,0.004481625,0.097560976,0.434146341
7.93698E-3,19.696172682,0.381767658,0.004481625,0.097560976,0.43902439
8.02883E-3,20.279728577,0.384486973,0.004382034,0.097560976,0.43902439
8.06391E-3,20.502563188,0.38551906,0.004382034,0.097560976,0.443902439
8.15391E-3,21.317954654,0.388151951,0.004282442,0.12195122,0.443902439
8.41874E-3,21.687169578,0.395769131,0.00418285,0.12195122,0.453658537
8.46724E-3,21.754788118,0.397143651,0.00418285,0.12195122,0.458536585
8.78185E-3,22.193414764,0.405910216,0.00418285,0.12195122,0.473170732
8.88006E-3,22.951874679,0.408594937,0.004083259,0.146341463,0.47804878
8.89713E-3,23.086062861,0.409059074,0.004083259,0.146341463,0.492682927
9.15941E-3,23.676008049,0.416100225,0.003983667,0.170731707,0.497560976
9.31109E-3,24.017171817,0.420096053,0.003983667,0.170731707,0.502439024
9.3888E-3,24.654389418,0.422122183,0.003884075,0.195121951,0.502439024
9.42604E-3,24.959776195,0.423088197,0.003884075,0.195121951,0.507317073
9.66446E-3,25.926222448,0.42919661,0.003784484,0.195121951,0.507317073
9.89466E-3,26.095231323,0.43497296,0.003684892,0.219512195,0.512195122
1.01484E-2,26.281497717,0.441205201,0.003684892,0.219512195,0.526829268
1.06739E-2,26.667321673,0.453686834,0.003684892,0.219512195,0.536585366
1.09979E-2,26.905215304,0.461108712,0.003684892,0.219512195,0.556097561
1.11884E-2,27.045061223,0.465378297,0.003684892,0.219512195,0.565853659
1.12734E-2,27.56857797,0.467262713,0.0035853,0.243902439,0.565853659
1.13277E-2,27.902757755,0.468458673,0.0035853,0.243902439,0.570731707
1.13731E-2,28.182374573,0.469455245,0.0035853,0.243902439,0.575609756
1.1587E-2,29.341071847,0.474097263,0.003485709,0.243902439,0.575609756
1.18735E-2,30.528417691,0.480190453,0.003386117,0.268292683,0.575609756
1.20422E-2,31.102075421,0.483713994,0.003286525,0.292682927,0.580487805
1.21767E-2,31.559161752,0.486487516,0.003286525,0.292682927,0.585365854
1.22333E-2,31.751750444,0.487647209,0.003286525,0.292682927,0.590243902
1.26157E-2,33.013324688,0.49534019,0.003186934,0.317073171,0.590243902
1.2698E-2,33.419515569,0.496965392,0.003087342,0.317073171,0.595121951
1.28766E-2,34.300983846,0.50045646,0.003087342,0.317073171,0.6
1.30284E-2,34.92183005,0.503387037,0.00298775,0.341463415,0.6
1.30796E-2,35.131274261,0.504367933,0.00298775,0.341463415,0.609756098
1.31994E-2,35.620923454,0.506646074,0.00298775,0.341463415,0.614634146
1.35559E-2,36.038143131,0.513305169,0.002888159,0.365853659,0.614634146
1.38914E-2,36.430834505,0.519410614,0.002888159,0.365853659,0.629268293
1.39838E-2,36.539010983,0.521065691,0.002888159,0.365853659,0.634146341
1.44181E-2,37.047328738,0.528692634,0.002888159,0.365853659,0.63902439
1.5079E-2,38.086552858,0.539844164,0.002788567,0.390243902,0.653658537
1.52502E-2,38.357391483,0.542648422,0.002788567,0.390243902,0.658536585
1.54067E-2,38.604839,0.545180776,0.002788567,0.390243902,0.668292683
1.55749E-2,39.212437554,0.547871696,0.002688975,0.390243902,0.668292683
1.56741E-2,39.570939908,0.549444539,0.002688975,0.390243902,0.673170732
1.58453E-2,40.189371645,0.552132193,0.002688975,0.390243902,0.67804878
1.58603E-2,40.268839135,0.552365853,0.002589384,0.390243902,0.67804878
1.6137E-2,41.736643222,0.556638253,0.002589384,0.390243902,0.682926829
1.61498E-2,41.804347921,0.556833357,0.002589384,0.390243902,0.687804878
1.62216E-2,42.015188014,0.557928004,0.002489792,0.414634146,0.687804878
1.64414E-2,42.660498362,0.561244997,0.002489792,0.414634146,0.697560976
1.64925E-2,42.810520833,0.562009017,0.002489792,0.414634146,0.702439024
1.65685E-2,43.033772683,0.563141058,0.002489792,0.414634146,0.707317073
1.66791E-2,43.358417192,0.564776828,0.002489792,0.414634146,0.717073171
1.6759E-2,43.56863515,0.565951074,0.0023902,0.43902439,0.72195122
1.72406E-2,44.68754996,0.572896661,0.0023902,0.43902439,0.731707317
1.74712E-2,45.223390124,0.576144736,0.0023902,0.43902439,0.736585366
1.76321E-2,46.986600503,0.578382304,0.002290609,0.463414634,0.736585366
1.77081E-2,47.182049185,0.579430458,0.002191017,0.487804878,0.736585366
1.80919E-2,48.169391512,0.584646714,0.002191017,0.487804878,0.741463415
1.83452E-2,48.821123578,0.58801958,0.002191017,0.487804878,0.751219512
1.84295E-2,49.084720222,0.589129421,0.002091425,0.512195122,0.751219512
1.85168E-2,49.357648512,0.590272268,0.002091425,0.512195122,0.756097561
1.85703E-2,49.525147547,0.590970503,0.002091425,0.512195122,0.765853659
1.88212E-2,50.310004197,0.594210799,0.002091425,0.512195122,0.770731707
1.89511E-2,50.716233966,0.595867846,0.002091425,0.512195122,0.775609756
1.91699E-2,51.83500604,0.598629375,0.001991833,0.536585366,0.775609756
1.92738E-2,52.366096595,0.599927129,0.001991833,0.536585366,0.780487805
1.93292E-2,52.649150297,0.600615366,0.001991833,0.536585366,0.785365854
1.96515E-2,54.614297898,0.604575631,0.001892242,0.56097561,0.790243902
1.97033E-2,54.822058346,0.605205125,0.00179265,0.585365854,0.795121951
2.01542E-2,56.629722321,0.610598739,0.00179265,0.585365854,0.8
2.03556E-2,58.665285739,0.612960211,0.001693058,0.609756098,0.8
2.05677E-2,59.24763241,0.615416528,0.001593467,0.634146341,0.804878049
2.08668E-2,60.068872401,0.618827973,0.001593467,0.634146341,0.814634146
2.09981E-2,60.429123593,0.620305439,0.001593467,0.634146341,0.819512195
2.10496E-2,60.570701246,0.620882948,0.001593467,0.634146341,0.824390244
2.11251E-2,60.777790964,0.621724531,0.001593467,0.634146341,0.829268293
2.11832E-2,61.69440361,0.62237061,0.001493875,0.658536585,0.829268293
2.12599E-2,62.903779455,0.623219676,0.001493875,0.658536585,0.834146341
2.14139E-2,65.045173364,0.624913566,0.001394283,0.682926829,0.834146341
2.17897E-2,67.224142216,0.628981902,0.001294692,0.682926829,0.834146341
2.20659E-2,69.430734169,0.631916884,0.0011951,0.707317073,0.834146341
2.2202E-2,70.231052253,0.633345399,0.001095508,0.731707317,0.834146341
2.23231E-2,70.943597305,0.634607946,0.001095508,0.731707317,0.83902439
2.24475E-2,71.675484958,0.635895745,0.001095508,0.731707317,0.843902439
2.25551E-2,71.848367383,0.63700232,0.000995917,0.756097561,0.843902439
2.26894E-2,72.06417191,0.638374226,0.000995917,0.756097561,0.848780488
2.31515E-2,72.806503525,0.643015182,0.000995917,0.756097561,0.853658537
2.39375E-2,74.069236118,0.650641808,0.000995917,0.756097561,0.858536585
2.39826E-2,76.467496025,0.651069428,0.000896325,0.780487805,0.858536585
2.41985E-2,77.002902701,0.653102589,0.000796733,0.804878049,0.858536585
2.48646E-2,78.654929915,0.659229316,0.000796733,0.804878049,0.863414634
2.49045E-2,78.753809033,0.659589164,0.000796733,0.804878049,0.868292683
2.54381E-2,81.510335942,0.664332836,0.000697142,0.829268293,0.873170732
2.57568E-2,84.086015718,0.667103454,0.00059755,0.853658537,0.873170732
2.63484E-2,85.004210243,0.672127394,0.000497958,0.87804878,0.873170732
2.72673E-2,86.430409173,0.679637098,0.000497958,0.87804878,0.87804878
2.73921E-2,86.624020592,0.680630128,0.000497958,0.87804878,0.882926829
2.75307E-2,86.839081735,0.681725981,0.000497958,0.87804878,0.892682927
2.77351E-2,87.106768403,0.68332925,0.000398367,0.902439024,0.892682927
2.7849E-2,87.255867062,0.68421527,0.000398367,0.902439024,0.902439024
2.80856E-2,87.56559475,0.686040073,0.000398367,0.902439024,0.912195122
2.89552E-2,88.70416677,0.692570635,0.000398367,0.902439024,0.917073171
2.96948E-2,89.672449633,0.697914409,0.000398367,0.902439024,0.92195122
2.98073E-2,89.819815583,0.698711449,0.000398367,0.902439024,0.926829268
3.01988E-2,90.309209239,0.701450911,0.000298775,0.926829268,0.926829268
3.07723E-2,91.026211642,0.705375673,0.000298775,0.926829268,0.931707317
3.19804E-2,92.536644023,0.713314994,0.000298775,0.926829268,0.941463415
3.23988E-2,93.059695956,0.715965503,0.000298775,0.926829268,0.96097561
3.30839E-2,96.368083746,0.720201408,0.000199183,0.951219512,0.96097561
3.32692E-2,96.576086059,0.721325443,0.000099592,0.975609756,0.96097561
3.39114E-2,97.29702356,0.725152417,0.000099592,0.975609756,0.965853659
3.45893E-2,98.058014761,0.729079608,0.000099592,0.975609756,0.970731707
3.49505E-2,98.463540925,0.731126885,0.000099592,0.975609756,0.975609756
3.63192E-2,100,0.738610731,0.000099592,0.975609756,0.985365854
3.63192E-2,100,0.738610731,0,0.975609756,0.985365854
3.64718E-2,100,0.739419434,0,1,0.985365854
4.35387E-2,100,0.772074845,0,1,0.995121951
