Predictor variable,Categorical,Sample average
bio1,false,54.97560975609756
bio10,false,136.4390243902439
bio11,false,-12.487804878048781
bio12,false,914.9268292682926
bio13,false,159.14634146341464
bio14,false,11.317073170731707
bio15,false,70.41463414634147
bio16,false,435.1707317073171
bio17,false,45.951219512195124
bio18,false,52.41463414634146
bio19,false,432.219512195122
bio2,false,134.3658536585366
bio3,false,43.73170731707317
bio4,false,6024.073170731707
bio5,false,230.609756097561
bio6,false,-72.78048780487805
bio7,false,303.390243902439
bio8,false,-7.487804878048781
bio9,false,135.390243902439
