"species","longitude","latitude"
"Abies concolor",-120.27157,38.56452
"Abies concolor",-120.62589,38.83732
"Abies concolor",-119.85491,38.89659
"Abies concolor",-119.6773,38.37426
"Abies concolor",-119.20282,38.21009
"Abies concolor",-120.24871,38.09332
"Abies concolor",-119.6021,38.53152
"Abies concolor",-120.87645,39.55932
"Abies concolor",-118.55288,36.17814
"Abies concolor",-119.61391,38.53413
"Abies concolor",-120.2858,38.37514
"Abies concolor",-119.77558,38.5326
"Abies concolor",-120.44181,38.7366
"Abies concolor",-119.64627,38.21045
"Abies concolor",-120.12517,38.64949
"Abies concolor",-120.78009,39.69497
"Abies concolor",-119.31725,36.99251
"Abies concolor",-118.92354,37.11746
"Abies concolor",-120.40737,39.14977
"Abies concolor",-120.44234,38.78751
"Abies concolor",-119.87201,37.80786
"Abies concolor",-119.72941,38.39002
"Abies concolor",-119.89217,37.97343
"Abies concolor",-119.19658,37.2767
"Abies concolor",-120.61047,39.07886
"Abies concolor",-119.2354,38.13415
"Abies concolor",-119.0909,37.13457
"Abies concolor",-120.01276,38.16206
"Abies concolor",-119.93906,37.91923
"Abies concolor",-119.57054,37.85494
"Abies concolor",-118.65604,36.5504
"Abies concolor",-120.63204,38.46344
"Abies concolor",-120.18793,38.89219
"Abies concolor",-120.29785,39.40059
