Predictor variable,Categorical,Sample average
bio1,false,31.666666666666668
bio10,false,109.76923076923077
bio11,false,-31.358974358974358
bio12,false,786.3076923076923
bio13,false,134.53846153846155
bio14,false,14.487179487179487
bio15,false,66.25641025641026
bio16,false,364.79487179487177
bio17,false,52.58974358974359
bio18,false,61.256410256410255
bio19,false,355.4102564102564
bio2,false,125.8974358974359
bio3,false,43.17948717948718
bio4,false,5729.74358974359
bio5,false,197.71794871794873
bio6,false,-89.8974358974359
bio7,false,287.61538461538464
bio8,false,-24.641025641025642
bio9,false,105.53846153846153
