Raw value,Corresponding cumulative value,Corresponding logistic value,Fractional area,Training omission,Test omission
9.6593E-9,0.000000966,0.000003575,1,0,0
9.7913E-9,0.000001945,0.000003623,0.999902124,0,0
1.06319E-8,0.000003008,0.000003934,0.999804248,0,0
1.13061E-8,0.000010723,0.000004184,0.999119115,0,0
1.33848E-8,0.000025603,0.000004953,0.997944602,0,0
1.6852E-8,0.000050501,0.000006236,0.996378585,0,0
1.86114E-8,0.000100616,0.000006887,0.993638054,0,0
2.21023E-8,0.00025049,0.000008179,0.986590976,0,0
2.61484E-8,0.000502464,0.000009676,0.976313986,0,0
3.63597E-8,0.001001988,0.000013455,0.960262308,0,0
5.48148E-8,0.002502323,0.000020284,0.928354703,0,0
7.23005E-8,0.005003093,0.000026755,0.889987276,0,0
9.84888E-8,0.010007706,0.000036446,0.833317021,0,0
1.65438E-7,0.025003987,0.000061219,0.718704121,0,0
2.60255E-7,0.050004297,0.000096301,0.602231575,0,0
4.75362E-7,0.100045663,0.000175882,0.46246452,0,0
9.39588E-7,0.200069577,0.000347585,0.316531271,0.004587156,0
1.55189E-6,0.300059907,0.000573965,0.23597925,0.004587156,0
2.47226E-6,0.40017523,0.000914052,0.186258197,0.004587156,0
3.65946E-6,0.500261023,0.001352395,0.153469707,0.004587156,0
4.87222E-6,0.600471737,0.001799779,0.13037095,0.004587156,0
6.19822E-6,0.700562803,0.002288476,0.112459626,0.004587156,0
7.12998E-6,0.750252691,0.002631592,0.105118919,0.004587156,0
7.94006E-6,0.800078197,0.002929706,0.098659098,0.004587156,0
1.00004E-5,0.900884827,0.003687121,0.0875991,0.004587156,0
1.20577E-5,1.000633045,0.00444228,0.078692375,0.004587156,0
1.48951E-5,1.101348621,0.005481902,0.071351669,0.004587156,0
1.8611E-5,1.20067949,0.006840124,0.065479103,0.004587156,0
2.20871E-5,1.301073848,0.008107311,0.060585299,0.004587156,0
2.7479E-5,1.401344374,0.010066575,0.056572379,0.004587156,0
3.26669E-5,1.502243322,0.011944388,0.053342468,0.004587156,0
4.65053E-5,1.753111653,0.016918669,0.047078399,0.004587156,0
7.15046E-5,2.00039498,0.025778968,0.042869727,0.004587156,0
1.0662E-4,2.258130545,0.037958153,0.039933444,0.004587156,0
1.41371E-4,2.503332489,0.049714966,0.037975922,0.004587156,0.004878049
2.01524E-4,2.756620185,0.06940057,0.036507781,0.004587156,0.004878049
2.28285E-4,3.016101666,0.077898783,0.035333268,0.004587156,0.009756098
2.76589E-4,3.274946487,0.092851287,0.034354507,0.009174312,0.014634146
3.20702E-4,3.508855286,0.106089092,0.033571498,0.009174312,0.014634146
4.59879E-4,3.788071014,0.145433281,0.032886366,0.009174312,0.014634146
5.08695E-4,4.032993986,0.158425309,0.032396985,0.009174312,0.014634146
5.77329E-4,4.252165377,0.176037468,0.032005481,0.009174312,0.014634146
6.50152E-4,4.504515188,0.193936002,0.031613977,0.009174312,0.019512195
7.06939E-4,4.782831512,0.207362818,0.031222472,0.013761468,0.019512195
8.02E-4,5.021613212,0.228864832,0.030928844,0.013761468,0.024390244
8.301E-4,5.267234945,0.234999355,0.030635216,0.013761468,0.029268293
8.6151E-4,5.523705048,0.241741794,0.030341588,0.013761468,0.029268293
8.71507E-4,5.7837201,0.243862848,0.030047959,0.018348624,0.029268293
8.93157E-4,6.05019801,0.248416116,0.029754331,0.018348624,0.029268293
9.04085E-4,6.320292519,0.250693479,0.029460703,0.018348624,0.029268293
9.31443E-4,6.506576442,0.256334976,0.029264951,0.02293578,0.034146341
9.48074E-4,6.788528538,0.259723274,0.028971322,0.02293578,0.034146341
1.00325E-3,7.012197516,0.270746702,0.028677694,0.027522936,0.034146341
1.05937E-3,7.298728071,0.281625676,0.028481942,0.027522936,0.03902439
1.07457E-3,7.512870815,0.284516611,0.02828619,0.027522936,0.03902439
1.11203E-3,7.842594604,0.291544097,0.027992561,0.027522936,0.043902439
1.12418E-3,8.066573522,0.293794256,0.027796809,0.032110092,0.048780488
1.15611E-3,8.295923554,0.299637252,0.027601057,0.036697248,0.053658537
1.26071E-3,8.539271602,0.318122708,0.027405305,0.036697248,0.058536585
1.2847E-3,8.794695757,0.322225471,0.027209553,0.041284404,0.058536585
1.34709E-3,9.058953042,0.332668839,0.027013801,0.04587156,0.058536585
1.40702E-3,9.338927019,0.342401575,0.026818048,0.050458716,0.058536585
1.49198E-3,9.631271742,0.355721667,0.026622296,0.050458716,0.058536585
1.55101E-3,9.78637286,0.364663918,0.02652442,0.050458716,0.058536585
1.61874E-3,10.104616618,0.37462273,0.026328668,0.050458716,0.058536585
1.62018E-3,10.266634536,0.374830634,0.026230792,0.050458716,0.058536585
1.63228E-3,10.592603487,0.376576437,0.02603504,0.059633028,0.058536585
1.64048E-3,10.756651703,0.377753403,0.025937164,0.064220183,0.063414634
1.6771E-3,11.090325666,0.382955899,0.025741411,0.064220183,0.073170732
1.69463E-3,11.259789004,0.385416879,0.025643535,0.064220183,0.073170732
1.73049E-3,11.605688199,0.390388379,0.025447783,0.068807339,0.073170732
1.74599E-3,11.780287234,0.392512519,0.025349907,0.068807339,0.073170732
1.75907E-3,12.131471626,0.394293474,0.025154155,0.068807339,0.073170732
1.79399E-3,12.310871116,0.398998411,0.025056279,0.068807339,0.07804878
1.90499E-3,12.501369665,0.413476836,0.024958403,0.068807339,0.082926829
1.93833E-3,12.887634389,0.417691053,0.02476265,0.068807339,0.082926829
1.9461E-3,13.082244808,0.418665138,0.024664774,0.068807339,0.082926829
1.95586E-3,13.27783094,0.419882832,0.024566898,0.068807339,0.082926829
2.00973E-3,13.612916084,0.42651509,0.024371146,0.068807339,0.082926829
2.02803E-3,13.880927215,0.428733065,0.02427327,0.073394495,0.097560976
2.02977E-3,14.083904433,0.428943854,0.024175394,0.073394495,0.097560976
2.0326E-3,14.287164016,0.429284406,0.024077518,0.073394495,0.097560976
2.05808E-3,14.697223099,0.432340135,0.023881766,0.077981651,0.097560976
2.0715E-3,14.756847924,0.433935179,0.02378389,0.082568807,0.097560976
2.13359E-3,15.121127388,0.441203958,0.023686014,0.082568807,0.102439024
2.18206E-3,15.287274082,0.446749133,0.023588137,0.087155963,0.107317073
2.20497E-3,15.561395329,0.449332066,0.023490261,0.091743119,0.117073171
2.20842E-3,15.782237006,0.449718236,0.023392385,0.091743119,0.117073171
2.21949E-3,16.004186345,0.450956672,0.023294509,0.096330275,0.117073171
2.24647E-3,16.453169485,0.453949869,0.023098757,0.105504587,0.117073171
2.27405E-3,16.680574187,0.456975666,0.023000881,0.110091743,0.117073171
2.30395E-3,16.910968981,0.46021903,0.022903005,0.110091743,0.12195122
2.31365E-3,17.142334377,0.461263532,0.022805129,0.114678899,0.12195122
2.3169E-3,17.374024109,0.461611663,0.022707253,0.119266055,0.12195122
2.31746E-3,17.605770093,0.461671996,0.022609377,0.123853211,0.12195122
2.34606E-3,17.840376104,0.464721793,0.0225115,0.123853211,0.126829268
2.3489E-3,18.075266535,0.465023197,0.022413624,0.123853211,0.126829268
2.36537E-3,18.311803611,0.466761522,0.022315748,0.128440367,0.131707317
2.36665E-3,18.548469027,0.466896532,0.022217872,0.128440367,0.131707317
2.37103E-3,18.785572291,0.467356626,0.022119996,0.128440367,0.131707317
2.3769E-3,19.023262678,0.467972332,0.02202212,0.133027523,0.131707317
2.40974E-3,19.264236565,0.471389619,0.021924244,0.133027523,0.131707317
2.42248E-3,19.506484567,0.472703854,0.021826368,0.137614679,0.141463415
2.45047E-3,19.751531485,0.475568084,0.021728492,0.142201835,0.146341463
2.48386E-3,20.246018958,0.478944686,0.02153274,0.151376147,0.156097561
2.49862E-3,20.495880728,0.480423162,0.021434863,0.155963303,0.156097561
2.50148E-3,20.746028961,0.480709186,0.021336987,0.155963303,0.156097561
2.50843E-3,20.781833433,0.481401545,0.021239111,0.160550459,0.156097561
2.55098E-3,21.001126961,0.485602116,0.021239111,0.160550459,0.170731707
2.55311E-3,21.256438269,0.485810902,0.021141235,0.160550459,0.170731707
2.55628E-3,21.51206638,0.486120678,0.021043359,0.165137615,0.170731707
2.57063E-3,21.769128984,0.487518694,0.020945483,0.169724771,0.175609756
2.58865E-3,22.027993833,0.489264364,0.020847607,0.169724771,0.180487805
2.6043E-3,22.288423468,0.490770414,0.020749731,0.169724771,0.180487805
2.61007E-3,22.549430849,0.49132423,0.020651855,0.174311927,0.180487805
2.63306E-3,22.812737098,0.493516001,0.020553979,0.178899083,0.180487805
2.6443E-3,23.077167217,0.494580655,0.020456103,0.183486239,0.185365854
2.66533E-3,23.34370023,0.496560769,0.020358226,0.183486239,0.2
2.69311E-3,23.613011504,0.499153154,0.02026035,0.188073394,0.2
2.69625E-3,23.882636436,0.499444151,0.020162474,0.188073394,0.2
2.70355E-3,24.002041429,0.50012051,0.020064598,0.19266055,0.2
2.73883E-3,24.370404009,0.503361025,0.019966722,0.19266055,0.224390244
2.75143E-3,24.703643334,0.504508419,0.019868846,0.19266055,0.229268293
2.75225E-3,24.978868083,0.504583068,0.01977097,0.197247706,0.229268293
2.75434E-3,25.18367234,0.504772868,0.019673094,0.201834862,0.229268293
2.75506E-3,25.254374048,0.504838357,0.019673094,0.201834862,0.23902439
2.76113E-3,25.530486621,0.505388143,0.019575218,0.206422018,0.23902439
2.78317E-3,25.808803392,0.507375635,0.019477342,0.211009174,0.243902439
2.79517E-3,26.088320831,0.508451553,0.019379466,0.21559633,0.248780488
2.8194E-3,26.370261294,0.510608577,0.01928159,0.21559633,0.248780488
2.8248E-3,26.652741226,0.511086247,0.019183713,0.220183486,0.253658537
2.83798E-3,26.905859136,0.512249149,0.019085837,0.224770642,0.258536585
2.84443E-3,27.001622468,0.512816458,0.018987961,0.224770642,0.273170732
2.86455E-3,27.509248205,0.514577489,0.018890085,0.229357798,0.282926829
2.8736E-3,27.796608155,0.515365251,0.018792209,0.233944954,0.282926829
2.87499E-3,28.084107116,0.515486044,0.018694333,0.23853211,0.282926829
2.87571E-3,28.371678052,0.515548563,0.018596457,0.243119266,0.282926829
2.88906E-3,28.615942263,0.51670557,0.018498581,0.247706422,0.282926829
2.89184E-3,28.950013859,0.516945585,0.018400705,0.252293578,0.287804878
2.90563E-3,29.240576818,0.518133301,0.018302829,0.256880734,0.287804878
2.9133E-3,29.531907025,0.518791671,0.018204953,0.26146789,0.287804878
2.93923E-3,29.803173689,0.521003323,0.018107076,0.26146789,0.297560976
2.94933E-3,30.120982214,0.521859712,0.0180092,0.26146789,0.307317073
2.95219E-3,30.369700957,0.522100995,0.017911324,0.266055046,0.307317073
2.9612E-3,30.712374204,0.522861224,0.017813448,0.266055046,0.312195122
2.9624E-3,31.00861449,0.522962748,0.017715572,0.270642202,0.312195122
2.96579E-3,31.305193653,0.523247957,0.017617696,0.275229358,0.312195122
2.98592E-3,31.603785174,0.524934609,0.01751982,0.279816514,0.317073171
3.01009E-3,31.904793724,0.526944726,0.017421944,0.28440367,0.32195122
3.01646E-3,32.206439814,0.527472103,0.017324068,0.288990826,0.32195122
3.01723E-3,32.508163121,0.527535898,0.017226192,0.293577982,0.32195122
3.01899E-3,32.81006262,0.527681399,0.017128316,0.298165138,0.32195122
3.02575E-3,33.112637265,0.528238109,0.017030439,0.298165138,0.32195122
3.03138E-3,33.259357172,0.52870137,0.016932563,0.302752294,0.32195122
3.03743E-3,33.720120501,0.529198418,0.016834687,0.30733945,0.326829268
3.03836E-3,33.76212781,0.529274578,0.016736811,0.30733945,0.331707317
3.04416E-3,34.024536461,0.529749771,0.016736811,0.30733945,0.336585366
3.05829E-3,34.330365936,0.530903664,0.016638935,0.311926606,0.346341463
3.06415E-3,34.636780583,0.531379701,0.016541059,0.316513761,0.346341463
3.07378E-3,34.944158727,0.532161404,0.016443183,0.321100917,0.346341463
3.08807E-3,35.252965294,0.533315524,0.016345307,0.321100917,0.346341463
3.08851E-3,35.561816497,0.533351496,0.016247431,0.325688073,0.346341463
3.09819E-3,35.838084889,0.534130429,0.016149555,0.330275229,0.346341463
3.10358E-3,36.182111466,0.53456224,0.016051679,0.330275229,0.351219512
3.11453E-3,36.493564193,0.535438557,0.015953802,0.330275229,0.351219512
3.12333E-3,36.805896768,0.536140194,0.015855926,0.334862385,0.351219512
3.12718E-3,37.118614874,0.536446968,0.01575805,0.339449541,0.356097561
3.13397E-3,37.297761012,0.536986406,0.015660174,0.344036697,0.36097561
3.1444E-3,37.746962568,0.537811802,0.015562298,0.348623853,0.370731707
3.14659E-3,38.061621339,0.537985054,0.015464422,0.353211009,0.370731707
3.15055E-3,38.376676028,0.538297588,0.015366546,0.357798165,0.370731707
3.15073E-3,38.691749036,0.538312038,0.01526867,0.362385321,0.370731707
3.15622E-3,39.007371372,0.538744947,0.015170794,0.366972477,0.370731707
3.1719E-3,39.324561814,0.539976267,0.015072918,0.366972477,0.370731707
3.19787E-3,39.585349316,0.542001108,0.014975042,0.371559633,0.375609756
3.20888E-3,39.96583077,0.54285388,0.014877166,0.376146789,0.380487805
3.21418E-3,40.014796126,0.543263641,0.014779289,0.380733945,0.380487805
3.24401E-3,40.290232247,0.545554973,0.014779289,0.380733945,0.390243902
3.27417E-3,40.617649306,0.547848012,0.014681413,0.380733945,0.404878049
3.2777E-3,40.945419384,0.548114935,0.014583537,0.385321101,0.404878049
3.28674E-3,41.274093677,0.548797188,0.014485661,0.389908257,0.404878049
3.28772E-3,41.602866046,0.548871065,0.014387785,0.389908257,0.404878049
3.31649E-3,41.934514969,0.551027159,0.014289909,0.394495413,0.404878049
3.31793E-3,42.006121552,0.55113434,0.014192033,0.399082569,0.404878049
3.32316E-3,42.266830864,0.551524141,0.014192033,0.399082569,0.409756098
3.33617E-3,42.600448236,0.552490753,0.014094157,0.403669725,0.409756098
3.34191E-3,42.934638787,0.552915134,0.013996281,0.408256881,0.414634146
3.37667E-3,43.27230565,0.55547185,0.013898405,0.412844037,0.419512195
3.39163E-3,43.611469007,0.556563491,0.013800529,0.417431193,0.424390244
3.40853E-3,43.952322496,0.557789955,0.013702652,0.422018349,0.424390244
3.42162E-3,44.294484714,0.558735,0.013604776,0.426605505,0.424390244
3.42275E-3,44.636759848,0.558816348,0.0135069,0.431192661,0.424390244
3.42306E-3,44.979065863,0.55883859,0.013409024,0.431192661,0.424390244
3.42977E-3,45.322042615,0.559321145,0.013311148,0.435779817,0.424390244
3.43487E-3,45.665529334,0.55968733,0.013213272,0.440366972,0.424390244
3.45854E-3,46.011383832,0.561379583,0.013115396,0.444954128,0.424390244
3.45938E-3,46.357321723,0.561438948,0.01301752,0.449541284,0.424390244
3.46682E-3,46.704003362,0.56196768,0.012919644,0.45412844,0.424390244
3.47469E-3,46.833759762,0.562526178,0.012821768,0.458715596,0.424390244
3.48799E-3,47.052802069,0.563465755,0.012821768,0.458715596,0.43902439
3.49191E-3,47.401993172,0.563742297,0.012723892,0.463302752,0.43902439
3.49888E-3,47.599529357,0.564232369,0.012626015,0.467889908,0.43902439
3.50427E-3,47.752420047,0.564610924,0.012626015,0.467889908,0.443902439
3.52434E-3,48.104854391,0.566014629,0.012528139,0.467889908,0.463414634
3.52682E-3,48.265810145,0.566187424,0.012430263,0.472477064,0.463414634
3.53301E-3,48.811134053,0.566618125,0.012332387,0.472477064,0.468292683
3.53997E-3,49.165131396,0.567101291,0.012234511,0.47706422,0.468292683
3.54039E-3,49.51917053,0.567130271,0.012136635,0.481651376,0.473170732
3.56015E-3,49.808482083,0.568496039,0.012038759,0.486238532,0.482926829
3.57135E-3,50.23277947,0.569266537,0.011940883,0.490825688,0.487804878
3.58931E-3,50.428765556,0.57049614,0.011843007,0.495412844,0.487804878
3.60438E-3,50.593217796,0.571522498,0.011843007,0.495412844,0.492682927
3.60606E-3,50.953823635,0.571636277,0.011745131,0.5,0.492682927
3.61057E-3,51.314880477,0.57194231,0.011647255,0.504587156,0.492682927
3.61714E-3,51.600957557,0.572387486,0.011549378,0.509174312,0.497560976
3.62404E-3,52.039173063,0.572854092,0.011451502,0.513761468,0.502439024
3.63501E-3,52.348494943,0.57359325,0.011353626,0.518348624,0.502439024
3.64575E-3,52.767441486,0.574314436,0.01125575,0.52293578,0.507317073
3.65532E-3,53.026968249,0.574955319,0.011157874,0.527522936,0.507317073
3.66036E-3,53.499401206,0.575291819,0.011059998,0.532110092,0.512195122
3.66701E-3,53.607256876,0.575735683,0.010962122,0.536697248,0.512195122
3.6807E-3,53.828991759,0.576645292,0.010962122,0.536697248,0.517073171
3.69259E-3,54.23696877,0.577432638,0.010864246,0.541284404,0.52195122
3.70179E-3,54.60714811,0.578039949,0.01076637,0.54587156,0.52195122
3.70527E-3,54.977675604,0.578269223,0.010668494,0.54587156,0.52195122
3.71679E-3,55.219632158,0.57902548,0.010570618,0.550458716,0.52195122
3.72299E-3,55.34997426,0.579431753,0.010570618,0.550458716,0.526829268
3.7267E-3,55.722643849,0.57967441,0.010472742,0.550458716,0.526829268
3.72809E-3,56.09545278,0.579765492,0.010374865,0.550458716,0.526829268
3.72933E-3,56.468385734,0.579846527,0.010276989,0.555045872,0.526829268
3.73173E-3,56.649203763,0.580003365,0.010179113,0.559633028,0.526829268
3.73429E-3,56.841814694,0.580170302,0.010179113,0.559633028,0.531707317
3.73753E-3,57.069292012,0.58038168,0.010081237,0.564220183,0.536585366
3.74186E-3,57.294542116,0.580663583,0.009983361,0.568807339,0.541463415
3.74874E-3,57.536159812,0.581110501,0.009983361,0.568807339,0.546341463
3.75215E-3,57.9660207,0.581331963,0.009885485,0.573394495,0.551219512
3.75586E-3,58.341606555,0.581572459,0.009787609,0.577981651,0.551219512
3.75937E-3,58.71754355,0.581799843,0.009689733,0.577981651,0.551219512
3.76146E-3,59.093689322,0.581934921,0.009591857,0.582568807,0.551219512
3.77525E-3,59.400669518,0.582824984,0.009493981,0.587155963,0.551219512
3.77867E-3,59.849399055,0.583044949,0.009396105,0.591743119,0.56097561
3.78267E-3,60.012522279,0.583302608,0.009298228,0.596330275,0.570731707
3.79143E-3,60.607338777,0.583864282,0.009200352,0.600917431,0.585365854
3.79144E-3,60.986482687,0.583865129,0.009102476,0.605504587,0.585365854
3.79313E-3,61.127057032,0.583973598,0.0090046,0.605504587,0.585365854
3.79601E-3,61.366083791,0.584157905,0.0090046,0.605504587,0.590243902
3.79995E-3,61.746078958,0.584409925,0.008906724,0.610091743,0.590243902
3.80671E-3,62.080923562,0.584841561,0.008808848,0.614678899,0.590243902
3.80877E-3,62.507719409,0.5849725,0.008710972,0.619266055,0.595121951
3.80976E-3,62.888695447,0.585035907,0.008613096,0.623853211,0.595121951
3.81276E-3,63.269971651,0.585227093,0.00851522,0.628440367,0.595121951
3.8187E-3,63.528672696,0.585604536,0.008417344,0.633027523,0.595121951
3.82783E-3,63.778460167,0.586184325,0.008319468,0.637614679,0.6
3.84069E-3,64.03619387,0.586997791,0.008319468,0.637614679,0.609756098
3.84121E-3,64.420315303,0.587030608,0.008221591,0.642201835,0.609756098
3.85881E-3,64.806195867,0.58813785,0.008123715,0.646788991,0.609756098
3.85978E-3,65.192174094,0.588199148,0.008025839,0.651376147,0.609756098
3.86236E-3,65.26021766,0.588360738,0.007927963,0.655963303,0.609756098
3.87445E-3,65.579619088,0.589117565,0.007927963,0.655963303,0.619512195
3.87463E-3,65.967082065,0.5891288,0.007830087,0.655963303,0.619512195
3.87597E-3,66.354679092,0.589212526,0.007732211,0.660550459,0.619512195
3.88097E-3,66.74277625,0.589524604,0.007634335,0.665137615,0.619512195
3.88546E-3,67.131321869,0.589804037,0.007536459,0.669724771,0.619512195
3.89044E-3,67.520365533,0.59011392,0.007438583,0.674311927,0.624390244
3.89371E-3,67.909736936,0.590317583,0.007340707,0.678899083,0.624390244
3.8983E-3,68.299567313,0.590602459,0.007242831,0.683486239,0.629268293
3.90783E-3,68.690349891,0.591192208,0.007144954,0.688073394,0.634146341
3.91257E-3,69.081606835,0.591485375,0.007047078,0.69266055,0.643902439
3.9157E-3,69.473176666,0.591678514,0.006949202,0.697247706,0.648780488
3.91915E-3,69.865091883,0.591891503,0.006851326,0.697247706,0.648780488
3.92629E-3,70.217338709,0.5923311,0.00675345,0.701834862,0.653658537
3.92711E-3,70.257803119,0.592381538,0.00675345,0.701834862,0.658536585
3.93351E-3,70.651154342,0.592774667,0.006655574,0.706422018,0.663414634
3.93755E-3,70.966976047,0.593022602,0.006557698,0.711009174,0.663414634
3.93855E-3,71.045009708,0.593083815,0.006557698,0.711009174,0.668292683
3.96832E-3,71.441842146,0.594899879,0.006459822,0.71559633,0.668292683
3.97401E-3,71.839242902,0.595244721,0.006361946,0.71559633,0.668292683
3.97455E-3,72.236697491,0.595277356,0.00626407,0.720183486,0.668292683
3.97679E-3,72.508287916,0.595413553,0.006166194,0.724770642,0.668292683
3.98018E-3,72.843246742,0.595618688,0.006068318,0.729357798,0.67804878
3.98231E-3,73.032712158,0.595747366,0.006068318,0.729357798,0.682926829
3.99688E-3,73.43239974,0.596626402,0.005970441,0.733944954,0.687804878
4.00374E-3,73.731962744,0.597039534,0.005872565,0.73853211,0.687804878
4.00606E-3,73.833005812,0.597178693,0.005872565,0.73853211,0.692682927
4.00864E-3,74.233870112,0.597333695,0.005774689,0.743119266,0.692682927
4.01256E-3,74.635125678,0.597568324,0.005676813,0.747706422,0.692682927
4.01804E-3,74.873847053,0.597896649,0.005578937,0.752293578,0.707317073
4.02179E-3,75.037304937,0.598121151,0.005578937,0.752293578,0.717073171
4.03534E-3,75.44083869,0.598929071,0.005481061,0.756880734,0.72195122
4.03878E-3,75.844716308,0.59913366,0.005383185,0.76146789,0.72195122
4.04442E-3,76.24915821,0.59946894,0.005285309,0.766055046,0.726829268
4.07312E-3,76.612438953,0.601165389,0.005187433,0.770642202,0.726829268
4.08274E-3,76.795101352,0.601731089,0.005089557,0.775229358,0.736585366
4.09349E-3,77.038128266,0.602361218,0.005089557,0.775229358,0.741463415
4.09588E-3,77.475881708,0.602500623,0.004991681,0.779816514,0.746341463
4.09886E-3,77.885768205,0.602675369,0.004893804,0.78440367,0.746341463
4.10868E-3,78.296636001,0.603247823,0.004795928,0.788990826,0.751219512
4.11768E-3,78.574103923,0.603771713,0.004698052,0.793577982,0.751219512
4.12965E-3,79.009588876,0.604465531,0.004600176,0.798165138,0.76097561
4.1332E-3,79.264442469,0.604671365,0.0045023,0.802752294,0.765853659
4.13457E-3,79.535547257,0.604750421,0.0045023,0.802752294,0.770731707
4.15597E-3,79.951144018,0.605983558,0.004404424,0.80733945,0.770731707
4.16432E-3,80.367575943,0.606462791,0.004306548,0.80733945,0.770731707
4.16582E-3,80.784157932,0.606548777,0.004208672,0.811926606,0.770731707
4.16636E-3,81.200793885,0.606579689,0.004110796,0.816513761,0.770731707
4.18023E-3,81.618817084,0.607372674,0.00401292,0.821100917,0.775609756
4.18053E-3,82.036870059,0.60738966,0.003915044,0.825688073,0.775609756
4.20834E-3,82.408106109,0.608969843,0.003817167,0.830275229,0.775609756
4.21339E-3,82.512312697,0.60925522,0.003719291,0.834862385,0.780487805
4.22223E-3,82.880302025,0.609754129,0.003719291,0.834862385,0.785365854
4.23362E-3,83.30366437,0.610395068,0.003621415,0.839449541,0.785365854
4.26268E-3,83.729931937,0.612020195,0.003523539,0.844036697,0.785365854
4.28353E-3,84.158285379,0.613178658,0.003425663,0.848623853,0.785365854
4.29306E-3,84.587591476,0.613705449,0.003327787,0.853211009,0.790243902
4.3179E-3,85.019381928,0.615072504,0.003229911,0.857798165,0.790243902
4.33448E-3,85.28911427,0.615979245,0.003132035,0.862385321,0.790243902
4.3494E-3,85.888781839,0.61679151,0.003034159,0.866972477,0.809756098
4.38491E-3,86.327272813,0.618711782,0.002936283,0.866972477,0.814634146
4.40416E-3,86.767688761,0.61974461,0.002838407,0.871559633,0.814634146
4.40648E-3,87.208336396,0.619868542,0.00274053,0.876146789,0.824390244
4.43329E-3,87.574269942,0.621297226,0.002642654,0.880733945,0.834146341
4.44278E-3,88.09651567,0.6218002,0.002544778,0.885321101,0.843902439
4.44867E-3,88.541382745,0.622111528,0.002446902,0.889908257,0.843902439
4.46361E-3,88.987744003,0.622899479,0.002349026,0.894495413,0.843902439
4.46725E-3,89.253660707,0.623090912,0.00225115,0.899082569,0.843902439
4.49373E-3,89.884090321,0.624477917,0.002153274,0.903669725,0.858536585
4.4943E-3,90.333520011,0.624507343,0.002055398,0.908256881,0.858536585
4.49923E-3,90.545530458,0.624764613,0.001957522,0.912844037,0.863414634
4.50478E-3,90.783998095,0.625053566,0.001957522,0.912844037,0.868292683
4.50762E-3,91.234759968,0.625201149,0.001859646,0.917431193,0.868292683
4.51084E-3,91.685844326,0.625368715,0.00176177,0.917431193,0.868292683
4.52442E-3,91.954532461,0.626072282,0.001663894,0.922018349,0.868292683
4.53374E-3,92.139218748,0.626554357,0.001663894,0.922018349,0.873170732
4.54791E-3,92.295605046,0.627283905,0.001566017,0.926605505,0.882926829
4.57518E-3,92.596736822,0.628680696,0.001566017,0.926605505,0.892682927
4.57521E-3,93.054257802,0.628682179,0.001468141,0.931192661,0.892682927
4.58064E-3,93.472362534,0.628959135,0.001370265,0.935779817,0.892682927
4.58116E-3,93.512373979,0.628985618,0.001370265,0.935779817,0.902439024
4.62398E-3,93.80053219,0.631154045,0.001272389,0.940366972,0.912195122
4.66399E-3,94.443799586,0.633157605,0.001174513,0.944954128,0.92195122
4.67113E-3,94.910912782,0.633512744,0.001076637,0.949541284,0.92195122
4.68184E-3,95.379097227,0.634044426,0.000978761,0.95412844,0.92195122
4.6838E-3,95.847477014,0.634141212,0.000880885,0.958715596,0.92195122
4.71273E-3,96.318750435,0.635568944,0.000783009,0.963302752,0.92195122
4.76008E-3,96.500200942,0.637881108,0.000685133,0.967889908,0.936585366
4.839E-3,96.802650118,0.64167059,0.000685133,0.967889908,0.951219512
4.87415E-3,97.052176184,0.643333028,0.000587257,0.972477064,0.956097561
4.90814E-3,97.293463756,0.644925974,0.000587257,0.972477064,0.970731707
4.9862E-3,97.579815721,0.648531292,0.00048938,0.97706422,0.980487805
5.04569E-3,97.798033149,0.651229983,0.00048938,0.97706422,0.995121951
5.12075E-3,98.310108596,0.654576378,0.000391504,0.981651376,0.995121951
5.32046E-3,98.842154604,0.663174848,0.000293628,0.986238532,0.995121951
5.7344E-3,99.415594706,0.679701039,0.000195752,0.990825688,1
5.84405E-3,100,0.683810581,0.000097876,0.995412844,1
5.84405E-3,100,0.683810581,0.000097876,1,1
