X,Y,Test or train,Raw prediction,Cumulative prediction,Logistic prediction
-120.339875,39.343083,train,0.004033389676484677,70.27696380080005,0.6788006856563853
-120.243156,39.431825,train,0.0036951971298853636,65.24762784879478,0.659415924233859
-118.378566,35.992551,train,5.604776433202984E-4,13.707925954806623,0.22700380241931045
-120.028725,38.875586,train,0.0016173316409210795,30.872324097280895,0.45870334478427116
-120.121411,38.673261,train,0.006136792745659109,94.51914437196949,0.7627762255794397
-120.617826,39.431382,train,8.193474994336034E-4,17.9447442125082,0.30035910410911093
-119.251822,37.908183,train,0.0028750826531378855,49.42125553502684,0.6010255306348278
-118.60455,37.724495,train,4.494160646319523E-5,1.974627806280785,0.023005837182093647
-118.60465,36.419285,train,0.002159797646462284,40.04305194920726,0.5308789266640976
-119.066823,37.16619,train,0.003121269793330258,53.62258333853932,0.6205535605451532
-118.27759,36.26929,train,0.001259542191876775,24.91721630245609,0.3975717567524806
-119.467567,37.828338,train,0.002989426110663858,51.18025950348019,0.610339614883478
-119.316863,38.090553,train,0.003121200824423123,53.31505395812415,0.6205483574982156
-119.91383,38.515711,train,0.004904793252615782,81.42040092904331,0.7198810195508941
-119.080847,37.608442,train,0.0010557994046043765,22.28946531293893,0.3561661804506137
-119.26485,38.049238,train,0.0020694584558704943,38.353018552628406,0.5202253379665324
-120.010278,38.718655,train,0.007408652257628975,99.22886361408366,0.7951588497968497
-119.811462,38.546392,train,0.006055073288333505,93.29758556552547,0.760341930492083
-120.024039,38.862062,train,0.0020787262808560857,38.56258306605508,0.521340503382169
-119.470211,37.748303,train,0.002374688164965679,41.82408814044933,0.5544148059593225
-120.145495,38.877685,train,0.004235437061810971,72.77956277756206,0.689363456775583
-120.121025,38.654775,train,0.0043586365674982185,74.50642711197804,0.6954699122958531
-120.030219,38.450367,train,0.002526110958343813,44.78518387288435,0.5696294579399505
-119.267,37.964,train,0.0024188003364001326,42.545830836125354,0.5589570198661286
-119.52208,37.730466,train,6.655161127043242E-4,15.782697336100577,0.25854707893641554
-120.232863,39.32146,train,0.004558574352733476,77.18417900007486,0.7048847789747301
-119.538363,37.901408,train,0.007711421360940998,100.0,0.801605812891588
-120.118321,38.949011,train,0.0030248424650288243,52.0825740852931,0.6131369522022345
-119.538329,37.865101,train,0.0068254909358940975,97.77897651586191,0.7814818475673494
-119.339224,37.882869,train,0.004399041337122075,75.82496162648066,0.6974206532593695
-120.280938,39.434271,train,0.003060696695222637,52.99906729049672,0.615928258442812
-120.57275,39.846,test,7.897435899249348E-4,17.493935261075464,0.29268308977978036
-119.42578,37.96014,test,0.0035604564508752044,63.06366843141393,0.6510248996950854
-118.91904,37.62119,test,5.401649178814302E-4,13.236876895834548,0.22059158667954787
-118.51306,36.49575,test,0.001332159924272059,25.86645932290431,0.41107096977479046
-119.5605,37.97036,test,0.0023915625522018336,42.00618014524546,0.5561633613462832
-119.68659,37.73466,test,1.3687418156937107E-4,4.584317920466619,0.06691740690336613
-120.12701,38.38691,test,9.164806851643239E-4,19.737708104271857,0.32441493384995473
-119.49359,38.23998,test,0.003778219305091257,65.86175309830458,0.6643881767792551
-119.3449,38.07792,test,0.0029059407998442877,50.000414629547926,0.6035827323639085
-119.93105,38.12417,test,0.0017139380391627095,32.76496041292976,0.4731389438914302
-120.22119,38.53592,test,5.719864825426864E-4,13.939004691636569,0.23059024637406877
-119.28377,37.83597,test,0.002157975530410686,39.8273232781811,0.530668724127319
-120.56343,39.3816,test,0.0018689006777470824,34.91976291220547,0.4947524296791744
-118.84087,36.87834,test,8.723275210732666E-4,18.8286562390678,0.3136883677733767
-119.48794,37.68538,test,0.0017248252988132497,33.04034628007087,0.47471766332983084
-119.89492,37.99582,test,1.3630507817355357E-5,0.7566143700820837,0.007091186090281557
-121.44382,40.21577,test,7.673562771904683E-5,2.8980448812526234,0.03865227266200511
-119.58822,37.65789,test,7.890866446450815E-4,17.485862916970287,0.29251083927287025
-121.46909,40.23321,test,5.016507353352041E-5,2.129426488393835,0.02561127408983755
-120.33839,39.21218,test,0.002443494497002834,43.03413215110162,0.5614595672174408
-120.6313,39.40242,test,4.7258033832158814E-4,12.272634898097774,0.19846928263191727
-120.31614,38.93303,test,0.0020501338677556802,37.978392369826544,0.5178832822316067
-119.03031,36.97277,test,5.064697317107956E-4,12.600666255235275,0.2097169921130708
-118.36705,36.51206,test,6.304764735497178E-4,14.81659529407838,0.248314696938114
-119.75698,38.10128,test,0.0034069579545066915,59.184170636533494,0.6409473682707147
-118.95969,37.64863,test,7.714413396442857E-4,17.269042767445843,0.28785265893787115
-123.80035,41.752,test,5.488218161688908E-6,0.3619521625758327,0.0028673570848549604
-119.01562,37.15006,test,0.002018844877681476,37.71295942765987,0.5140423232944004
-119.83907,38.09412,test,0.00160591337160669,30.517868640741433,0.45694470392312797
-118.35531,36.51263,test,6.304764735497178E-4,14.81659529407838,0.248314696938114
-119.46034,37.92271,test,0.0018961111077798604,35.398505934505096,0.49836589734641495
-119.35508,38.37986,test,0.0015097087261591814,29.034250073801097,0.44166074940770494
-120.16498,39.23348,test,0.0037544071769646742,65.51713987776368,0.6629769639046792
-120.35421,38.77999,test,4.9778525172548505E-5,2.118539897406198,0.025418942096349116
-119.87504,38.19151,test,0.003820879816192419,66.76629776014732,0.6668870961478234
-119.08347,37.07203,test,3.874004768958564E-4,11.049041405249177,0.1687324003528419
-120.65319,39.60944,test,0.001547267092154756,29.550608688046676,0.4477288764613167
-120.59682,39.3031,test,2.1740105645082003E-4,6.7782893535039355,0.10226082829035846
-119.3997,37.54777,test,0.0035467181601385295,61.55112210814529,0.6501460564932477
-121.19601,39.73699,test,4.907626617221556E-6,0.33190202106471933,0.002564801056122015
-120.3762,39.02036,test,0.0013061646095725386,25.296951794456,0.40630867553283034
-120.29113,39.18673,test,0.004693278897657773,79.62426326884442,0.7109063510604834
-120.34932,39.46635,test,0.003561372384555518,63.07773516242324,0.6510833353159325
-119.9464,39.00332,test,4.92237764750033E-4,12.4557821747385,0.20503215371405314
-120.24334,39.35666,test,0.003562341273546398,63.09231991924331,0.6511451281346702
-119.50744,38.12064,test,0.005346662515280229,86.51830317209426,0.7369413115472152
-120.32064,38.91021,test,0.001144562753315621,23.43373829533184,0.3748844311542755
-118.21603,36.31895,test,8.67006297852868E-4,18.75284657140908,0.31237258711029636
-120.26873,39.01808,test,0.002669042465981234,46.35978555826284,0.5830674324335542
-120.13135,38.93537,test,0.004365814292110796,74.61170885825693,0.6958182877757215
-118.3083,36.3829,test,0.00105838330130683,22.33804980814448,0.35672689497762267
-122.4316,41.21103,test,1.265843814875461E-4,4.301285674233843,0.06219965724108057
-120.39525,39.45612,test,0.0030653650340568893,53.02331456151291,0.6162887347745736
-119.36121,38.39529,test,0.0015097087261591814,29.034250073801097,0.44166074940770494
-122.95606,41.38464,test,1.3856842754026536E-4,4.638231573047657,0.06768965088911054
-119.02651,37.20215,test,0.0027217304926191064,46.69029635220845,0.5878117185688246
-119.48372,38.04912,test,0.005779563576491229,91.44297466475854,0.7517535864719653
-118.68752,36.31419,test,0.0010842123394390767,22.69995028451716,0.36227867243947093
-120.30042,38.79762,test,0.0010218167688525862,21.928151026303453,0.34869981004419
-119.95392,39.07978,test,6.760939140947498E-4,15.975108380766125,0.26158152222324405
-119.98275,39.40864,test,0.0010386505062658508,22.14748138054517,0.35241989392277134
-120.29453,39.34016,test,0.003083743306434101,53.11813159598089,0.6177013033198744
-119.45964,38.20286,test,0.0041948775846285605,71.60167702141936,0.6872991634112914
-120.37653,38.86101,test,1.2816360333030245E-4,4.342502844732141,0.06292680810328356
-121.09715,39.71589,test,6.0483251861683165E-5,2.4210618453993287,0.030717302425420506
-119.33749,37.99494,test,0.003856691372036949,68.43319087686791,0.6689562724210122
-119.67528,38.08134,test,0.0038449541303027437,67.86049579631414,0.6682809373205831
-118.4011,36.51847,test,9.96066742703078E-4,21.581969218226515,0.3429258906765096
-119.39746,37.71165,test,0.0029221015888565415,50.38400595820816,0.6049089347745437
-121.26742,40.42232,test,1.611112387766503E-4,5.290074451128392,0.07784442474688781
-119.13509,37.07704,test,1.3731755686852113E-4,4.598426841043701,0.06711962267293987
-118.32181,36.7236,test,4.8621674992508355E-4,12.399684675311654,0.2030334111772667
-119.98839,39.32903,test,0.002489379319296904,43.79141100245582,0.5660349864487922
-118.79124,36.99695,test,0.001778726611478521,33.92050426030653,0.4823963500550843
-119.73417,38.64086,test,5.691975233697802E-4,13.884628024768082,0.22972419514759373
-121.3027,40.5202,test,6.674659625972431E-5,2.635354138609786,0.03379074728191338
-118.99994,37.20182,test,0.0021050768945494627,39.44925640154498,0.5244830440162992
-119.55408,38.17232,test,0.005377130245699666,87.59327401159666,0.7380413881189195
-119.45679,37.98461,test,0.0035604564508752044,63.06366843141393,0.6510248996950854
-120.22523,39.3549,test,0.003562341273546398,63.09231991924331,0.6511451281346702
-118.62925,36.33572,test,0.0026110588846953047,45.88501690188118,0.5777184590879748
-123.87441,41.74192,test,5.857752362191573E-7,0.03580908601709996,3.068281588362749E-4
-120.27966,39.26409,test,0.0038515270524266104,68.34716999702715,0.6686594678935239
-118.95348,37.12607,test,0.002101894103440452,39.40005919990978,0.5241056611638422
-119.18231,38.01255,test,6.80131612345139E-4,16.048554431578236,0.2627332730436985
-120.52918,39.3467,test,0.0022827034744348097,41.668817344014315,0.5446356169005799
-121.56329,40.43034,test,3.022650589969718E-4,8.774477584375934,0.13672137436118983
-119.9108,39.21988,test,7.928166949580637E-4,17.532358768688262,0.2934877427639175
-119.72037,37.85153,test,0.001117570908123765,22.96976567527992,0.3693086302437287
-119.83805,38.19607,test,0.005614774419897948,89.70301793259782,0.746316051246611
-120.23108,39.29723,test,0.004558574352733476,77.18417900007486,0.7048847789747301
-121.0296,39.64183,test,2.4001546314715826E-5,1.1722521259984757,0.012419643949695353
-119.56213,38.07261,test,0.004257083831189516,73.00508938828528,0.6904540636290284
-119.63332,37.62703,test,7.023921241269107E-4,16.530078128399914,0.2690191124554962
-119.09967,37.18131,test,0.0031314471711498134,54.249024065556966,0.6213197858203555
-120.33149,39.26428,test,0.003674470098199118,64.7529272677587,0.6581515005908342
-119.35633,37.6726,test,0.003383624709722447,58.50406494365155,0.6393643007192332
-120.2177,39.21335,test,0.003862666819135227,68.53272252006961,0.6692990313024526
-120.144,39.21958,test,0.0037544071769646742,65.51713987776368,0.6629769639046792
-119.04651,37.2017,test,0.0024772449210679315,43.404452383473355,0.5648343125044769
-120.39777,39.09968,test,0.0014646813704648585,28.254666164620204,0.4342077849467117
-123.78373,39.24532,test,1.0942769107905722E-9,4.473247852071317E-5,5.73356139283879E-7
-120.12697,38.61017,test,0.0050693623959372144,84.44919141598622,0.7264874324304669
-120.07171,38.66686,test,0.0064829177039473,96.02557776841302,0.7725610589231541
-121.40612,40.25557,test,8.20942317460879E-5,3.01298602396131,0.04124012505114281
-119.46026,37.52572,test,0.0019165984995313115,36.011407493756344,0.5010526391684634
-121.47756,40.47447,test,2.198293583704714E-4,6.842772624268624,0.10328507537660508
-120.17505,39.18521,test,0.00333049446731914,57.1631792016038,0.6357070157553807
-119.7298,38.18519,test,0.0062292824331549685,95.31259885365637,0.7654723691849392
-118.26428,36.38987,test,7.544253244049371E-4,17.136590490248473,0.2833021359405694
-120.02527,38.61519,test,0.005125447954158701,84.6370865301218,0.7286682853297549
-118.21233,36.39941,test,5.998813634116372E-4,14.320919989361824,0.23914644295781992
-120.18093,38.93597,test,0.004937829462654996,82.23782470761846,0.7212326939063718
-118.82786,37.17315,test,7.667505559515629E-4,17.232528705427114,0.2866040011983105
-120.26336,38.88666,test,0.00332408371556095,56.830005124343174,0.6352607024795807
-121.40812,40.41064,test,7.320009360506465E-5,2.82424361658215,0.036937179824233016
-119.58099,38.17311,test,0.005377130245699666,87.59327401159666,0.7380413881189195
-119.49783,38.0425,test,0.005779563576491229,91.44297466475854,0.7517535864719653
-119.32277,37.71069,test,0.002580869258770611,45.656055059511296,0.5748787745364302
-121.40073,40.4603,test,8.059600045918145E-5,2.978626875694324,0.04051798233977965
-118.6749,36.31824,test,0.0010842123394390767,22.69995028451716,0.36227867243947093
-120.44816,39.29532,test,0.0027924601708730194,48.0588325174375,0.5940133584997493
-120.39142,39.32917,test,0.003157704066364368,55.19314606427279,0.6232823750217176
-119.1088,37.72761,test,0.0013300190556428612,25.600140712263986,0.4106816554161125
-120.38645,39.23955,test,0.002525538149065566,44.769882877775295,0.5695738612803668
-119.45172,38.08078,test,0.005479208844682024,89.29684026811616,0.7416609410737509
-118.62784,36.62949,test,0.0015705580238561778,30.00882899468753,0.45142606710424055
-119.55012,38.37614,test,0.003583674463662559,63.41380375863143,0.652500169874547
-119.36227,37.85856,test,0.0036904141357648403,65.13347016300877,0.6591249752476273
-121.4716,40.32621,test,5.605282078406586E-5,2.2955103747754824,0.028531440752725103
-119.45842,37.93154,test,0.0018961111077798604,35.398505934505096,0.49836589734641495
-120.1266,38.84894,test,0.006633868509540598,97.09641293258989,0.7765800740766561
-119.89689,38.44352,test,0.0029167137408751425,50.30379922782513,0.604467779079271
-119.41871,37.81499,test,0.005683284584356002,90.35195087695575,0.7486053449796063
-119.5547,37.54037,test,4.7956109395209246E-4,12.337674255476278,0.20081226433412283
-120.18005,39.22091,test,0.0027244029533424518,46.72167667312166,0.588049484432668
-119.95785,38.43564,test,0.0033960254010189537,58.843412748812675,0.6402073721108807
-118.5682,36.89684,test,4.84179201500479E-4,12.380700936705368,0.20235474638480658
-120.38434,38.88811,test,1.900379036655355E-4,6.045212820178539,0.09055532542815833
-120.2567,39.352,test,0.0035566568926558356,62.70719313585983,0.6507822826584555
-119.67476,38.02481,test,0.0022580929960288733,41.62727468554928,0.5419459822443193
-121.47025,40.2711,test,8.391222715823106E-5,3.0640375120272654,0.042114934601361904
-119.80435,38.46293,test,0.005614669646083087,89.70270401060436,0.7463125182577838
-119.52649,37.47235,test,0.0014163489825668998,27.37414391159541,0.42598313634636736
-119.59482,37.72465,test,1.3748458497281108E-4,4.603741946017039,0.06719577856213571
-120.27134,38.87387,test,0.0021099245623480345,39.52414628507891,0.5250566822904627
-121.52167,40.37549,test,6.192373833607446E-5,2.461882973660927,0.03142588421081063
-120.15427,38.33747,test,0.0010352031849138158,22.119044171957352,0.35166153546194956
-118.48867,36.3456,test,9.949262267747196E-4,21.56922159967536,0.34266778467218717
-120.15628,39.46573,test,0.0017332026973790149,33.193788377996285,0.47592601142179675
-118.89937,36.99597,test,0.001619338924279302,31.110063275382007,0.45901132986403426
-119.322,37.61976,test,0.002382252712538973,41.9056867512248,0.5552003591888237
-119.60163,38.09452,test,0.0052120002873519795,84.92706942614535,0.7319664023074726
-119.94217,39.02409,test,4.92237764750033E-4,12.4557821747385,0.20503215371405314
-119.86369,38.00691,test,6.304160066266223E-4,14.814484792824802,0.2482967950923502
-118.21739,36.30088,test,8.67006297852868E-4,18.75284657140908,0.31237258711029636
-119.4069,37.80021,test,0.005652783393604711,89.93553017969336,0.747591259171713
-119.42929,37.84283,test,0.002845610071364294,48.275462252833975,0.5985521560300615
-119.63202,38.40492,test,0.004623288033439005,78.56511877530994,0.7078086122395177
-119.94011,39.23945,test,4.1117982849379415E-4,11.384009054588546,0.17725366975656098
-118.55493,36.25049,test,0.0010213001047309376,21.91899398330911,0.3485849564016438
-118.92879,37.09436,test,0.00169984960924489,32.495205441209876,0.4710818950298532
-119.17698,38.00403,test,6.80131612345139E-4,16.048554431578236,0.2627332730436985
-120.73049,40.13803,test,5.027519129079613E-4,12.560922256432223,0.208498507407548
-120.6837,39.90394,test,3.803966284994884E-4,10.884257004405123,0.16618883572743695
-120.31904,39.0827,test,0.0022825789208801126,41.668607096748985,0.5446220841950787
-118.28888,36.42344,test,6.222443006690478E-4,14.624417909906626,0.24586960910482222
-122.14891,41.44795,test,2.176373750077596E-4,6.784564764881135,0.10236060918286297
-120.40529,39.33063,test,0.003157704066364368,55.19314606427279,0.6232823750217176
-121.52304,40.50321,test,1.2111747150913318E-4,4.128869371243615,0.05967368612834804
-120.38362,39.45353,test,0.0030653650340568893,53.02331456151291,0.6162887347745736
-121.46081,39.93736,test,3.302311679503222E-5,1.4798962482731652,0.01700847263140169
-120.36816,38.79795,test,3.37698046373086E-4,9.725117504484816,0.15033901640281874
-119.78555,38.02027,test,9.374279695935156E-4,20.204908873878168,0.3293874582443471
-119.54775,37.90958,test,0.00440063282440555,75.83139898051331,0.6974969787580806
-119.42902,37.45199,test,2.568200519990968E-4,7.827095996158688,0.11860355447377505
-119.68709,38.44576,test,0.0041610361581573534,71.35429177634384,0.6855556754819438
-119.98191,38.73167,test,0.006051267180093238,92.69198320156859,0.7602273342585922
-120.53936,39.32946,test,0.001331000392562721,25.722159377199148,0.41086017421691695
-119.59955,37.97543,test,0.0022779439670643324,41.66078326251894,0.5441179253713915
-119.52657,38.08428,test,0.005346662515280229,86.51830317209426,0.7369413115472152
-120.32161,39.08875,test,0.0027093658690425463,46.54513913133173,0.5867080696401519
-119.81208,38.40607,test,0.0021155815464775508,39.55983895699714,0.5257243418288383
-118.86245,36.89877,test,8.723275210732666E-4,18.8286562390678,0.3136883677733767
-121.19854,39.76496,test,1.5144878943687294E-5,0.8157186941256133,0.007872825615057333
-119.81377,38.34733,test,0.002958071166506876,50.88136508785367,0.6078290864330386
-118.47931,36.43795,test,0.0010952066176764218,22.827439836606043,0.3646128483044318
-122.59316,41.30592,test,2.358727815676659E-4,7.386041951600559,0.10999383042759171
-119.605,37.88611,test,0.0036452843379772013,64.54186114881928,0.6563550630666444
-119.34769,37.66611,test,0.004984733263733457,83.4017775906976,0.7231295048011
-120.40272,39.34306,test,0.00444141594269238,75.99636126057305,0.6994398277967272
-120.14463,39.02092,test,0.0026401709581550937,46.01236231656129,0.5804210876942366
-120.66318,39.23512,test,3.856614951364384E-5,1.7155872899119382,0.019806850516347292
-120.2958,38.86807,test,9.930886747020957E-4,21.270803268520062,0.342251508153799
-120.25777,39.32598,test,0.003835396725397954,67.69078631429757,0.6677289865403442
-119.99918,38.32314,test,2.409190448317405E-4,7.539944595454907,0.11208328355910399
-120.01793,38.78631,test,0.004291783607118967,73.64805237286703,0.6921864191918923
-119.20326,38.04477,test,4.8292978558840433E-4,12.369060190012457,0.20193802007562695
-119.3739,38.10131,test,0.0035490790186374684,61.716701557042526,0.6502973962660881
-117.7764,34.28768,test,1.1631263255268177E-6,0.07471723229742372,6.090595734870405E-4
-118.64484,36.84439,test,0.0010294371661621546,22.06321034796691,0.35038912096527614
-120.29896,39.24959,test,0.004455438006702496,76.05307864137716,0.7001020661517823
-121.02295,40.48933,test,9.572998879167831E-5,3.4198460463542797,0.04776288938625738
-119.38236,37.69671,test,0.004388574203317977,74.9455953982784,0.6969177029178598
-120.52093,39.26184,test,0.0012761402733121904,25.07754870868557,0.4007115180134227
-118.20567,36.36099,test,5.40473910996335E-4,13.242111037683786,0.22068992474566232
-118.55553,36.85938,test,8.584907914857557E-4,18.60858085387602,0.3102564256358475
-119.45699,38.02839,test,0.0042305266233617885,72.35615436884832,0.6891149889952329
-119.45695,37.68741,test,0.004040299915357295,70.68099285891297,0.6791737940211781
-119.62436,37.68514,test,0.001451833500963287,27.986619073842167,0.4320445692715184
-122.06397,41.4619,test,4.763677076869028E-5,2.058220396549564,0.024351907957095836
-119.47867,37.96944,test,0.00576367049106739,91.31319769287204,0.7512393411147569
-120.05099,38.67788,test,0.0064829177039473,96.02557776841302,0.7725610589231541
-118.21458,36.4139,test,5.998813634116372E-4,14.320919989361824,0.23914644295781992
-120.28757,39.00438,test,0.002669042465981234,46.35978555826284,0.5830674324335542
-119.83251,38.12494,test,0.002509119550464793,44.39397466691204,0.567974148783507
-118.35065,36.56109,test,4.193188242339974E-4,11.48862331944812,0.18013026732630716
-119.62092,37.90186,test,0.0036452843379772013,64.54186114881928,0.6563550630666444
-121.31672,40.47963,test,7.346217649241877E-5,2.82971437373274,0.03706452659829096
-119.89031,38.4719,test,0.006235036046440899,95.32522538926402,0.7656380679360065
-122.51995,41.19613,test,1.3297011179682342E-4,4.467951134264613,0.06513303674525453
-118.99468,37.03004,test,3.3132179365809127E-4,9.501708126239839,0.14792027795676269
-123.80441,42.02633,test,1.2437280962785021E-5,0.7052317012407013,0.006474436440834562
-119.79455,37.92367,test,8.901986426758998E-6,0.5381856869720741,0.0046426233096755675
-118.90122,36.98935,test,0.001619338924279302,31.110063275382007,0.45901132986403426
-119.99954,39.38386,test,0.0010386505062658508,22.14748138054517,0.35241989392277134
-118.69828,36.65893,test,0.002453063138474174,43.119162789731895,0.5624216517402252
-121.48075,40.26442,test,8.391222715823106E-5,3.0640375120272654,0.042114934601361904
-121.40862,39.92917,test,3.316093449613482E-5,1.4842022946466042,0.017078243030072496
-120.2361,38.90929,test,0.005669342310258952,90.16158489605296,0.7481428132990798
-119.75692,38.48865,test,0.006078128925391636,93.90528345959335,0.7610337665642297
-119.37848,37.60798,test,0.003310559858760992,56.665542455104536,0.6343155822561782
-120.14322,38.54157,test,0.0013926318181113422,26.89096825087245,0.421859137234555
-120.18126,38.35171,test,1.196609264805561E-4,4.079447385027217,0.058998396081294424
-119.74588,38.18566,test,0.0062292824331549685,95.31259885365637,0.7654723691849392
-116.89039,34.10024,test,6.981285873940305E-5,2.7535379724665616,0.03528827737092783
-118.82793,37.20778,test,7.667505559515629E-4,17.232528705427114,0.2866040011983105
-119.79212,38.43452,test,0.004218436100559924,71.93316499362513,0.6885015119921609
-118.37126,36.35876,test,9.552332858348077E-4,20.65177699267826,0.3335569382378374
-120.45861,39.17883,test,4.583653659286182E-4,11.919781659909823,0.19365552426392343
-120.11228,38.83053,test,0.00502937218568505,84.2040940667942,0.7249109039144699
-119.97603,39.11111,test,2.5906553092460224E-4,7.884616479043239,0.11951661364771049
-121.43476,40.24862,test,7.673562771904683E-5,2.8980448812526234,0.03865227266200511
-120.40633,39.21839,test,0.002525538149065566,44.769882877775295,0.5695738612803668
-120.14301,38.60809,test,0.0050693623959372144,84.44919141598622,0.7264874324304669
-119.23483,37.45763,test,5.552204081049489E-5,2.280468902491625,0.028268905965237373
-121.44624,40.23793,test,7.673562771904683E-5,2.8980448812526234,0.03865227266200511
-120.24858,38.67787,test,9.515508434064329E-4,20.588845929521295,0.3326988768628697
-120.23238,38.80825,test,0.0030523873917566086,52.520130051599544,0.6152849583380462
-119.36771,38.38739,test,0.0015097087261591814,29.034250073801097,0.44166074940770494
-119.68799,37.96967,test,8.946833772408302E-4,19.268170668135472,0.3191617289476911
-118.5057,36.49182,test,0.001332159924272059,25.86645932290431,0.41107096977479046
-120.37399,39.44468,test,0.0034929999396870765,60.22982122667455,0.6466667686765343
-118.30707,36.37684,test,0.00105838330130683,22.33804980814448,0.35672689497762267
-120.37606,38.88867,test,1.900379036655355E-4,6.045212820178539,0.09055532542815833
-119.98778,38.73587,test,0.006051267180093238,92.69198320156859,0.7602273342585922
-119.49554,37.97881,test,0.00576367049106739,91.31319769287204,0.7512393411147569
-120.31709,39.25231,test,0.003674470098199118,64.7529272677587,0.6581515005908342
-120.42585,39.17965,test,0.002178026317165803,40.6267402976689,0.5329715005706519
-121.46045,40.42789,test,1.5718013917926158E-4,5.184582880144352,0.07608955211033769
-120.40809,39.19867,test,0.002750527189065881,47.48213501223275,0.590359363045381
-119.44323,37.67046,test,0.004040299915357295,70.68099285891297,0.6791737940211781
-119.97406,38.37692,test,0.0015505710816523424,29.60829327693994,0.448256380506172
-119.98556,39.23661,test,3.6764552682214314E-4,10.544541488963826,0.16151786972384852
-119.86144,38.76507,test,0.00219192022771923,40.71347193552892,0.5345539676895634
-123.92078,41.86498,test,6.636428089774728E-8,0.0038881486543318328,3.477096727003407E-5
-119.94471,39.24223,test,4.1117982849379415E-4,11.384009054588546,0.17725366975656098
-120.15202,39.26236,test,0.004115319901924652,71.0925292609949,0.6831692979095036
-121.72336,40.66157,test,2.6592655124057405E-5,1.2636810410391786,0.013741993025823874
-119.3538,37.68607,test,0.003383624709722447,58.50406494365155,0.6393643007192332
-119.57176,38.0877,test,0.004854104029288353,80.9376065034346,0.7177813966911505
-120.2917,38.86287,test,9.930886747020957E-4,21.270803268520062,0.342251508153799
-119.57958,37.52317,test,4.7956109395209246E-4,12.337674255476278,0.20081226433412283
-119.39481,37.77403,test,0.0049284315465161575,81.91322968918621,0.7208495082170652
-120.15769,39.17296,test,0.0018394970159038104,34.59950034805617,0.4907887263286449
-119.9428,38.33405,test,5.03412995320566E-4,12.567989319139866,0.20871544634570163
-119.8359,38.17303,test,0.005614774419897948,89.70301793259782,0.746316051246611
-118.95568,37.03186,test,7.072175608191589E-4,16.619334462731672,0.27036759162008994
-119.50948,38.00651,test,0.002498676143267462,44.02820766130407,0.566950414956995
-120.30187,39.33986,test,0.003083743306434101,53.11813159598089,0.6177013033198744
-119.95591,39.12313,test,4.4432609956420463E-4,11.727604692225047,0.18884417593276082
-120.18764,39.39787,test,0.0031877720585297004,55.350595298142345,0.6255049882029737
-119.2302,38.01579,test,0.0019245644704041962,36.16071228089172,0.5020895517974273
-118.76472,36.81503,test,7.585370137885863E-5,2.8796354197246785,0.038225020988370356
-118.33979,36.55372,test,4.193188242339974E-4,11.48862331944812,0.18013026732630716
